<?xml version="1.0" encoding="UTF-8" standalone="no"?>
<!-- Created with Inkscape (http://www.inkscape.org/) -->

<svg
   xmlns:osb="http://www.openswatchbook.org/uri/2009/osb"
   xmlns:dc="http://purl.org/dc/elements/1.1/"
   xmlns:cc="http://creativecommons.org/ns#"
   xmlns:rdf="http://www.w3.org/1999/02/22-rdf-syntax-ns#"
   xmlns:svg="http://www.w3.org/2000/svg"
   xmlns="http://www.w3.org/2000/svg"
   xmlns:xlink="http://www.w3.org/1999/xlink"
   xmlns:sodipodi="http://sodipodi.sourceforge.net/DTD/sodipodi-0.dtd"
   xmlns:inkscape="http://www.inkscape.org/namespaces/inkscape"
   version="1.1"
   id="svg834"
   xml:space="preserve"
   width="2.72in"
   height="3.7in"
   viewBox="0 0 261.12 355.20001"
   sodipodi:docname="deck.svg"
   inkscape:export-filename="/home/ma/Documents/studium/master/patternCards/continuity/turnBased.png"
   inkscape:export-xdpi="300"
   inkscape:export-ydpi="300"
   inkscape:version="0.91 r"
   enable-background="new"><metadata
     id="metadata840"><rdf:RDF><cc:Work
         rdf:about=""><dc:format>image/svg+xml</dc:format><dc:type
           rdf:resource="http://purl.org/dc/dcmitype/StillImage" /><dc:title /></cc:Work></rdf:RDF></metadata><defs
     id="defs838"><linearGradient
       id="linearGradient4584"
       osb:paint="solid"><stop
         style="stop-color:#0d676f;stop-opacity:1;"
         offset="0"
         id="stop4582" /></linearGradient><linearGradient
       id="linearGradient4576"
       osb:paint="solid"><stop
         style="stop-color:#595959;stop-opacity:1;"
         offset="0"
         id="stop4574" /></linearGradient><linearGradient
       id="linearGradient4570"
       osb:paint="solid"><stop
         style="stop-color:#000000;stop-opacity:1;"
         offset="0"
         id="stop4568" /></linearGradient><clipPath
       clipPathUnits="userSpaceOnUse"
       id="clipPath850"><path
         d="m 82.398,25.067 h 31.045 v 18.51 H 82.398 Z"
         id="path848"
         inkscape:connector-curvature="0" /></clipPath><clipPath
       clipPathUnits="userSpaceOnUse"
       id="clipPath866"><path
         d="M 0,266.4 H 195.84 V 0 H 0 Z"
         id="path864"
         inkscape:connector-curvature="0" /></clipPath><linearGradient
       inkscape:collect="always"
       xlink:href="#linearGradient4570"
       id="linearGradient4578"
       x1="24.824408"
       y1="-79.199997"
       x2="171.01559"
       y2="-79.199997"
       gradientUnits="userSpaceOnUse"
       gradientTransform="translate(-4.8239983,2.160012)" /><linearGradient
       inkscape:collect="always"
       xlink:href="#linearGradient4570"
       id="linearGradient4588"
       gradientUnits="userSpaceOnUse"
       x1="24.824408"
       y1="-181.79997"
       x2="171.01559"
       y2="-181.79997"
       gradientTransform="translate(-4.8239983,-3.4560057)" /></defs><sodipodi:namedview
     pagecolor="#ffffff"
     bordercolor="#666666"
     borderopacity="1"
     objecttolerance="10"
     gridtolerance="10"
     guidetolerance="10"
     inkscape:pageopacity="0"
     inkscape:pageshadow="2"
     inkscape:window-width="1176"
     inkscape:window-height="717"
     id="namedview836"
     showgrid="false"
     inkscape:zoom="1.4142136"
     inkscape:cx="31.748377"
     inkscape:cy="161.06992"
     inkscape:window-x="617"
     inkscape:window-y="333"
     inkscape:window-maximized="0"
     inkscape:current-layer="layer1"
     inkscape:document-units="in"
     units="in"
     scale-x="96"
     showguides="false"
     inkscape:guide-bbox="true"
     inkscape:snap-text-baseline="true"><sodipodi:guide
       position="230.32813,22.140625"
       orientation="0,1"
       id="guide829"
       inkscape:locked="false"
       inkscape:label=""
       inkscape:color="rgb(0,0,255)" /><sodipodi:guide
       position="22.34375,333.3125"
       orientation="1,0"
       id="guide831"
       inkscape:locked="false"
       inkscape:label=""
       inkscape:color="rgb(0,0,255)" /><sodipodi:guide
       position="238.78125,334.54688"
       orientation="1,0"
       id="guide833"
       inkscape:locked="false"
       inkscape:label=""
       inkscape:color="rgb(0,0,255)" /><sodipodi:guide
       position="22.144531,333.0625"
       orientation="0,1"
       id="guide4524"
       inkscape:locked="false"
       inkscape:label=""
       inkscape:color="rgb(0,0,255)" /><sodipodi:guide
       position="26.505456,311.7899"
       orientation="0,1"
       id="guide4556"
       inkscape:locked="false"
       inkscape:label=""
       inkscape:color="rgb(0,0,255)" /><sodipodi:guide
       position="33.6,302.208"
       orientation="0,1"
       id="guide4558"
       inkscape:locked="false"
       inkscape:label=""
       inkscape:color="rgb(0,0,255)" /><sodipodi:guide
       position="249.375,184.3125"
       orientation="0,1"
       id="guide4560"
       inkscape:locked="false"
       inkscape:label=""
       inkscape:color="rgb(0,0,255)" /><sodipodi:guide
       position="33.6,174.72"
       orientation="0,1"
       id="guide4562"
       inkscape:locked="false"
       inkscape:label=""
       inkscape:color="rgb(0,0,255)" /><sodipodi:guide
       position="27.168,308.82888"
       orientation="1,0"
       id="guide4636"
       inkscape:locked="false"
       inkscape:label=""
       inkscape:color="rgb(0,0,255)" /><sodipodi:guide
       position="37.653437,328.224"
       orientation="0,1"
       id="guide4638"
       inkscape:locked="false"
       inkscape:label=""
       inkscape:color="rgb(0,0,255)" /><sodipodi:guide
       position="234.24,286.37824"
       orientation="1,0"
       id="guide4640"
       inkscape:locked="false"
       inkscape:label=""
       inkscape:color="rgb(0,0,255)" /></sodipodi:namedview><g
     inkscape:groupmode="layer"
     id="layer3"
     inkscape:label="cut"
     style="display:inline"><path
       d="m 249.61466,332.56067 c 0,6.236 -5.10267,11.33867 -11.33867,11.33867 l -215.433317,0 c -6.236,0 -11.337333,-5.10267 -11.337333,-11.33867 l 0,-309.921334 c 0,-6.237333 5.101333,-11.338666 11.337333,-11.338666 l 215.433317,0 c 6.236,0 11.33867,5.101333 11.33867,11.338666 z"
       style="fill:#9c5631;stroke:#231f20;stroke-width:1;stroke-linecap:butt;stroke-linejoin:miter;stroke-miterlimit:4;stroke-dasharray:none;stroke-opacity:1;fill-opacity:1"
       id="path6570"
       inkscape:connector-curvature="0" /></g><g
     id="g842"
     inkscape:groupmode="layer"
     inkscape:label="background"
     transform="matrix(1.3333333,0,0,-1.3333333,0,355.19999)"
     style="display:inline"><rect
       style="opacity:1;fill:#ffffff;fill-opacity:1;stroke:url(#linearGradient4578);stroke-width:0.75118113;stroke-miterlimit:4;stroke-dasharray:none;stroke-opacity:0.94117647"
       id="rect4566"
       width="155.304"
       height="114.43452"
       x="20.376001"
       y="-131.03998"
       transform="scale(1,-1)"
       ry="4.125" /><rect
       style="opacity:1;fill:#ffffff;fill-opacity:1;stroke:url(#linearGradient4588);stroke-width:0.75118107;stroke-miterlimit:4;stroke-dasharray:none;stroke-opacity:0.94117647"
       id="rect4580"
       width="155.304"
       height="88.415642"
       x="20.376001"
       y="-226.65599"
       transform="scale(1,-1)"
       ry="3.75" /></g><g
     inkscape:groupmode="layer"
     id="layer2"
     inkscape:label="secureLine"
     style="display:none"
     sodipodi:insensitive="true"><g
       id="g2736"
       transform="matrix(1.3333333,0,0,-1.3333333,238.276,321.99612)"><path
         d="m 0,0 c 0,-4.357 -3.463,-7.924 -7.694,-7.924 h -146.187 c -4.231,0 -7.694,3.567 -7.694,7.924 v 216.593 c 0,4.359 3.463,7.925 7.694,7.925 H -7.694 c 4.231,0 7.694,-3.566 7.694,-7.925 z"
         style="fill:none;stroke:#ed1c24;stroke-width:0.75;stroke-linecap:butt;stroke-linejoin:miter;stroke-miterlimit:4;stroke-dasharray:3;stroke-dashoffset:0;stroke-opacity:1"
         id="path2738"
         inkscape:connector-curvature="0" /></g></g><g
     inkscape:groupmode="layer"
     id="layer1"
     inkscape:label="content"><text
       xml:space="preserve"
       style="font-style:normal;font-weight:normal;line-height:0%;font-family:sans-serif;letter-spacing:0px;word-spacing:0px;fill:#000000;fill-opacity:1;stroke:none;stroke-width:1px;stroke-linecap:butt;stroke-linejoin:miter;stroke-opacity:1"
       x="26.848118"
       y="43.256229"
       id="text832"><tspan
         sodipodi:role="line"
         id="tspan830"
         x="26.848118"
         y="43.256229"
         style="font-style:normal;font-variant:normal;font-weight:normal;font-stretch:normal;font-size:21.33333397px;line-height:125%;font-family:Dosis;-inkscape-font-specification:Dosis;stroke-width:1px">Standard Deck</tspan></text>
<text
       xml:space="preserve"
       style="font-style:normal;font-variant:normal;font-weight:normal;font-stretch:normal;line-height:0%;font-family:Dosis;-inkscape-font-specification:'Dosis, Normal';font-variant-ligatures:normal;font-variant-caps:normal;font-variant-numeric:normal;font-feature-settings:normal;text-align:start;letter-spacing:0px;word-spacing:0px;writing-mode:lr-tb;text-anchor:start;fill:#000000;fill-opacity:1;stroke:none;stroke-width:1px;stroke-linecap:butt;stroke-linejoin:miter;stroke-opacity:1"
       x="31.124998"
       y="196.40988"
       id="text2300"><tspan
         sodipodi:role="line"
         x="31.124998"
         y="196.40988"
         id="tspan4362"
         style="font-size:13.33333302px;line-height:1">Defined set of 52 cards. 4 suits of 13:</tspan><tspan
         sodipodi:role="line"
         x="31.124998"
         y="209.74321"
         id="tspan4366"
         style="font-size:13.33333302px;line-height:1">2-10 and Jack-Ace, clubs, spades,</tspan><tspan
         sodipodi:role="line"
         x="31.124998"
         y="223.07655"
         id="tspan4368"
         style="font-size:13.33333302px;line-height:1">hearts and diamonds.</tspan></text>
<text
       xml:space="preserve"
       style="font-style:normal;font-variant:normal;font-weight:normal;font-stretch:normal;line-height:0%;font-family:Dosis;-inkscape-font-specification:'Dosis, Normal';font-variant-ligatures:normal;font-variant-caps:normal;font-variant-numeric:normal;font-feature-settings:normal;text-align:start;letter-spacing:0px;word-spacing:0px;writing-mode:lr-tb;text-anchor:start;fill:#000000;fill-opacity:1;stroke:none;stroke-width:1px;stroke-linecap:butt;stroke-linejoin:miter;stroke-opacity:1"
       x="31.124998"
       y="247.72937"
       id="text2304"
       sodipodi:linespacing="100%"><tspan
         sodipodi:role="line"
         id="tspan2302"
         x="31.124998"
         y="247.72937"
         style="font-style:normal;font-variant:normal;font-weight:normal;font-stretch:normal;font-size:13.33333302px;line-height:100%;font-family:Dosis;-inkscape-font-specification:'Dosis, Normal';font-variant-ligatures:normal;font-variant-caps:normal;font-variant-numeric:normal;font-feature-settings:normal;text-align:start;writing-mode:lr-tb;text-anchor:start">* fixed structure, many variants</tspan><tspan
         sodipodi:role="line"
         x="31.124998"
         y="260.39938"
         id="tspan2306"
         style="font-style:normal;font-variant:normal;font-weight:normal;font-stretch:normal;font-size:13.33333302px;line-height:100%;font-family:Dosis;-inkscape-font-specification:'Dosis, Normal';font-variant-ligatures:normal;font-variant-caps:normal;font-variant-numeric:normal;font-feature-settings:normal;text-align:start;writing-mode:lr-tb;text-anchor:start">* a lot of examples to compare with</tspan></text>
<text
       xml:space="preserve"
       style="font-style:normal;font-variant:normal;font-weight:normal;font-stretch:normal;line-height:0%;font-family:Dosis;-inkscape-font-specification:'Dosis, Normal';font-variant-ligatures:normal;font-variant-caps:normal;font-variant-numeric:normal;font-feature-settings:normal;text-align:start;letter-spacing:0px;word-spacing:0px;writing-mode:lr-tb;text-anchor:start;fill:#000000;fill-opacity:1;stroke:none;stroke-width:1px;stroke-linecap:butt;stroke-linejoin:miter;stroke-opacity:1"
       x="31.124998"
       y="286.37552"
       id="text2314"><tspan
         sodipodi:role="line"
         x="31.124998"
         y="286.37552"
         style="font-style:normal;font-variant:normal;font-weight:normal;font-stretch:normal;font-size:13.33333302px;line-height:1;font-family:Dosis;-inkscape-font-specification:'Dosis, Normal';font-variant-ligatures:normal;font-variant-caps:normal;font-variant-numeric:normal;font-feature-settings:normal;text-align:start;writing-mode:lr-tb;text-anchor:start"
         id="tspan3439">Relates to: Hand, Suits and Ranks, Trick,</tspan><tspan
         sodipodi:role="line"
         x="31.124998"
         y="299.70886"
         style="font-style:normal;font-variant:normal;font-weight:normal;font-stretch:normal;font-size:13.33333302px;line-height:1;font-family:Dosis;-inkscape-font-specification:'Dosis, Normal';font-variant-ligatures:normal;font-variant-caps:normal;font-variant-numeric:normal;font-feature-settings:normal;text-align:start;writing-mode:lr-tb;text-anchor:start"
         id="tspan5096">Hands Only</tspan></text>
<text
       xml:space="preserve"
       style="font-style:normal;font-variant:normal;font-weight:normal;font-stretch:normal;line-height:0%;font-family:Dosis;-inkscape-font-specification:'Dosis, Normal';font-variant-ligatures:normal;font-variant-caps:normal;font-variant-numeric:normal;font-feature-settings:normal;text-align:start;letter-spacing:0px;word-spacing:0px;writing-mode:lr-tb;text-anchor:start;fill:#000000;fill-opacity:1;stroke:none;stroke-width:1px;stroke-linecap:butt;stroke-linejoin:miter;stroke-opacity:1"
       x="31.124998"
       y="320.02502"
       id="text2314-3"><tspan
         sodipodi:role="line"
         x="31.124998"
         y="320.02502"
         style="font-style:normal;font-variant:normal;font-weight:normal;font-stretch:normal;font-size:13.33333302px;line-height:1;font-family:Dosis;-inkscape-font-specification:'Dosis, Normal';font-variant-ligatures:normal;font-variant-caps:normal;font-variant-numeric:normal;font-feature-settings:normal;text-align:start;writing-mode:lr-tb;text-anchor:start"
         id="tspan6436">Examples: Whist, Rummy, Jawaker</tspan></text>
<path
       style="fill:#000000;fill-opacity:1;stroke-width:0.11415882"
       d="m 68.942745,163.36722 c -0.330466,-0.39819 -0.181132,-1.16505 0.50507,-2.5938 0.358093,-0.74558 0.651079,-1.41421 0.651079,-1.48587 0,-0.0717 0.255725,-0.54044 0.568278,-1.04174 0.312562,-0.5013 0.569417,-0.9679 0.570795,-1.03689 0.004,-0.20147 0.844176,-2.12035 1.119655,-2.55729 0.138554,-0.21976 0.252105,-0.44597 0.25234,-0.50271 2.29e-4,-0.0567 0.123529,-0.36496 0.273986,-0.68494 0.150451,-0.32 0.411262,-0.91072 0.579563,-1.31272 0.168314,-0.402 0.375499,-0.83865 0.460433,-0.97035 0.314586,-0.48783 1.003574,-2.19099 1.25286,-3.09706 0.739249,-2.68696 1.541304,-4.03356 2.442477,-4.10077 0.259398,-0.0194 0.545421,-0.0964 0.63561,-0.17127 0.09019,-0.0748 0.256949,-0.12431 0.370568,-0.10992 0.113617,0.0144 0.360702,-0.0369 0.54906,-0.11413 0.810278,-0.33197 1.426988,-0.0897 1.426988,0.56074 0,0.0745 0.175022,0.33994 0.388942,0.58985 0.34041,0.39768 0.405166,0.57804 0.518932,1.44513 0.126974,0.96775 0.177889,1.23672 0.522504,2.76016 0.09231,0.40809 0.169062,0.84475 0.170555,0.97034 0.0013,0.12561 0.133656,0.5366 0.2937,0.91333 0.704941,1.65931 1.049053,3.52973 1.249522,6.79188 0.07318,1.19078 0.24722,2.24245 0.523527,3.16343 0.126173,0.4206 0.120044,0.50668 -0.04946,0.69395 -0.106413,0.11758 -0.193486,0.34734 -0.193486,0.51058 0,0.95925 -1.143366,0.58876 -1.312453,-0.42527 -0.170347,-1.02164 -0.400381,-3.345 -0.403457,-4.07491 -0.01061,-2.51417 -0.245336,-3.12948 -1.232243,-3.22972 -1.234221,-0.12535 -1.508194,-0.11425 -2.588547,0.10494 -1.846114,0.37449 -2.623084,0.2481 -2.492383,-0.40543 0.08819,-0.44096 -0.574024,-0.49333 -0.956656,-0.0757 -0.239292,0.2612 -2.506021,4.72136 -2.770345,5.45108 -0.412068,1.13762 -1.031826,2.23359 -1.369909,2.4225 -0.193324,0.10808 -0.439877,0.36488 -0.547897,0.5708 -0.440611,0.83989 -1.145089,1.36054 -1.409634,1.04179 z m 8.576468,-11.33163 c 0.533694,-0.0476 1.304266,-0.0406 1.712385,0.0152 1.643948,0.22507 2.156696,-0.0377 1.827557,-0.93648 -0.126133,-0.34445 -0.230553,-0.70405 -0.23204,-0.79911 -0.0013,-0.0951 -0.133643,-0.48108 -0.293674,-0.85781 -0.160025,-0.37672 -0.432106,-1.25004 -0.604626,-1.9407 -0.455952,-1.82531 -0.807518,-2.19362 -1.102558,-1.15506 -0.125803,0.44282 -0.768471,1.60673 -1.096986,1.98669 -0.178313,0.20624 -0.324213,0.4258 -0.324213,0.48792 0,0.0622 -0.1798,0.37432 -0.399554,0.6938 -0.219761,0.31946 -0.399554,0.67089 -0.399554,0.78096 0,0.11006 -0.09548,0.32262 -0.212177,0.47237 -0.292563,0.3754 -0.586937,0.96714 -0.586937,1.17985 0,0.20011 0.18817,0.20806 1.712377,0.0723 z m 73.461207,10.38344 c -1.35046,-0.0824 -1.67087,-0.18919 -3.83986,-1.27993 -0.2283,-0.11482 -0.47899,-0.20875 -0.55706,-0.20875 -0.95621,0 -2.87152,-3.7117 -2.3366,-4.5281 0.31176,-0.47583 0.80152,-0.31587 0.97206,0.31747 0.0661,0.24552 0.25931,0.61268 0.42934,0.81591 0.44536,0.53237 0.82284,1.08587 0.82284,1.20654 0,0.17791 1.53987,1.50324 1.74657,1.50324 0.0544,0 0.44793,0.15324 0.87468,0.34053 1.36125,0.59745 3.11469,0.57206 3.97447,-0.0576 1.19475,-0.87494 1.36601,-1.30881 1.50844,-3.82189 0.0445,-0.78485 0.14929,-2.17197 0.23289,-3.08251 0.38228,-4.16344 -0.35961,-7.37965 -1.73534,-7.523 -0.39739,-0.0414 -0.79958,-0.12331 -0.89377,-0.18201 -0.14367,-0.0896 -1.48798,-0.12388 -6.53917,-0.16707 -0.41758,-0.003 -0.56036,-0.0516 -0.60766,-0.20443 -0.034,-0.10989 -0.1339,-0.36589 -0.22199,-0.56892 -0.31107,-0.71694 0.24327,-0.96647 1.45149,-0.65339 0.49779,0.12899 0.77726,0.14615 1.04392,0.0641 0.74289,-0.22857 1.88054,-0.35817 2.17181,-0.24744 0.18146,0.069 0.55156,0.0692 1.00893,6.7e-4 0.39728,-0.0596 1.05625,-0.0688 1.46436,-0.0205 0.48848,0.0578 0.92829,0.0404 1.28712,-0.0511 1.35623,-0.34541 2.10447,0.0684 2.41155,1.3338 0.53368,2.1992 0.87689,6.46429 0.64176,7.97572 -0.0763,0.49077 -0.15431,1.32431 -0.17323,1.8523 -0.15644,4.36244 -0.1775,4.46058 -1.18078,5.50532 -1.60563,1.67201 -1.91925,1.80524 -3.95677,1.68093 z m -65.028008,-0.53618 c -0.353362,-0.42646 -0.195551,-1.45068 0.307757,-1.99741 0.485032,-0.52687 1.799014,-2.67246 2.680909,-4.37763 1.165005,-2.25254 1.620547,-3.09029 1.774064,-3.26251 0.08837,-0.0991 0.160658,-0.2441 0.160658,-0.32215 0,-0.14632 0.503469,-1.07775 0.746604,-1.38124 0.07545,-0.0942 0.245417,-0.46549 0.377693,-0.82512 0.132283,-0.35964 0.29216,-0.74491 0.355286,-0.85619 1.856732,-3.27265 0.570722,-5.84002 -1.920794,-3.83463 -0.738059,0.59405 -0.755175,0.59495 -1.320487,0.0697 -0.448867,-0.41704 -0.448867,-0.41704 0.156734,-0.95097 1.669699,-1.4721 3.470974,-1.94963 4.253058,-1.12749 1.36927,1.43939 1.416531,2.38937 0.280661,5.64104 -0.558846,1.59984 -0.720559,1.95135 -1.786863,3.88411 -0.518783,0.94032 -1.49592,2.76499 -2.171432,4.0548 -0.675504,1.28982 -1.336468,2.52273 -1.468805,2.73982 -0.457015,0.74966 -0.267035,0.8601 0.655884,0.38127 0.678021,-0.35177 1.45265,-0.46477 1.964012,-0.28651 0.201196,0.0702 0.936833,0.15748 1.634737,0.1941 0.69791,0.0366 1.441877,0.11146 1.653267,0.1663 0.21139,0.0548 0.535915,0.0694 0.721158,0.0324 0.242038,-0.0484 0.429718,10e-4 0.666999,0.17676 0.181603,0.13427 0.436627,0.24412 0.566717,0.24412 0.582147,0 0.338755,0.73175 -0.282134,0.84824 -0.240652,0.0452 -0.475041,0.18485 -0.580732,0.34617 -0.243749,0.37201 -0.464767,0.43248 -0.887434,0.24282 -0.935298,-0.41967 -1.254427,-0.44965 -4.344263,-0.40803 -0.370176,0.004 -0.851643,0.0837 -1.06991,0.17488 -0.218274,0.0912 -0.571663,0.16581 -0.785327,0.16581 -0.213651,0 -0.680787,0.10278 -1.038065,0.22833 -0.79038,0.27779 -1.094671,0.28697 -1.299952,0.0392 z m 32.669518,-0.11521 c -0.22408,-0.28486 -0.24046,-0.39014 -0.15645,-1.00583 0.1158,-0.84864 0.11612,-1.3819 0.003,-5.254 -0.0495,-1.69525 -0.10526,-4.18677 -0.12384,-5.5367 -0.0426,-3.08373 -0.0333,-3.0565 -0.73107,-2.14861 -0.20166,0.26238 -1.01459,1.17422 -1.80652,2.02632 -0.79194,0.8521 -1.61462,1.74191 -1.82819,1.97737 -0.29026,0.32001 -0.48164,0.43013 -0.75794,0.43613 -0.2033,0.004 -0.47238,0.0495 -0.59796,0.10006 -0.99311,0.40029 -0.47443,-0.89918 0.83321,-2.08746 1.06501,-0.96781 2.77985,-2.77005 3.10528,-3.26355 0.21975,-0.33325 0.67202,-0.9177 1.00504,-1.29879 0.33301,-0.38107 0.78805,-0.98865 1.01117,-1.35015 0.60838,-0.98566 1.85569,-0.93767 1.59406,0.0613 -0.0344,0.13145 -0.17072,0.62428 -0.30286,1.09519 -0.2283,0.81341 -0.23676,1.02726 -0.16937,4.28095 0.039,1.88362 0.0926,4.81179 0.11904,6.50705 0.0264,1.69526 0.1057,3.50398 0.1761,4.0194 0.13968,1.02278 -0.0758,1.63146 -0.57765,1.63146 -0.11615,0 -0.28628,0.0288 -0.37804,0.064 -0.0991,0.038 -0.26842,-0.0651 -0.4171,-0.25415 z m 55.73694,-0.12954 c -0.36069,-0.22922 -0.4989,-0.9375 -0.47919,-2.45591 0.0108,-0.82795 -0.0147,-2.35298 -0.0564,-3.38897 -0.0418,-1.036 -0.0983,-2.85969 -0.12559,-4.05265 -0.0534,-2.33259 -0.39193,-4.81126 -0.84735,-6.20329 -0.36581,-1.1181 -0.12829,-2.52634 0.45168,-2.678 0.14913,-0.039 0.19179,-0.12483 0.14706,-0.29587 -0.0347,-0.13251 -0.0292,-0.24094 0.012,-0.24094 0.19147,0 0.75073,0.52123 0.75073,0.69968 0,0.11007 0.0508,0.23153 0.11296,0.26993 0.062,0.0384 0.10952,0.43957 0.10537,0.89147 -0.004,0.45191 0.0443,0.98948 0.10787,1.19459 0.0636,0.20512 0.10374,0.69315 0.0893,1.08451 -0.0262,0.71063 0.14879,1.85115 0.3286,2.14207 0.0523,0.0846 0.12458,0.61935 0.16063,1.18823 0.0727,1.14827 0.23258,1.27698 0.92171,0.74205 0.15696,-0.12184 0.50372,-0.3299 0.77057,-0.46236 0.26685,-0.13246 0.48517,-0.27799 0.48517,-0.32341 0,-0.0454 0.41736,-0.36083 0.92745,-0.70092 1.08855,-0.72575 1.26621,-0.8543 2.43216,-1.75993 0.48501,-0.37672 1.03727,-0.77094 1.22724,-0.87606 0.18998,-0.10515 0.41726,-0.29368 0.50509,-0.41905 0.0878,-0.12538 0.31312,-0.26166 0.50068,-0.30285 0.18757,-0.0412 0.36904,-0.12025 0.40329,-0.17566 0.0342,-0.0553 0.36154,-0.26025 0.72732,-0.45522 0.36578,-0.19495 0.77135,-0.49824 0.90127,-0.67397 0.71451,-0.96644 2.19317,-1.1514 2.19317,-0.27435 0,0.18824 -0.10961,0.33891 -0.34278,0.4712 -0.18853,0.107 -0.37252,0.29721 -0.4089,0.42278 -0.10624,0.36693 -1.375,1.49437 -2.03138,1.80516 -0.33195,0.15716 -0.84841,0.4977 -1.14772,0.75674 -0.29931,0.25906 -0.78308,0.59937 -1.07507,0.75624 -0.60427,0.32469 -1.24484,0.73918 -1.97098,1.27536 -0.27532,0.20329 -0.74703,0.53721 -1.04824,0.74203 -1.25329,0.85224 -1.22633,0.75472 -0.40594,1.46909 1.17695,1.02484 1.92913,1.52501 2.81464,1.87164 0.45849,0.17947 0.85965,0.36844 0.89147,0.41992 0.0318,0.0514 0.17343,0.0936 0.3147,0.0936 0.14125,0 0.35655,0.0754 0.47844,0.1676 0.12187,0.0922 0.29865,0.1695 0.39283,0.1718 0.1806,0.004 2.21354,1.26978 2.79689,1.74087 0.50688,0.40933 2.15435,1.40855 5.08007,3.08111 0.66954,0.38276 0.70918,0.43855 0.62637,0.88172 -0.1349,0.72209 -0.82145,1.00721 -1.41405,0.58725 -0.56293,-0.39894 -2.46797,-1.53351 -3.28881,-1.95869 -0.45263,-0.23447 -1.0691,-0.62836 -1.36992,-0.87535 -0.88218,-0.72429 -3.46282,-2.19809 -3.84887,-2.19809 -0.065,0 -1.05872,-0.43731 -1.94936,-0.85781 -0.31395,-0.14822 -0.80198,-0.37403 -1.08451,-0.5018 -0.59237,-0.26787 -1.6759,-0.92109 -2.46286,-1.48478 -1.28104,-0.91759 -1.56056,-0.12173 -1.23951,3.52934 0.31012,3.52685 0.31425,4.37526 0.0229,4.70345 -0.4106,0.46239 -0.80865,0.63029 -1.08215,0.45649 z m -11.76333,-0.73695 c -0.98783,-0.26857 -1.8622,-0.86115 -2.16224,-1.46541 -0.87163,-1.75545 -1.30936,-3.21644 -1.41255,-4.71464 -0.0523,-0.76027 -0.14739,-1.7419 -0.21117,-2.18141 -0.28598,-1.97064 -0.14414,-3.47396 0.4524,-4.79468 0.11344,-0.25115 0.34063,-0.83801 0.50486,-1.30414 0.56938,-1.61595 1.18577,-2.29187 2.09001,-2.29187 0.31941,0 0.73295,-0.16211 1.48889,-0.58364 1.19821,-0.66818 1.53301,-0.6845 2.16678,-0.1057 0.203,0.18542 0.56097,0.3715 0.79546,0.41351 0.45515,0.0816 0.85963,0.35719 0.76022,0.51805 -0.0331,0.0537 0.0142,0.069 0.10515,0.0341 0.091,-0.0349 0.23494,0.022 0.31986,0.12634 0.52116,0.64071 0.71933,0.79734 0.75864,0.59967 0.0796,-0.40013 1.27939,0.62434 1.27939,1.09242 0,0.0891 0.12842,0.24628 0.2854,0.34913 0.15697,0.10288 0.2854,0.288 0.2854,0.41145 0,0.12346 0.1032,0.49472 0.22933,0.82503 0.1486,0.38915 0.27057,1.12295 0.3465,2.08461 0.0644,0.81624 0.1587,1.86936 0.20947,2.34027 0.0507,0.47089 0.0489,0.97511 -0.004,1.12047 -0.053,0.14537 -0.0963,0.43227 -0.0963,0.63757 0,0.20528 -0.10645,0.69747 -0.23651,1.09372 -0.13008,0.39626 -0.20706,0.83783 -0.17105,0.98129 0.0359,0.14345 0.0155,0.39237 -0.0457,0.55314 -0.16101,0.42346 -0.0535,0.59425 0.69314,1.10129 0.36734,0.24946 0.72865,0.56709 0.80291,0.70587 0.0743,0.13875 0.25914,0.3499 0.41083,0.46921 0.4126,0.32456 0.53778,0.74081 0.30137,1.00204 -0.32598,0.36021 -0.80403,0.26739 -1.40517,-0.27282 -1.01796,-0.91479 -1.46507,-1.1715 -1.69256,-0.97178 -0.10914,0.0958 -0.30972,0.20806 -0.44574,0.24944 -0.13603,0.0414 -0.29736,0.21442 -0.35851,0.38453 -0.13442,0.37383 -0.95004,0.80631 -2.19107,1.1618 -0.4709,0.13488 -1.00336,0.3257 -1.18324,0.42404 -0.53743,0.29383 -1.60497,0.29663 -2.67016,0.008 z m 2.94014,-1.69584 c 0.21975,-0.17567 0.63985,-0.42524 0.93355,-0.55461 0.56642,-0.2495 1.23546,-0.97316 1.23546,-1.33635 0,-0.13265 -0.34148,-0.48497 -0.88854,-0.91674 -2.0387,-1.60904 -2.54205,-2.47271 -1.57378,-2.70036 0.40585,-0.0954 0.47132,-0.0781 0.68496,0.18162 0.12991,0.15792 0.46739,0.42998 0.74992,0.60456 0.28255,0.1746 0.76329,0.54072 1.06833,0.81361 0.72437,0.64806 0.78337,0.63702 1.33105,-0.24914 0.55749,-0.90205 0.79072,-4.04594 0.38508,-5.19095 -0.0334,-0.0942 -0.0832,-0.47946 -0.11064,-0.85618 -0.0274,-0.37673 -0.1071,-0.82622 -0.17706,-0.99887 -0.1214,-0.29984 -2.43465,-2.43369 -2.91977,-2.69331 -0.49018,-0.26233 -3.29473,-0.14556 -3.72394,0.15507 -0.13304,0.0931 -0.33418,0.16941 -0.44698,0.16941 -0.15631,0 -0.18959,0.0617 -0.13993,0.25958 0.0498,0.19876 -0.0168,0.32016 -0.28459,0.51814 -1.6307,1.20563 -2.12408,9.62966 -0.61813,10.554 0.0781,0.0479 0.30084,0.36491 0.49512,0.70451 0.36389,0.636 1.03947,1.32036 1.30342,1.32036 0.0823,0 0.24327,0.10354 0.35776,0.23004 0.46971,0.51901 1.68076,0.51157 2.33871,-0.0144 z m -39.19583,1.26112 c -0.30417,-0.05 -0.6382,-0.1681 -0.74228,-0.26228 -0.10408,-0.0942 -0.31919,-0.23902 -0.47801,-0.32186 -0.83845,-0.43726 -1.59756,-1.71459 -1.70079,-2.86186 -0.004,-0.0471 -0.0848,-0.0857 -0.17894,-0.0857 -0.0942,0 -0.17124,-0.0997 -0.17124,-0.22157 0,-0.12187 -0.0559,-0.2561 -0.1241,-0.29828 -0.0682,-0.0421 -0.0971,-0.17999 -0.0641,-0.30624 0.035,-0.13372 -0.0393,-0.36385 -0.17795,-0.55138 -0.20018,-0.27077 -0.22726,-0.4256 -0.17051,-0.97546 0.037,-0.35949 0.0166,-0.74878 -0.0457,-0.86509 -0.0623,-0.1163 -0.0795,-0.26601 -0.0382,-0.33269 0.0413,-0.0667 0.0893,-0.35079 0.107,-0.63136 0.0176,-0.28057 0.11839,-0.60545 0.2238,-0.72196 0.10549,-0.11649 0.26693,-0.51199 0.35888,-0.87887 0.62395,-2.48989 1.40823,-4.14891 1.96129,-4.14891 0.0886,0 0.31222,-0.16172 0.49685,-0.35936 0.39907,-0.42719 0.8193,-0.30918 1.07645,0.30228 0.13927,0.33114 0.16987,0.34287 0.92435,0.35423 2.11976,0.0318 3.25809,0.75688 4.22379,2.69 0.59695,1.19496 0.80969,4.23872 0.33305,4.76539 -0.25524,0.28205 -0.42462,0.86169 -0.46171,1.58012 -0.0249,0.48395 -0.1219,0.73494 -0.50276,1.30213 -0.25948,0.38644 -0.4718,0.74242 -0.4718,0.79105 0,0.85344 -3.02293,2.26056 -4.37737,2.03761 z m 1.49941,-1.58279 c 1.07672,-0.5597 2.02279,-1.81157 2.31391,-3.06179 0.11385,-0.48891 0.318,-1.14487 0.45368,-1.45768 0.76446,-1.76253 0.72841,-3.53478 -0.0876,-4.30823 -1.56391,-1.48224 -2.55788,-1.82763 -3.89971,-1.35509 -0.48927,0.17231 -0.67223,0.18924 -0.94255,0.0872 -0.39208,-0.148 -0.5093,-0.0317 -0.61691,0.61227 -0.0367,0.21976 -0.18875,0.78484 -0.33786,1.25575 -0.64292,2.03069 -0.63405,2.48033 0.12763,6.47618 0.22552,1.18313 2.03892,2.24552 2.98946,1.75139 z m -27.866596,-4.80751 c -0.176679,-0.0514 -0.391116,-0.15161 -0.476521,-0.22249 -0.09437,-0.0783 -0.315885,-0.0988 -0.564747,-0.0521 -0.859916,0.16132 -1.019571,-0.48919 -0.264256,-1.07671 0.462237,-0.35956 0.52025,-0.37458 1.227204,-0.31783 0.525906,0.0422 1.032946,-0.009 1.740836,-0.1748 0.80501,-0.1889 1.03203,-0.20679 1.17012,-0.0922 0.24417,0.20263 0.22552,0.98582 -0.0268,1.12705 -0.21027,0.11767 -0.24231,0.10408 0.71188,0.30219 0.83398,0.17314 -0.16889,0.68051 -1.13136,0.57237 -1.02256,-0.1149 -1.4603,-0.12587 -1.77969,-0.0445 -0.15697,0.04 -0.42995,0.0305 -0.606634,-0.021 z m -17.920553,-18.4288 c -0.107322,-0.0785 -0.318886,-0.11902 -0.470149,-0.0901 -0.351364,0.0671 -0.905917,-1.41006 -0.670727,-1.78667 0.08904,-0.14257 0.09667,-0.34689 0.02436,-0.65115 -0.468709,-1.97084 -0.938806,-4.20912 -1.014662,-4.83115 -0.107647,-0.88275 -0.491654,-2.48037 -0.866097,-3.60334 -0.325459,-0.97609 -0.543988,-2.27766 -0.459997,-2.73981 0.146272,-0.80484 -0.281723,-0.71352 -0.724615,0.15461 -0.116781,0.2289 -0.39331,0.69099 -0.61451,1.02686 -0.221208,0.33589 -0.490813,0.9381 -0.599129,1.33825 -0.108315,0.40016 -0.292442,0.81398 -0.409162,0.91961 -0.11672,0.10559 -0.212217,0.25341 -0.212217,0.3284 0,0.075 -0.1798,0.47516 -0.399561,0.88926 -0.72321,1.36281 -0.490813,1.42129 3.082287,0.77553 0.739526,-0.13365 1.079841,0.0964 0.656414,0.44378 -0.286077,0.23469 -0.326131,0.45873 -0.119047,0.66582 0.287093,0.28709 -0.307952,0.58658 -2.192667,1.10353 -1.825263,0.50065 -2.426941,0.48006 -2.366916,-0.081 0.04622,-0.4318 -0.340424,-0.386 -0.527833,0.0626 -0.09033,0.2162 -0.221833,0.42869 -0.29222,0.4722 -0.07038,0.0435 -0.261626,0.34515 -0.424981,0.67034 -0.458946,0.91365 -2.131411,3.38815 -2.289989,3.38815 -0.0778,0 -0.322202,0.28254 -0.543113,0.62787 -0.621151,0.97102 -0.824427,0.81982 -0.762074,-0.56681 0.04111,-0.91427 0.405697,-1.84365 0.876533,-2.23442 0.09083,-0.0754 0.350159,-0.52906 0.576285,-1.00817 0.226133,-0.47911 0.55758,-1.17934 0.736552,-1.55606 0.609861,-1.28371 1.022199,-2.25741 1.022199,-2.41385 0,-0.1419 0.595441,-1.5424 1.618959,-3.80781 0.349432,-0.77342 0.666077,-1.32935 1.23739,-2.17252 0.107668,-0.15889 0.30275,-0.49282 0.433526,-0.74203 0.205684,-0.392 0.467633,-0.69406 1.333394,-1.53764 0.09665,-0.0942 0.396081,-0.45366 0.66539,-0.79883 0.85879,-1.10072 1.637443,-0.71851 1.511081,0.74175 -0.03943,0.45575 -0.01258,1.06889 0.06244,1.42698 0.07236,0.34534 0.145167,0.94236 0.161774,1.32671 0.01662,0.38437 0.0869,0.80481 0.156203,0.93431 0.0693,0.1295 0.126012,0.41685 0.126012,0.63853 0,0.2217 0.08033,0.6397 0.178521,0.92891 0.100142,0.29496 0.147705,0.66618 0.108323,0.84547 -0.04777,0.21742 0.01116,0.47573 0.184227,0.80777 0.13994,0.26847 0.263341,0.70187 0.274221,0.96311 0.01089,0.26124 0.10876,0.61077 0.217514,0.77673 0.112292,0.17139 0.167533,0.39688 0.127849,0.52189 -0.03842,0.12108 0.0097,0.45466 0.107062,0.74128 0.09731,0.28661 0.201963,0.96934 0.232558,1.51717 0.03062,0.54781 0.156014,1.33408 0.278695,1.74726 0.122689,0.41319 0.21705,0.85399 0.209695,0.97957 -0.0074,0.12558 0.07165,0.50735 0.175568,0.84838 0.385632,1.26552 0.146964,2.41989 -0.415312,2.00875 z m 4.32257,-1.03873 c -0.09867,-0.0987 -0.179389,-0.22529 -0.179389,-0.28139 0,-0.2454 -0.458254,-0.34701 -0.928968,-0.20598 -0.89659,0.26862 -1.237512,-0.45127 -0.677812,-1.43128 0.183655,-0.32158 0.4445,-0.88089 0.579662,-1.24288 0.135157,-0.36202 0.363147,-0.79867 0.506646,-0.97035 0.1435,-0.17169 0.298256,-0.43144 0.343902,-0.57722 0.04561,-0.14578 0.297831,-0.53106 0.560412,-0.85619 1.038159,-1.28545 1.771145,-2.31523 2.167792,-3.04555 0.119351,-0.21975 0.417391,-0.65202 0.66231,-0.9606 0.244925,-0.30857 0.501611,-0.78463 0.570418,-1.05791 0.06882,-0.27328 0.170171,-0.52471 0.225237,-0.55874 0.05504,-0.034 0.100109,-0.22883 0.100109,-0.43287 0,-0.20406 0.07543,-0.47072 0.167608,-0.5926 0.09218,-0.12189 0.169243,-0.36625 0.171235,-0.54304 0.0021,-0.1768 0.05867,-0.42426 0.125904,-0.54991 0.458684,-0.85706 -1.674819,-1.32519 -2.880013,-0.63194 -0.842117,0.48441 -1.068713,-0.52354 -0.285613,-1.27044 1.359802,-1.29693 4.550533,-0.385 4.814621,1.37605 0.152307,1.01569 -0.688363,3.18402 -1.927865,4.9725 -0.334435,0.48256 -0.705709,1.05268 -0.82506,1.26693 -0.235835,0.42335 -1.522505,2.4113 -1.844446,2.84971 -0.401665,0.547 -0.884869,1.55306 -1.001958,2.08616 -0.08562,0.3898 1.264614,0.42959 3.076607,0.0906 0.74641,-0.13961 1.671387,-0.0184 2.795645,0.3661 0.345341,0.11814 0.935393,0.21114 1.339569,0.21114 1.399448,0 1.829421,0.88892 0.738228,1.52621 -0.322296,0.18824 -0.44039,0.20391 -0.725592,0.0963 -0.341815,-0.12902 -0.992949,-0.0203 -1.829944,0.3057 -0.316343,0.12319 -1.469707,0.10537 -2.995859,-0.0462 -0.595253,-0.0591 -0.960491,-0.0325 -1.419168,0.10375 -0.778659,0.23124 -1.195829,0.23242 -1.424223,0.004 z m 102.346939,-0.99074 c -0.54833,-0.518 -1.26542,-1.09592 -1.5935,-1.28428 -0.84389,-0.48448 -1.92474,-1.26444 -2.54025,-1.83309 -0.28931,-0.26729 -0.75167,-0.5997 -1.02743,-0.73866 -0.27577,-0.13897 -0.70688,-0.41751 -0.95803,-0.61898 -0.54057,-0.43366 -2.18545,-1.54687 -2.28564,-1.54687 -0.0384,0 -0.23823,-0.12842 -0.44402,-0.28539 -0.20579,-0.15697 -0.42348,-0.2854 -0.48375,-0.2854 -0.0603,0 -0.35252,-0.15408 -0.64947,-0.3424 -0.50637,-0.32113 -0.56306,-0.33273 -0.9123,-0.18682 -0.76256,0.31862 -0.78126,0.41574 -0.75056,3.89447 0.0275,3.11964 0.0275,3.11964 -0.30565,3.41251 -0.5147,0.45243 -0.64992,0.40384 -1.11759,-0.40164 -0.33216,-0.57209 -0.33699,-0.7082 -0.0965,-2.72304 0.12102,-1.01416 0.002,-2.8214 -0.2593,-3.93848 -0.14258,-0.60948 -0.17337,-1.14523 -0.12971,-2.25765 0.0425,-1.08203 0.0132,-1.62723 -0.11346,-2.11194 -0.0973,-0.37218 -0.16313,-1.07104 -0.15316,-1.62374 0.01,-0.5337 -0.0389,-1.14981 -0.10765,-1.36916 -0.17803,-0.56709 -0.15489,-1.27747 0.0512,-1.57172 0.10396,-0.14843 0.16256,-0.42843 0.14269,-0.68182 -0.0296,-0.3779 -0.001,-0.43461 0.23878,-0.46848 0.2981,-0.0421 0.46508,0.13701 0.4678,0.50189 0.003,0.42212 0.26748,0.67101 0.53515,0.50385 0.74482,-0.46515 1.01538,0.0753 0.76212,1.52224 -0.18679,1.06719 -0.18705,1.16419 -0.004,1.67775 0.17282,0.4866 0.17902,0.69974 0.0578,1.98611 -0.18525,1.96581 0.48479,2.15032 1.87062,0.51512 0.26999,-0.31857 0.74774,-0.75447 1.06167,-0.96867 1.17864,-0.80419 1.56445,-1.15779 2.23312,-2.04667 0.84818,-1.1275 1.19765,-1.42569 1.67176,-1.42642 0.35854,-4.1e-4 0.76236,-0.21678 1.70009,-0.91033 0.50575,-0.37404 1.45596,-0.48848 1.73545,-0.20899 0.40352,0.40351 -0.0697,1.11744 -0.74207,1.11932 -0.113,3.5e-4 -0.46231,0.20447 -0.77625,0.45367 -0.31394,0.24921 -0.82764,0.65352 -1.14159,0.89849 -0.69721,0.54402 -2.62739,2.2347 -3.48184,3.0498 -0.34532,0.32943 -0.84501,0.77076 -1.11038,0.98074 -0.82064,0.64929 -0.77863,0.99597 0.18802,1.55164 0.59007,0.33921 3.00616,1.93936 4.09877,2.71458 0.3971,0.28175 0.84177,0.57611 0.98817,0.65416 0.14641,0.0781 0.51605,0.36259 0.82143,0.63236 0.3054,0.26975 0.89922,0.68073 1.31963,0.91326 0.93693,0.51824 3.39865,2.65248 3.39744,2.94546 -0.004,1.11026 -0.92278,1.06907 -2.15689,-0.0968 z m -68.55978,0.26518 c -0.14095,-0.27257 -0.15025,-0.44613 -0.0503,-0.94181 0.0682,-0.33898 0.14071,-2.44993 0.16386,-4.77445 0.0228,-2.29174 0.0938,-4.65479 0.15767,-5.25122 0.13647,-1.27389 0.0252,-1.55583 -0.48267,-1.22305 -0.29455,0.19299 -0.39846,0.31662 -1.42586,1.69645 -1.07402,1.44245 -2.86862,3.40167 -3.18965,3.48224 -0.86444,0.21696 -0.97364,-0.7901 -0.17707,-1.63283 0.75192,-0.79547 2.42637,-2.78702 2.77374,-3.29901 0.15697,-0.23137 0.42718,-0.58157 0.60049,-0.77824 0.47485,-0.53889 1.38764,-1.75035 1.94672,-2.58369 1.00361,-1.49589 2.2363,-1.19322 1.665,0.40881 -0.34848,0.97722 -0.47075,3.08391 -0.49968,8.60974 -0.0351,6.69562 0.0244,5.96464 -0.51364,6.32065 -0.58081,0.38436 -0.75549,0.3783 -0.96849,-0.0336 z m 30.05353,-0.0174 c -0.83056,-0.12179 -1.90961,-0.43272 -2.19994,-0.63394 -0.12385,-0.0858 -0.29288,-0.15606 -0.37564,-0.15606 -0.41868,0 -0.9783,-0.63543 -0.62638,-0.71124 0.14337,-0.0309 0.0658,-0.11291 -0.27462,-0.29058 -0.51899,-0.27084 -0.92015,-0.71274 -1.02453,-1.12866 -0.0368,-0.14676 -0.10732,-0.26685 -0.15655,-0.26685 -0.18204,0 -0.57063,-1.38842 -0.57063,-2.0389 0,-0.80402 0.66392,-1.20828 0.81014,-0.4933 0.0407,0.19897 0.13873,0.43976 0.21784,0.53508 0.0791,0.0953 0.22693,0.32594 0.32849,0.51248 1.81396,3.33162 3.85599,4.0821 5.84522,2.14816 1.0735,-1.04369 1.14347,-1.14919 1.65151,-2.49006 0.44656,-1.17862 0.31567,-9.12518 -0.16512,-10.02353 -0.11672,-0.21811 -0.22685,-0.22491 -3.06321,-0.18874 -3.93611,0.0503 -6.19566,-0.23576 -6.19566,-0.78406 0,-0.80846 0.60135,-1.16476 1.56007,-0.92432 0.5535,0.13882 0.91446,0.16484 1.3397,0.0966 0.32014,-0.0513 1.14715,-0.0989 1.83781,-0.10548 0.90383,-0.009 1.4957,-0.0798 2.11195,-0.25398 1.57365,-0.44463 4.37975,0.35588 4.07068,1.16126 -0.0992,0.25856 0.24642,5.51846 0.37888,5.76599 0.0858,0.16018 0.11193,0.52898 0.072,1.01312 -0.0345,0.41869 -0.10957,1.35203 -0.16676,2.07409 -0.38558,4.86766 -1.18907,6.68141 -3.06263,6.91337 -0.36537,0.0453 -0.86342,0.15212 -1.10676,0.23751 -0.24336,0.0854 -0.47453,0.14901 -0.51371,0.14135 -0.0392,-0.008 -0.36417,-0.0568 -0.72217,-0.10936 z m -21.96038,-0.61994 c -0.19265,-0.0846 -0.41727,-0.2345 -0.49915,-0.33316 -0.0819,-0.0987 -0.21948,-0.17936 -0.30579,-0.17936 -0.39575,0 -1.61964,-1.46852 -2.18828,-2.62565 -0.18966,-0.38595 -0.68834,-2.28213 -0.84054,-3.19603 -0.39352,-2.36303 1.52009,-7.03312 2.69686,-6.58157 0.0803,0.0309 0.29363,-0.0217 0.47411,-0.11659 0.37827,-0.19899 1.4979,-0.51674 2.9087,-0.82548 1.86509,-0.40817 2.51043,-0.0127 3.07181,1.88278 0.64702,2.1846 0.7702,2.86324 0.66113,3.64266 -0.044,0.31394 -0.13584,1.21293 -0.20427,1.99777 -0.26031,2.98641 -0.42359,3.44019 -1.70468,4.73759 -1.56236,1.58227 -2.90424,2.10882 -4.0699,1.59704 z m 2.36295,-1.94937 c 0.3159,-0.30852 0.67317,-0.74074 0.79396,-0.96049 0.12076,-0.21975 0.32068,-0.52798 0.44425,-0.68495 0.12358,-0.15697 0.30761,-0.59362 0.40898,-0.97036 0.10136,-0.37672 0.23582,-0.86475 0.29886,-1.0845 0.67274,-2.34552 0.24455,-6.94348 -0.62105,-6.66876 -0.11508,0.0365 -0.27099,0.0178 -0.34646,-0.0417 -1.00135,-0.78898 -3.23986,0.0908 -3.90641,1.53531 -0.29047,0.62947 -0.58296,0.81509 -0.96352,0.61143 -0.24403,-0.13061 -0.62111,0.3007 -0.74624,0.85357 -0.4822,2.1305 -0.22791,3.8381 0.90981,6.10914 0.99894,1.99404 2.48673,2.51341 3.72782,1.30133 z m 39.47098,1.43685 c -0.23891,-0.25115 -0.48408,-0.45665 -0.54484,-0.45665 -0.0608,0 -0.21146,-0.12842 -0.33493,-0.28538 -0.28428,-0.3614 -0.35456,-0.35778 -0.86052,0.0443 -0.22818,0.18133 -0.60185,0.36478 -0.83037,0.40764 -0.22852,0.0429 -0.54977,0.17191 -0.71388,0.28672 -0.30262,0.21175 -1.73944,0.40786 -1.8894,0.2579 -0.0422,-0.0422 -0.30693,-0.0918 -0.58813,-0.11021 -0.2812,-0.0184 -0.77925,-0.16855 -1.10676,-0.3338 -0.32751,-0.16526 -0.80887,-0.40924 -1.0697,-0.5422 -0.97159,-0.49529 -2.07726,-1.74413 -2.50064,-2.82444 -0.15153,-0.38667 -0.35338,-0.82188 -0.44854,-0.96712 -0.0952,-0.14524 -0.16535,-0.43269 -0.15597,-0.63877 0.01,-0.20609 -0.1243,-0.75998 -0.29708,-1.23089 -0.26047,-0.70989 -0.31501,-1.04639 -0.31913,-1.96924 -0.002,-0.61217 -0.0506,-1.11305 -0.10624,-1.11305 -0.27045,0 0.21421,-1.82705 0.6844,-2.58002 0.8096,-1.29647 2.21425,-2.67621 3.37727,-3.31735 0.98241,-0.54157 1.08335,-0.56479 1.27373,-0.293 0.0979,0.13976 0.27479,0.25412 0.3931,0.25412 0.11831,0 0.24266,0.0446 0.27637,0.0991 0.0337,0.0545 0.35105,0.10169 0.70525,0.10494 0.54906,0.004 0.69667,0.0548 1.00144,0.33836 0.63675,0.59243 1.01706,0.83284 1.21708,0.76934 0.18801,-0.0597 0.56392,0.19316 1.62435,1.09248 0.23601,0.20015 0.58953,0.6115 0.78563,0.91411 0.19608,0.30261 0.42815,0.5777 0.51571,0.6113 0.4032,0.15471 1.06936,2.42968 1.0592,3.61721 -0.003,0.40132 0.0253,1.20067 0.0638,1.77631 0.0701,1.04662 0.0701,1.04662 -0.5754,2.3638 -0.74804,1.5266 -0.71358,1.9183 0.2507,2.84927 0.52153,0.50352 0.61744,0.85211 0.31707,1.15247 -0.3139,0.31391 -0.73314,0.21734 -1.20362,-0.27724 z m -4.39866,-1.82178 c 1.98716,-0.56828 1.94797,-1.21481 -0.19013,-3.13599 -1.26538,-1.13701 -1.40011,-2.50484 -0.16459,-1.671 0.28525,0.19252 0.58825,0.35054 0.67332,0.35113 0.22596,0.001 1.08757,0.70422 1.82276,1.48636 0.74983,0.79769 1.58519,0.56132 1.5855,-0.44861 4e-5,-0.1005 0.10278,-0.45291 0.22833,-0.78322 0.26781,-0.70462 0.29387,-1.56111 0.0659,-2.16548 -0.0892,-0.23673 -0.24958,-0.84138 -0.35619,-1.34368 -0.19968,-0.94082 -1.90357,-2.94356 -3.15174,-3.70452 -0.63728,-0.38851 -3.26636,-0.22612 -3.82338,0.23617 -0.0962,0.0798 -0.38861,0.17356 -0.65003,0.20846 -1.54622,0.20639 -1.87516,4.46741 -0.60325,7.81446 0.16455,0.43303 0.29918,0.87232 0.29918,0.97619 0,1.53179 2.34269,2.72926 4.26431,2.17973 z m -63.10003,-2.4841 c -0.0451,-0.0451 -0.4004,-0.12394 -0.78959,-0.17523 -2.102964,-0.27709 -1.936272,-0.229 -2.057204,-0.59351 -0.28461,-0.85785 1.132354,-1.52896 2.134284,-1.01084 0.18478,0.0955 0.84154,0.22984 1.45947,0.29842 1.24384,0.13804 1.31337,0.20633 0.72129,0.70836 -0.22122,0.18758 -0.51303,0.45664 -0.64846,0.59792 -0.24027,0.25062 -0.65547,0.33918 -0.81979,0.17488 z m 84.218,-22.61446 c -0.49237,-0.42785 -1.22212,-1.09569 -1.6217,-1.48406 -0.39958,-0.38838 -0.79141,-0.70614 -0.87075,-0.70614 -0.0794,0 -0.21169,-0.0812 -0.29411,-0.18055 -0.0824,-0.0993 -0.43854,-0.32628 -0.79138,-0.5044 -0.35284,-0.17811 -0.71012,-0.40647 -0.79392,-0.50745 -0.0838,-0.10105 -0.64583,-0.4725 -1.24892,-0.82556 -0.60309,-0.35307 -1.27633,-0.77881 -1.49608,-0.9461 -1.85348,-1.410958 -3.80212,-2.33419 -3.44712,-1.633188 0.0563,0.11118 0.0944,1.126818 0.0848,2.256998 -0.0108,1.25652 0.0403,2.3875 0.13121,2.91105 0.25292,1.45551 0.18828,2.16902 -0.19652,2.16902 -0.36364,0 -0.57191,-0.13321 -0.75161,-0.48072 -0.16239,-0.314 -0.18997,-0.32556 -0.37578,-0.1574 -0.67691,0.6126 -0.97777,-0.0206 -0.99712,-2.09844 -0.009,-0.91221 -0.0704,-2.1209 -0.13754,-2.68598 -0.23327,-1.962798 -0.29295,-3.8934 -0.13232,-4.281171 0.25241,-0.609363 0.14244,-2.798228 -0.22652,-4.509066 -0.14689,-0.681062 -0.0797,-1.034834 0.22778,-1.199387 0.15608,-0.08353 0.22696,-0.239051 0.22696,-0.497986 0,-0.470593 0.1004,-0.578014 0.33293,-0.356214 0.0994,0.09485 0.29802,0.261793 0.44131,0.370984 0.34867,0.265722 0.82553,2.102888 0.94046,3.623301 0.19114,2.528521 0.33231,2.809397 1.07591,2.14048 0.26175,-0.235451 0.92102,-0.805419 1.46505,-1.266586 0.54404,-0.461174 1.60412,-1.462917 2.35575,-2.226101 1.61157,-1.636338 3.14466,-3.081264 3.56359,-3.35864 0.16446,-0.108888 0.4335,-0.293546 0.59787,-0.41034 0.71112,-0.505293 1.26297,0.09086 0.86491,0.934364 -0.13852,0.293559 -0.29477,0.913022 -0.3472,1.376584 -0.0524,0.463555 -0.10991,0.851045 -0.12772,0.861077 -0.0943,0.05315 -1.64296,1.373946 -2.48679,2.120927 -0.53369,0.472438 -1.75376,1.491823 -2.71128,2.265309 -1.88094,1.519443 -1.95857,1.615022 -1.31282,1.616637 0.51444,0.0013 1.38576,0.47441 2.02894,1.10169 0.24971,0.24355 0.70169,0.62161 1.00442,0.840158 0.30271,0.21853 0.94485,0.70507 1.42698,1.0812 0.48213,0.37612 1.32792,0.94347 1.87954,1.26077 0.63135,0.36315 1.08345,0.70927 1.22019,0.93411 0.11947,0.19646 0.49009,0.56237 0.82359,0.81312 1.58908,1.19482 2.04583,2.0146 1.28387,2.30431 -0.52061,0.19793 -0.69908,0.12397 -1.60885,-0.66661 z m -36.05612,-0.0532 c -0.25116,-0.14166 -0.8308,-0.40676 -1.28811,-0.5891 -1.83961,-0.73353 -3.66651,-2.90508 -4.07404,-4.84266 -0.0973,-0.462178 -0.20637,-0.888238 -0.24256,-0.946808 -0.0935,-0.15124 0.17314,-0.43896 0.40676,-0.43896 0.23218,0 0.57451,0.3474 0.57451,0.583 0,0.27089 0.77893,1.813338 1.21733,2.410558 0.45917,0.62551 2.08802,1.7661 2.76896,1.93894 0.82217,0.20869 3.07287,-1.27075 3.10505,-2.04103 0.008,-0.17759 0.0281,-0.78842 0.0457,-1.35738 0.0178,-0.568968 0.0885,-1.236808 0.15711,-1.484068 0.17959,-0.6469 0.16969,-5.375058 -0.0115,-5.487041 -0.0757,-0.04676 -1.03889,-0.100446 -2.14048,-0.119297 -3.52725,-0.06035 -6.06638,-0.365076 -6.34396,-0.761394 -0.67957,-0.970214 0.58192,-1.679623 2.44806,-1.376684 1.29877,0.210832 2.32337,0.201425 3.15331,-0.02894 0.37422,-0.103879 0.80883,-0.181738 0.96579,-0.173018 3.2227,0.179006 3.71146,0.523211 3.59381,2.530904 -0.046,0.784843 -0.0965,2.582848 -0.11225,3.995557 -0.039,3.498961 -0.12269,4.336781 -0.52661,5.270441 -0.18199,0.42067 -0.32929,0.96633 -0.32929,1.21979 0,0.93337 -0.52135,1.61199 -1.24388,1.6191 -0.22628,0.002 -0.53986,0.0774 -0.69682,0.16719 -0.41281,0.23599 -0.90518,0.20525 -1.42699,-0.089 z m -28.679,0.0298 c -0.13939,-0.0561 -0.2783,-0.21979 -0.30867,-0.36378 -0.0303,-0.14399 -0.11381,-0.54434 -0.18541,-0.88967 -0.0716,-0.34533 -0.17369,-1.2957 -0.2268,-2.11194 -0.0531,-0.81623 -0.1761,-2.17758 -0.27329,-3.025208 -0.0971,-0.84763 -0.17892,-1.977797 -0.18166,-2.51149 -0.003,-0.66998 -0.0569,-1.038947 -0.17257,-1.191953 -0.0922,-0.121874 -0.16762,-0.314519 -0.16762,-0.428089 0,-0.334725 -0.40172,-0.24247 -0.71636,0.164519 -0.15778,0.204057 -0.56199,0.666118 -0.89829,1.026808 -0.3363,0.360682 -0.8683,0.960969 -1.18223,1.333957 -0.31394,0.372997 -0.65515,0.708888 -0.75825,0.746438 -0.1031,0.0375 -0.21308,0.16625 -0.2444,0.28601 -0.0344,0.13145 -0.34468,0.34977 -0.7829,0.55086 -0.76441,0.35074 -1.10712,0.656628 -1.36866,1.221608 -0.21971,0.47461 -0.58592,0.50132 -1.01334,0.0739 -0.36076,-0.36076 -0.47136,-0.930078 -0.18068,-0.930078 0.0886,0 0.26965,-0.22434 0.40238,-0.49852 0.22627,-0.46741 0.98843,-1.220153 4.09872,-4.048094 1.38711,-1.261203 1.81806,-1.747703 2.36333,-2.668099 0.54926,-0.927117 0.79188,-1.102833 1.21818,-0.882224 0.64484,0.333687 0.68004,0.420479 0.59769,1.473279 -0.0616,0.787534 -0.0317,1.154447 0.1536,1.888389 0.36644,1.450907 0.50458,2.775284 0.59514,5.705607 0.0826,2.67223 0.15842,3.33313 0.45414,3.95798 0.12722,0.2688 0.11286,0.34992 -0.12126,0.68496 -0.40696,0.58244 -0.57199,0.64761 -1.10079,0.43483 z M 69.764723,105.6305 c -0.102991,-0.12409 -0.133246,-0.40423 -0.09662,-0.89446 0.02934,-0.39258 0.0047,-0.8232 -0.05544,-0.95693 -0.15341,-0.34302 0.150227,-1.31585 0.730066,-2.33912 0.441862,-0.77976 1.907922,-3.851913 2.199799,-4.609727 0.07256,-0.188365 0.2233,-0.496592 0.335,-0.684951 0.714254,-1.204488 1.272372,-2.213674 1.838477,-3.324312 0.355872,-0.698206 0.888166,-1.57198 1.182863,-1.94174 0.294703,-0.369753 0.671123,-0.851617 0.836504,-1.070799 0.859139,-1.138709 1.865499,-0.78602 1.735309,0.608159 -0.04953,0.530261 -0.0054,0.921614 0.176227,1.569524 0.133204,0.474718 0.241937,1.013956 0.241628,1.198318 -3.44e-4,0.184355 0.08268,0.59205 0.184442,0.905983 0.258988,0.799067 0.728565,2.125004 0.849013,2.397335 0.523426,1.183522 0.711435,1.743053 1.11547,3.319712 0.713312,2.783578 0.819771,3.241518 0.819771,3.526398 0,0.38722 0.417128,0.8584 0.558878,0.6313 0.351162,-0.56261 1.649755,-2.30514 1.997485,-2.68035 0.15401,-0.16618 0.524873,-0.67136 0.824124,-1.12262 0.299266,-0.451258 0.632604,-0.923208 0.740765,-1.048778 0.269524,-0.31293 1.358369,-2.103783 1.358369,-2.234155 0,-0.058 0.168766,-0.298236 0.375028,-0.533876 1.944283,-2.221128 1.85896,-4.260365 -0.171234,-4.092548 -1.05827,0.08747 -1.764504,0.36863 -2.186894,0.870612 -0.585079,0.695333 -1.519194,0.665014 -1.316222,-0.04272 0.05658,-0.197294 0.102882,-0.495718 0.102882,-0.663171 0,-0.249474 0.129564,-0.386285 0.717496,-0.757592 2.783883,-1.758186 4.79706,-1.438371 5.619515,0.892715 0.290188,0.822475 -0.02557,2.136067 -1.02816,4.277549 -0.146978,0.313933 -0.303705,0.699223 -0.348275,0.856186 -0.126988,0.447184 -0.511194,1.17618 -0.752075,1.42699 -0.120608,0.12557 -0.474025,0.6182 -0.785381,1.094728 -0.311356,0.47652 -0.693678,1.00407 -0.849605,1.17231 -1.475036,1.5916 -1.38315,2.89976 0.181132,2.57895 0.812752,-0.16668 1.503901,-0.18015 2.632101,-0.0513 0.57504,0.0656 0.972132,0.038 1.609855,-0.11219 1.277694,-0.30089 1.690859,0.0835 1.106359,1.02919 -0.341527,0.5526 -0.36713,0.55646 -3.76493,0.56791 -2.74734,0.01 -3.206543,0.0365 -3.677317,0.2185 -0.348882,0.13485 -0.609673,0.17374 -0.74203,0.11065 -0.112245,-0.0535 -0.509988,-0.0982 -0.883874,-0.0995 -0.691046,-0.002 -0.797175,-0.0738 -1.009279,-0.67963 -0.02052,-0.0587 -0.261134,-0.0171 -0.534682,0.0924 -0.769145,0.30776 -1.019629,-4e-5 -1.16222,-1.42816 -0.05874,-0.58799 -0.150463,-1.17181 -0.203901,-1.29739 -0.0889,-0.2089 -0.747069,-2.617678 -1.040386,-3.807618 -0.138843,-0.563271 0.0543,-0.546463 -1.76264,-0.15338 -0.565089,0.12226 -1.258598,0.30502 -1.541143,0.40614 -0.742346,0.26568 -0.976734,0.23654 -1.256419,-0.15624 -0.375795,-0.52775 -1.140917,0.49834 -1.140917,1.530068 0,0.13508 -0.306834,0.86087 -0.681855,1.61287 -0.375029,0.75201 -0.712074,1.50424 -0.749,1.67163 -0.23048,1.04482 -0.801396,2.08487 -1.197989,2.18242 -0.862517,0.21217 -0.979842,0.21576 -1.13009,0.0348 z m 8.667768,-9.021821 c 0,-0.153263 -0.05134,-0.310407 -0.114164,-0.349211 -0.06278,-0.03882 -0.114155,-0.187094 -0.114155,-0.329537 0,-0.142436 -0.124734,-0.565943 -0.277189,-0.941132 -0.152449,-0.375184 -0.313321,-1.013344 -0.357487,-1.418126 -0.08289,-0.759605 -0.211471,-1.135528 -0.388405,-1.135528 -0.09922,0 -0.689304,1.184262 -0.689304,1.3834 0,0.05504 -0.15411,0.426239 -0.342475,0.824911 -0.188365,0.398666 -0.342476,0.772012 -0.342476,0.829649 0,0.05767 -0.101604,0.294353 -0.225776,0.526029 -0.264647,0.493781 -0.234981,0.525627 0.67576,0.725531 1.200417,0.263489 2.175671,0.211498 2.175671,-0.115986 z m 92.525729,8.817241 c -0.18837,-0.0656 -0.91252,-0.6781 -1.60924,-1.36089 -1.37148,-1.34407 -1.36969,-1.34302 -1.77158,-1.02808 -0.28413,0.22263 -1.58591,0.34845 -3.92535,0.37938 -1.61249,0.0213 -3.53528,-1.07741 -4.23373,-2.41927 -0.56373,-1.083028 -0.64015,-1.323438 -0.68717,-2.161588 -0.0266,-0.47499 -0.0815,-1.043427 -0.12196,-1.26318 -0.1229,-0.668035 -0.068,-1.618266 0.13524,-2.340257 0.10602,-0.376718 0.22084,-0.813379 0.25512,-0.970349 0.0342,-0.15697 0.13188,-0.386728 0.21692,-0.510575 0.085,-0.123845 0.15462,-0.317774 0.15462,-0.430941 0,-0.766118 1.77215,-3.091371 2.78929,-3.659864 1.07098,-0.598584 1.59571,-0.624098 3.71776,-0.18081 0.28255,0.05901 0.59078,0.109911 0.68496,0.113087 0.16413,0.0054 2.08904,0.728161 2.35417,0.883772 0.80846,0.474503 1.60799,1.160255 1.8995,1.629213 0.19075,0.306849 0.38998,0.557897 0.44274,0.557897 0.33869,0 1.25499,1.970848 1.58495,3.409017 0.41614,1.81377 -0.6585,4.135328 -2.47118,5.338518 -0.70533,0.46817 -0.71088,0.48243 -0.32706,0.843 0.15768,0.14813 0.33884,0.46301 0.40258,0.69972 0.17102,0.63513 0.61901,0.9988 1.45108,1.17799 0.20399,0.044 0.448,0.18997 0.54226,0.32456 0.5272,0.75269 -0.38919,1.3515 -1.48392,0.96965 z m -4.79467,-3.5605 c 0.61855,-0.13039 0.70429,-0.19672 0.64499,-0.49903 -0.01,-0.048 -0.47875,-0.49752 -1.04294,-0.99889 -1.07337,-0.953828 -1.16238,-1.121188 -0.82075,-1.543078 0.34926,-0.43132 1.79807,-0.40916 1.76869,0.0271 -0.0225,0.33448 1.5768,1.917268 1.93728,1.917268 0.25614,0 1.11076,-0.74953 1.53899,-1.349748 0.20524,-0.28769 0.416,-0.55118 0.46834,-0.58555 0.1681,-0.11036 0.50822,-1.301631 0.52303,-1.83194 0.008,-0.282545 0.0806,-0.633512 0.16159,-0.779932 0.12305,-0.222532 0.11969,-0.288081 -0.0205,-0.399553 -0.19512,-0.15518 -0.37749,-0.70869 -0.48443,-1.470386 -0.2563,-1.825404 -2.86456,-3.179675 -5.03848,-2.616114 -0.23924,0.06203 -0.74319,0.175063 -1.11991,0.251209 -0.37673,0.07615 -0.9293,0.214217 -1.22792,0.306815 -0.4317,0.133851 -0.57765,0.139604 -0.71203,0.02806 -1.54331,-1.280836 -3.11759,3.342237 -2.10403,6.178801 0.57103,1.598078 0.65285,1.687778 2.26691,2.485188 0.78902,0.3898 1.56302,0.77833 1.71998,0.86337 0.35924,0.19466 0.67966,0.19808 1.54115,0.0165 z m -37.90074,3.17949 c -0.45477,-0.23946 -1.04354,-0.8148 -1.33857,-1.30804 -0.13145,-0.21976 -0.43328,-0.65725 -0.67073,-0.97222 -0.23744,-0.31496 -0.48374,-0.80299 -0.54732,-1.0845 -0.2633,-1.16591 -0.35116,-1.737598 -0.28377,-1.846638 0.0393,-0.0635 0.0833,-0.868 0.0978,-1.7877 0.0409,-2.594407 0.83625,-4.43252 2.35352,-5.439426 0.28382,-0.188365 0.64161,-0.464242 0.79505,-0.61307 0.83025,-0.805203 1.93845,-0.916688 2.70056,-0.271663 1.29879,1.099279 2.31603,2.327486 2.31603,2.79637 0,0.116403 0.0829,0.371845 0.18411,0.567653 0.10126,0.195807 0.20086,0.540011 0.2213,0.764906 0.0205,0.224881 0.0897,0.972199 0.15382,1.660696 0.10429,1.119394 0.0961,1.274444 -0.0771,1.465834 -0.18224,0.20138 -0.18197,0.22259 0.004,0.359 0.21589,0.15786 0.26701,0.57756 0.0841,0.690588 -0.0628,0.0388 -0.11434,0.15743 -0.11456,0.2636 0,0.19223 -0.54305,1.59815 -0.81018,2.09899 -0.75675,1.41884 -4.09542,3.16809 -5.06861,2.65562 z m 2.38001,-2.13772 c 1.24584,-0.86663 1.62957,-1.65575 1.78925,-3.679588 0.2689,-3.408133 0.26737,-3.325917 0.0709,-3.816952 -0.1031,-0.257742 -0.18751,-0.614779 -0.18751,-0.793402 0,-1.006352 -1.69731,-1.754296 -3.05766,-1.347387 -0.92939,0.277996 -2.25627,2.195694 -2.02449,2.925935 0.0395,0.124458 0.0109,0.34004 -0.0635,0.479078 -0.32881,0.614396 -0.11426,2.596658 0.53579,4.950056 0.53261,1.92813 1.43952,2.32404 2.9372,1.28226 z m -31.335945,-1.46807 c -0.166148,-0.0609 -0.329294,-0.21476 -0.362546,-0.34193 -0.0333,-0.12719 -0.16703,-0.2591 -0.29726,-0.29316 -0.331471,-0.0867 -0.294834,-0.24539 0.07715,-0.33425 0.415903,-0.0994 0.59933,-0.25465 0.59933,-0.507388 0,-0.66238 4.504711,-0.81205 4.755681,-0.15802 0.13264,0.345668 -0.19293,0.736048 -0.61385,0.736048 -0.51676,0 -1.05955,0.29185 -1.05955,0.56971 0,0.43243 -2.18406,0.66428 -3.098955,0.32899 z m 21.106785,-22.5054 c -0.17195,-0.262399 -0.24402,-1.589481 -0.21537,-3.964875 0.004,-0.408119 0.025,-2.154744 0.0447,-3.881401 0.0196,-1.726655 0.0774,-3.47328 0.12844,-3.881399 0.19201,-1.536582 -0.35166,-1.662849 -1.02749,-0.238641 -0.2424,0.510816 -1.31969,1.927993 -2.22491,2.926877 -0.8363,0.922819 -1.69903,2.078174 -1.69903,2.27532 0,0.308914 -0.92642,1.315179 -1.21082,1.315179 -0.43932,0 -0.60688,-0.486418 -0.3072,-0.891752 0.1844,-0.249427 0.22231,-0.434597 0.18058,-0.882098 -0.0434,-0.465802 -0.005,-0.631035 0.21421,-0.930245 0.55133,-0.751181 1.51573,-1.815769 1.91169,-2.11029 0.57368,-0.42669 2.17968,-2.465906 2.17968,-2.767641 0,-0.04232 0.25249,-0.451121 0.5611,-0.908459 0.30862,-0.457345 0.63743,-1.014152 0.73067,-1.237343 0.88317,-2.113715 2.03837,-3.037918 2.44559,-1.956569 0.28138,0.747223 0.28729,1.006385 0.0428,1.878921 -0.13006,0.464202 -0.26396,1.332035 -0.29755,1.928519 -0.0336,0.596478 -0.10115,1.427519 -0.15016,1.846753 -0.10667,0.912531 0.022,3.860865 0.19666,4.509758 0.35148,1.305302 0.20773,5.070158 -0.21182,5.548018 -0.26753,0.304688 -0.34294,0.508549 -0.37101,1.00286 -0.042,0.739216 -0.55716,0.973384 -0.92072,0.418508 z M 68.843747,78.565568 c -0.415237,-0.500326 0.110066,-2.200875 1.34025,-4.338759 0.487468,-0.847156 1.544373,-3.340009 1.742401,-4.109712 0.08077,-0.31394 0.190652,-0.619597 0.244184,-0.679246 0.05356,-0.05962 0.09733,-0.216336 0.09733,-0.348187 0,-0.292087 0.204601,-0.513711 0.474233,-0.513711 0.257421,0 0.970558,-0.931195 1.074069,-1.402488 0.113699,-0.517673 0.822032,-2.035852 1.076302,-2.306851 0.118255,-0.126031 0.382996,-0.588746 0.588323,-1.028254 0.205328,-0.439514 0.527254,-1.027554 0.715398,-1.306768 0.188136,-0.279214 0.472881,-0.76274 0.632751,-1.0745 0.482846,-0.941603 1.405556,-0.967945 1.207328,-0.03445 -0.217386,1.023725 -0.07505,1.735847 0.614658,3.075033 0.362964,0.704773 0.751153,1.563946 0.862631,1.909274 0.111485,0.345329 0.247758,0.676675 0.302825,0.736324 0.05504,0.05962 0.100445,0.213758 0.100824,0.342476 3.43e-4,0.128716 0.06661,0.362452 0.147119,0.519422 0.08053,0.15697 0.241037,0.542252 0.356674,0.856192 0.115636,0.313933 0.302198,0.724912 0.414571,0.913271 0.11238,0.188357 0.319114,0.676392 0.459411,1.084504 0.206781,0.601524 1.392099,3.012101 2.636124,5.361065 0.265414,0.501161 0.269316,0.90626 0.0095,0.986672 -0.109877,0.03398 -0.365824,0.133872 -0.568776,0.221928 -0.51803,0.224753 -0.64026,0.139879 -1.045567,-0.725982 -0.196595,-0.419981 -0.584986,-1.123207 -0.863089,-1.562721 -0.715209,-1.130327 -1.273678,-2.131264 -1.372056,-2.459138 -0.238587,-0.795123 -0.575834,-0.948985 -1.360987,-0.620929 -0.455737,0.190417 -1.141636,0.176402 -3.5827,-0.0732 -1.656707,-0.169397 -1.458133,-0.285101 -2.374984,1.383804 -0.362183,0.659268 -1.009165,1.758972 -1.437739,2.443803 -0.428573,0.684823 -0.779218,1.304514 -0.779218,1.377081 0,0.07258 -0.154116,0.279611 -0.342482,0.46007 -0.188358,0.180466 -0.342475,0.395557 -0.342475,0.477995 0,0.446686 -0.752708,0.766292 -1.026828,0.436002 z m 9.217725,-7.897088 c 0.961589,-0.224902 0.970894,-0.248216 0.497999,-1.247814 -0.181206,-0.383035 -0.36653,-0.922435 -0.411826,-1.198667 -0.04528,-0.276233 -0.224369,-0.887527 -0.397925,-1.35843 -0.173557,-0.470903 -0.386905,-1.057591 -0.4741,-1.303741 -0.291749,-0.823619 -1.09346,0.147624 -1.735792,2.102849 -0.154702,0.470909 -0.423541,1.108047 -0.59742,1.415863 -0.341123,0.60388 -0.176536,0.981471 0.427814,0.981471 0.27772,0 1.348922,0.439562 1.574127,0.645933 0.207742,0.190377 0.132107,0.192913 1.117123,-0.03748 z m 49.104168,7.735423 c -0.90546,-0.292288 -2.8413,-1.924859 -2.8413,-2.396179 0,-0.106759 -0.0561,-0.250241 -0.12477,-0.318858 -0.0686,-0.06862 -0.19376,-0.554075 -0.27814,-1.0788 -0.0844,-0.524724 -0.20643,-1.159533 -0.27127,-1.410683 -0.16381,-0.634567 -0.14475,-3.29328 0.0335,-4.680508 0.25845,-2.01068 0.72426,-3.616868 1.24816,-4.30375 0.39492,-0.517774 1.40731,-1.345573 1.64681,-1.346541 0.0783,-3.43e-4 0.4845,-0.162211 0.90264,-0.359768 0.90449,-0.427356 2.42787,-0.511288 3.06468,-0.168853 0.18836,0.10129 0.40238,0.184483 0.47559,0.184867 0.0732,3.43e-4 0.29214,0.2015 0.48652,0.446922 0.23118,0.291905 0.52075,0.499783 0.83725,0.60108 0.41488,0.132781 0.47917,0.195262 0.45116,0.438505 -0.029,0.252347 0.47978,1.530278 0.9729,2.443399 0.34167,0.632691 0.44373,3.519345 0.15548,4.397432 -0.13174,0.40129 -0.23953,0.833463 -0.23953,0.96039 0,0.200046 -0.25022,0.790072 -1.26818,2.990275 -0.20032,0.432987 -2.22381,2.492309 -3.2416,3.298998 -0.45555,0.361067 -1.39145,0.501727 -2.00993,0.302072 z m 1.38751,-1.965964 c 1.12762,-0.337838 3.18267,-2.961031 3.65508,-4.665543 0.1131,-0.408119 0.28602,-0.960451 0.38427,-1.227412 0.41619,-1.131006 0.3726,-2.989594 -0.0896,-3.815919 -0.26355,-0.471259 -0.41587,-0.894081 -0.41587,-1.154387 0,-1.441157 -4.13626,-2.24118 -5.61581,-1.0862 -1.7879,1.395706 -1.81027,7.438244 -0.0386,10.423289 0.92512,1.558652 1.24455,1.788579 2.12038,1.526172 z M 92.01739,78.16736 c -0.09419,-0.05975 -1.121613,-0.108672 -2.283179,-0.108766 -1.161568,-9.5e-5 -2.394484,-0.05659 -2.739812,-0.125602 -0.345329,-0.06898 -0.926727,-0.169949 -1.291992,-0.224376 -0.891982,-0.132909 -0.991187,-0.235175 -0.991187,-1.021794 0,-0.704566 -0.06738,-0.569147 1.423064,-2.859566 0.964919,-1.482814 1.007087,-1.561477 1.254502,-2.340258 0.119686,-0.376723 0.279826,-0.762006 0.355879,-0.856192 0.07606,-0.09418 0.390489,-0.68495 0.698757,-1.312823 0.308261,-0.627873 0.655023,-1.284955 0.770578,-1.460179 0.254433,-0.385828 0.420036,-1.142364 0.711166,-3.248845 0.349318,-2.527525 -2.14914,-3.236545 -4.120843,-1.169418 -0.775981,0.813532 -1.093103,0.788556 -1.093103,-0.08612 0,-1.485041 1.050337,-2.282473 3.808908,-2.891788 2.437033,-0.538296 4.051141,3.203918 2.761309,6.401928 -0.598316,1.483453 -1.192418,2.742536 -1.448183,3.069146 -0.117264,0.149737 -0.2132,0.350913 -0.2132,0.44705 0,0.09614 -0.231172,0.545698 -0.513717,0.999026 -0.282537,0.453321 -0.513716,0.88793 -0.513716,0.965807 0,0.217823 -0.651363,1.45417 -1.210241,2.297127 -0.66928,1.009481 -0.658327,1.077379 0.188076,1.165846 0.379616,0.0397 0.799699,0.130742 0.933516,0.202353 0.162393,0.08691 0.574139,0.105243 1.238199,0.0551 0.846831,-0.06392 1.082317,-0.04064 1.582213,0.156385 0.32301,0.127324 0.809638,0.231494 1.08139,0.231494 1.036678,0 1.388103,0.701113 0.711186,1.418853 -0.38782,0.411214 -0.759645,0.511167 -1.09957,0.295598 z m 97.79936,-0.474058 c -0.53042,-0.55357 -2.00609,-1.47515 -3.1617,-1.974542 -0.66524,-0.287476 -2.25737,-1.039941 -4.32554,-2.044295 -0.40124,-0.194859 -0.90917,-0.497051 -1.12874,-0.671535 -0.21955,-0.174498 -0.44209,-0.317264 -0.49451,-0.317264 -0.0524,0 -0.72602,-0.310084 -1.49691,-0.689076 -0.83775,-0.411867 -1.51642,-0.675941 -1.687,-0.656415 -0.32522,0.03721 -0.30476,-0.266961 -0.23169,3.445493 0.037,1.883498 0.0237,2.054995 -0.17127,2.197559 -0.56797,0.415311 -1.47616,-0.172386 -1.45818,-0.943617 0.005,-0.243592 0.0404,-1.444635 0.0772,-2.668985 0.0861,-2.864141 -0.1682,-5.477799 -0.86085,-8.847314 -0.24833,-1.208121 -0.0816,-2.022213 0.48636,-2.374829 0.32093,-0.199224 1.73342,0.903676 1.54333,1.205047 -0.087,0.137888 -0.0669,0.241857 0.0777,0.401518 0.21018,0.232243 0.25636,0.545624 0.0951,0.6453 -0.055,0.03398 -0.0723,0.512183 -0.0388,1.062711 0.0337,0.550522 0.0657,1.55265 0.0714,2.226949 0.0112,1.33264 0.0953,1.501943 0.54851,1.102416 0.23241,-0.204896 1.44655,-1.027177 2.41814,-1.637697 0.1948,-0.122406 0.91926,-0.707855 1.60992,-1.301009 0.69067,-0.593147 1.59339,-1.298687 2.00604,-1.567862 0.41268,-0.269175 0.81937,-0.572611 0.90376,-0.6743 0.25011,-0.301371 1.67382,-1.086019 1.97052,-1.086019 1.03658,0 1.01348,1.078927 -0.0384,1.791923 -0.4449,0.301579 -1.02283,0.716622 -1.28428,0.922313 -0.26144,0.205685 -0.68712,0.469598 -0.94595,0.586473 -0.25884,0.116867 -0.66981,0.385235 -0.91328,0.596363 -0.24346,0.211134 -0.62246,0.4822 -0.84221,0.602364 -0.69906,0.382248 -2.85397,2.382904 -2.85397,2.649656 0,0.08458 0.31252,0.311544 0.69449,0.504371 0.38198,0.192813 0.98404,0.586405 1.33791,0.874642 0.66674,0.543066 1.41142,0.940225 1.77107,0.944564 0.11411,0.0013 0.49127,0.233682 0.83812,0.516227 0.34685,0.282537 0.72451,0.51371 0.83923,0.51371 0.11471,0 0.63657,0.213476 1.15965,0.474382 0.52311,0.260905 1.1052,0.537522 1.29356,0.614691 0.18836,0.07718 0.69214,0.303996 1.11949,0.504042 0.42736,0.200046 1.02114,0.436216 1.31953,0.524831 0.29839,0.08861 0.66403,0.290464 0.81256,0.448565 0.14854,0.158107 0.34125,0.287463 0.42824,0.287463 0.087,0 0.43764,0.26431 0.77922,0.587354 0.92155,0.871573 0.81953,1.325386 -0.33264,1.479678 -0.32311,0.04326 -0.78216,0.116653 -1.02012,0.163086 -0.40695,0.07939 -0.4613,0.05451 -0.91492,-0.418932 z m -40.98259,0.181428 c -0.23862,-0.08696 -0.75234,-0.213725 -1.14159,-0.28169 -1.42681,-0.249117 -3.05513,-1.237539 -2.77786,-1.686204 0.0378,-0.06123 -0.10892,-0.335813 -0.32613,-0.610257 -0.2172,-0.274436 -0.42548,-0.653091 -0.46282,-0.84145 -0.0374,-0.188358 -0.17087,-0.662431 -0.29672,-1.053486 -0.12586,-0.391049 -0.19761,-0.809321 -0.15948,-0.929486 0.1699,-0.535323 1.20286,-0.276159 1.20395,0.302064 0.003,1.997937 5.58528,4.220646 6.801,2.708335 0.49949,-0.62136 0.94581,-2.678313 1.02794,-4.737586 0.0338,-0.847634 0.0982,-2.157605 0.14328,-2.911052 0.0451,-0.753448 0.0539,-1.575392 0.0198,-1.826541 -0.0696,-0.512668 -0.039,-0.505366 -1.23092,-0.293034 -0.5486,0.09773 -0.77513,0.09508 -0.97035,-0.01131 -0.15875,-0.08654 -0.85658,-0.147504 -1.85289,-0.161883 -2.61162,-0.03774 -3.31329,-0.137934 -4.07695,-0.582388 -0.83469,-0.485786 -0.41903,-1.635161 0.4734,-1.309042 0.36021,0.13163 0.31307,0.12978 3.33199,0.130587 1.35754,3.37e-4 2.72189,-0.04743 3.0319,-0.106239 0.3438,-0.06521 0.73916,-0.06621 1.0136,-0.0027 0.24747,0.0574 0.60714,0.105568 0.79928,0.107062 0.94343,0.0074 1.35048,1.367332 0.9575,3.199169 -0.0607,0.282544 -0.13681,1.438404 -0.16932,2.568576 -0.0325,1.130178 -0.10851,2.330736 -0.16887,2.66791 -0.0603,0.33718 -0.14451,1.10714 -0.18696,1.711025 -0.0892,1.269607 -0.40603,2.105284 -0.95073,2.507993 -0.2016,0.149051 -0.3454,0.360037 -0.34642,0.508273 -0.003,0.559047 -0.30401,0.707869 -1.76817,0.876715 -0.62763,0.07237 -1.2182,0.150281 -1.31238,0.173118 -0.0942,0.02281 -0.36649,-0.02961 -0.60511,-0.116606 z m -1.67806,-1.063504 c 0,-0.111527 -1.26106,-0.619383 -1.34057,-0.539871 -0.0636,0.06358 1.00004,0.625504 1.19788,0.632872 0.0785,0.0027 0.14269,-0.03896 0.14269,-0.09301 z m 23.51488,0.45624 c -0.61942,-0.632817 -1.34935,-1.08186 -1.9674,-1.210294 -0.17267,-0.03593 -0.31395,-0.135836 -0.31395,-0.222096 0,-0.264908 -0.31283,-0.294527 -0.61342,-0.05807 -0.77925,0.612962 -2.68012,1.469705 -3.2885,1.482174 -1.31312,0.02691 -3.1616,-0.205544 -3.54641,-0.445947 -0.20435,-0.127661 -0.62839,-0.386521 -0.94234,-0.575242 -0.63313,-0.3806 -1.5451,-1.281752 -2.09308,-2.068243 -0.32777,-0.470446 -0.49207,-0.945736 -1.00624,-2.911052 -0.19427,-0.742501 -0.0981,-1.892946 0.23854,-2.853968 0.0879,-0.251149 0.32739,-0.985999 0.53204,-1.633001 0.39885,-1.260988 0.27215,-1.086813 2.04901,-2.817034 1.75005,-1.704116 5.02526,-1.60454 6.71028,0.204015 0.35601,0.38212 0.81926,0.851651 1.02942,1.043407 0.21017,0.191757 0.50774,0.59526 0.66127,0.896678 0.15354,0.301418 0.5791,0.943562 0.94571,1.426987 1.66311,2.193044 2.16522,4.843432 1.14161,6.026113 -0.49833,0.575767 -0.56223,0.891154 -0.21786,1.075448 0.69879,0.373986 2.39553,2.171237 2.39553,2.537444 0,0.872959 -0.90706,0.9273 -1.71421,0.102698 z m -4.81495,-2.223301 c 1.19292,-0.708279 1.20612,-0.767382 0.36185,-1.619228 -0.40298,-0.406599 -0.79069,-0.739271 -0.86157,-0.739271 -0.26075,0 -1.07375,-0.69176 -1.14456,-0.973894 -0.0847,-0.337665 0.20893,-0.738483 0.54107,-0.738483 0.12084,0 0.33426,-0.198128 0.50529,-0.469053 0.26674,-0.422545 0.33054,-0.462163 0.64358,-0.399553 0.19111,0.03822 0.45664,0.07028 0.59006,0.07124 0.44145,0.0034 0.59433,0.174687 0.42978,0.482154 -0.13064,0.244104 -0.0991,0.336507 0.3239,0.949235 0.25776,0.373338 0.59562,0.871445 0.75078,1.106897 0.15518,0.235451 0.30649,0.428095 0.33625,0.428095 0.76045,0 0.28043,-4.040335 -0.60662,-5.105852 -0.24955,-0.299756 -0.63268,-0.827548 -0.8514,-1.172883 -0.43505,-0.686896 -1.57408,-1.826541 -1.82556,-1.826541 -0.0869,0 -0.40448,-0.175265 -0.70578,-0.389475 -1.76651,-1.255941 -3.71833,-0.04643 -5.54152,3.433927 -1.47925,2.823816 0.19084,6.456416 3.22182,7.007765 0.39347,0.07157 0.94655,0.200417 1.2291,0.28632 0.79949,0.243074 1.86422,0.107549 2.60353,-0.3314 z m -65.26521,-3.846076 c -0.723579,-1.388224 -0.0455,-2.016602 1.94517,-1.802655 0.65047,0.06991 1.50734,0.137478 1.90416,0.150154 0.89674,0.02867 1.21402,0.280775 1.21402,0.964724 0,0.668493 -0.36637,0.769528 -2.90585,0.801374 -0.61126,0.0077 -1.07598,0.07254 -1.25576,0.175312 -0.45939,0.262621 -0.64532,0.203054 -0.90174,-0.288909 z"
       id="path19400"
       inkscape:connector-curvature="0" /></g></svg>