<?xml version="1.0" encoding="UTF-8" standalone="no"?>
<!-- Created with Inkscape (http://www.inkscape.org/) -->

<svg
   xmlns:osb="http://www.openswatchbook.org/uri/2009/osb"
   xmlns:dc="http://purl.org/dc/elements/1.1/"
   xmlns:cc="http://creativecommons.org/ns#"
   xmlns:rdf="http://www.w3.org/1999/02/22-rdf-syntax-ns#"
   xmlns:svg="http://www.w3.org/2000/svg"
   xmlns="http://www.w3.org/2000/svg"
   xmlns:xlink="http://www.w3.org/1999/xlink"
   xmlns:sodipodi="http://sodipodi.sourceforge.net/DTD/sodipodi-0.dtd"
   xmlns:inkscape="http://www.inkscape.org/namespaces/inkscape"
   version="1.1"
   id="svg834"
   xml:space="preserve"
   width="2.72in"
   height="3.7in"
   viewBox="0 0 261.12 355.20001"
   sodipodi:docname="fight.svg"
   inkscape:export-filename="/home/ma/Documents/studium/master/patternCards/continuity/turnBased.png"
   inkscape:export-xdpi="300"
   inkscape:export-ydpi="300"
   inkscape:version="0.91 r"
   enable-background="new"><metadata
     id="metadata840"><rdf:RDF><cc:Work
         rdf:about=""><dc:format>image/svg+xml</dc:format><dc:type
           rdf:resource="http://purl.org/dc/dcmitype/StillImage" /><dc:title /></cc:Work></rdf:RDF></metadata><defs
     id="defs838"><linearGradient
       id="linearGradient4584"
       osb:paint="solid"><stop
         style="stop-color:#0d676f;stop-opacity:1;"
         offset="0"
         id="stop4582" /></linearGradient><linearGradient
       id="linearGradient4576"
       osb:paint="solid"><stop
         style="stop-color:#595959;stop-opacity:1;"
         offset="0"
         id="stop4574" /></linearGradient><linearGradient
       id="linearGradient4570"
       osb:paint="solid"><stop
         style="stop-color:#000000;stop-opacity:1;"
         offset="0"
         id="stop4568" /></linearGradient><clipPath
       clipPathUnits="userSpaceOnUse"
       id="clipPath850"><path
         d="m 82.398,25.067 h 31.045 v 18.51 H 82.398 Z"
         id="path848"
         inkscape:connector-curvature="0" /></clipPath><clipPath
       clipPathUnits="userSpaceOnUse"
       id="clipPath866"><path
         d="M 0,266.4 H 195.84 V 0 H 0 Z"
         id="path864"
         inkscape:connector-curvature="0" /></clipPath><linearGradient
       inkscape:collect="always"
       xlink:href="#linearGradient4570"
       id="linearGradient4578"
       x1="24.824408"
       y1="-79.199997"
       x2="171.01559"
       y2="-79.199997"
       gradientUnits="userSpaceOnUse"
       gradientTransform="translate(-4.8239983,2.160012)" /><linearGradient
       inkscape:collect="always"
       xlink:href="#linearGradient4570"
       id="linearGradient4588"
       gradientUnits="userSpaceOnUse"
       x1="24.824408"
       y1="-181.79997"
       x2="171.01559"
       y2="-181.79997"
       gradientTransform="translate(-4.8239983,-3.4560057)" /></defs><sodipodi:namedview
     pagecolor="#ffffff"
     bordercolor="#666666"
     borderopacity="1"
     objecttolerance="10"
     gridtolerance="10"
     guidetolerance="10"
     inkscape:pageopacity="0"
     inkscape:pageshadow="2"
     inkscape:window-width="1238"
     inkscape:window-height="829"
     id="namedview836"
     showgrid="false"
     inkscape:zoom="1.4142136"
     inkscape:cx="68.313961"
     inkscape:cy="157.13056"
     inkscape:window-x="378"
     inkscape:window-y="225"
     inkscape:window-maximized="0"
     inkscape:current-layer="layer1"
     inkscape:document-units="in"
     units="in"
     scale-x="96"
     showguides="true"
     inkscape:guide-bbox="true"
     inkscape:snap-text-baseline="true"><sodipodi:guide
       position="230.32813,22.140625"
       orientation="0,1"
       id="guide829"
       inkscape:locked="false"
       inkscape:label=""
       inkscape:color="rgb(0,0,255)" /><sodipodi:guide
       position="22.34375,333.3125"
       orientation="1,0"
       id="guide831"
       inkscape:locked="false"
       inkscape:label=""
       inkscape:color="rgb(0,0,255)" /><sodipodi:guide
       position="238.78125,334.54688"
       orientation="1,0"
       id="guide833"
       inkscape:locked="false"
       inkscape:label=""
       inkscape:color="rgb(0,0,255)" /><sodipodi:guide
       position="22.144531,333.0625"
       orientation="0,1"
       id="guide4524"
       inkscape:locked="false"
       inkscape:label=""
       inkscape:color="rgb(0,0,255)" /><sodipodi:guide
       position="26.505456,311.7899"
       orientation="0,1"
       id="guide4556"
       inkscape:locked="false"
       inkscape:label=""
       inkscape:color="rgb(0,0,255)" /><sodipodi:guide
       position="33.6,302.208"
       orientation="0,1"
       id="guide4558"
       inkscape:locked="false"
       inkscape:label=""
       inkscape:color="rgb(0,0,255)" /><sodipodi:guide
       position="249.375,184.3125"
       orientation="0,1"
       id="guide4560"
       inkscape:locked="false"
       inkscape:label=""
       inkscape:color="rgb(0,0,255)" /><sodipodi:guide
       position="33.6,174.72"
       orientation="0,1"
       id="guide4562"
       inkscape:locked="false"
       inkscape:label=""
       inkscape:color="rgb(0,0,255)" /><sodipodi:guide
       position="27.168,308.82888"
       orientation="1,0"
       id="guide4636"
       inkscape:locked="false"
       inkscape:label=""
       inkscape:color="rgb(0,0,255)" /><sodipodi:guide
       position="37.653437,328.224"
       orientation="0,1"
       id="guide4638"
       inkscape:locked="false"
       inkscape:label=""
       inkscape:color="rgb(0,0,255)" /><sodipodi:guide
       position="234.24,286.37824"
       orientation="1,0"
       id="guide4640"
       inkscape:locked="false"
       inkscape:label=""
       inkscape:color="rgb(0,0,255)" /></sodipodi:namedview><g
     inkscape:groupmode="layer"
     id="layer3"
     inkscape:label="cut"
     style="display:inline"><path
       d="m 249.61466,332.56067 c 0,6.236 -5.10267,11.33867 -11.33867,11.33867 l -215.433317,0 c -6.236,0 -11.337333,-5.10267 -11.337333,-11.33867 l 0,-309.921334 c 0,-6.237333 5.101333,-11.338666 11.337333,-11.338666 l 215.433317,0 c 6.236,0 11.33867,5.101333 11.33867,11.338666 z"
       style="fill:#ffeb2e;stroke:#231f20;stroke-width:1;stroke-linecap:butt;stroke-linejoin:miter;stroke-miterlimit:4;stroke-dasharray:none;stroke-opacity:1;fill-opacity:1"
       id="path6570"
       inkscape:connector-curvature="0" /></g><g
     id="g842"
     inkscape:groupmode="layer"
     inkscape:label="background"
     transform="matrix(1.3333333,0,0,-1.3333333,0,355.19999)"
     style="display:inline"><rect
       style="opacity:1;fill:#ffffff;fill-opacity:1;stroke:url(#linearGradient4578);stroke-width:0.75118113;stroke-miterlimit:4;stroke-dasharray:none;stroke-opacity:0.94117647"
       id="rect4566"
       width="155.304"
       height="114.43452"
       x="20.376001"
       y="-131.03998"
       transform="scale(1,-1)"
       ry="4.125" /><rect
       style="opacity:1;fill:#ffffff;fill-opacity:1;stroke:url(#linearGradient4588);stroke-width:0.75118107;stroke-miterlimit:4;stroke-dasharray:none;stroke-opacity:0.94117647"
       id="rect4580"
       width="155.304"
       height="88.415642"
       x="20.376001"
       y="-226.65599"
       transform="scale(1,-1)"
       ry="3.75" /></g><g
     inkscape:groupmode="layer"
     id="layer2"
     inkscape:label="secureLine"
     style="display:none"
     sodipodi:insensitive="true"><g
       id="g2736"
       transform="matrix(1.3333333,0,0,-1.3333333,238.276,321.99612)"><path
         d="m 0,0 c 0,-4.357 -3.463,-7.924 -7.694,-7.924 h -146.187 c -4.231,0 -7.694,3.567 -7.694,7.924 v 216.593 c 0,4.359 3.463,7.925 7.694,7.925 H -7.694 c 4.231,0 7.694,-3.566 7.694,-7.925 z"
         style="fill:none;stroke:#ed1c24;stroke-width:0.75;stroke-linecap:butt;stroke-linejoin:miter;stroke-miterlimit:4;stroke-dasharray:3;stroke-dashoffset:0;stroke-opacity:1"
         id="path2738"
         inkscape:connector-curvature="0" /></g></g><g
     inkscape:groupmode="layer"
     id="layer1"
     inkscape:label="content"><text
       xml:space="preserve"
       style="font-style:normal;font-weight:normal;line-height:0%;font-family:sans-serif;letter-spacing:0px;word-spacing:0px;fill:#000000;fill-opacity:1;stroke:none;stroke-width:1px;stroke-linecap:butt;stroke-linejoin:miter;stroke-opacity:1"
       x="26.848118"
       y="43.256229"
       id="text832"><tspan
         sodipodi:role="line"
         id="tspan830"
         x="26.848118"
         y="43.256229"
         style="font-style:normal;font-variant:normal;font-weight:normal;font-stretch:normal;font-size:21.33333397px;line-height:125%;font-family:Dosis;-inkscape-font-specification:Dosis;stroke-width:1px">Fight</tspan></text>
<text
       xml:space="preserve"
       style="font-style:normal;font-weight:normal;line-height:0%;font-family:sans-serif;letter-spacing:0px;word-spacing:0px;fill:#000000;fill-opacity:1;stroke:none;stroke-width:1px;stroke-linecap:butt;stroke-linejoin:miter;stroke-opacity:1"
       x="31.167999"
       y="194.9751"
       id="text36508"
       sodipodi:linespacing="0%"><tspan
         sodipodi:role="line"
         x="31.167999"
         y="194.9751"
         id="tspan36458"
         style="font-size:40px;line-height:6.66666698"><tspan
           x="31.167999"
           y="194.9751"
           style="font-style:normal;font-variant:normal;font-weight:normal;font-stretch:normal;font-size:13.33333302px;line-height:10.66666698px;font-family:Dosis;-inkscape-font-specification:Dosis"
           id="tspan36456">An optional trick that is not decided by </tspan></tspan><tspan
         sodipodi:role="line"
         x="31.167999"
         y="209.86571"
         id="tspan36462"
         style="font-size:40px;line-height:6.66666698"><tspan
           x="31.167999"
           y="209.86571"
           style="font-style:normal;font-variant:normal;font-weight:normal;font-stretch:normal;font-size:13.33333302px;line-height:10.66666698px;font-family:Dosis;-inkscape-font-specification:Dosis"
           id="tspan36460">suit and rank but by different means </tspan></tspan><tspan
         sodipodi:role="line"
         x="31.167999"
         y="224.75635"
         id="tspan36468"
         style="font-size:40px;line-height:6.66666698"><tspan
           x="31.167999"
           y="224.75635"
           style="font-style:normal;font-variant:normal;font-weight:normal;font-stretch:normal;font-size:13.33333302px;line-height:10.66666698px;font-family:Dosis;-inkscape-font-specification:Dosis"
           id="tspan36464">(eg. attribute comparison, power ups).</tspan><tspan
           dx="0"
           x="221.84508"
           y="224.75635"
           style="font-style:normal;font-variant:normal;font-weight:normal;font-stretch:normal;font-size:13.33333302px;line-height:10.66666698px;font-family:Dosis;-inkscape-font-specification:Dosis"
           id="tspan36466" /></tspan><tspan
         sodipodi:role="line"
         x="31.167999"
         y="235.42302"
         id="tspan36472"
         style="font-size:40px;line-height:6.66666698" /><tspan
         sodipodi:role="line"
         x="31.167999"
         y="246.31363"
         id="tspan36478"
         style="font-size:40px;line-height:6.66666698"><tspan
           x="31.167999"
           y="246.31363"
           style="font-style:normal;font-variant:normal;font-weight:normal;font-stretch:normal;font-size:13.33333302px;line-height:10.66666698px;font-family:Dosis;-inkscape-font-specification:Dosis"
           id="tspan36474">* rules have to be very specific</tspan><tspan
           dx="0"
           x="184.00653"
           y="246.31363"
           style="font-style:normal;font-variant:normal;font-weight:normal;font-stretch:normal;font-size:13.33333302px;line-height:10.66666698px;font-family:Dosis;-inkscape-font-specification:Dosis"
           id="tspan36476" /></tspan><tspan
         sodipodi:role="line"
         x="31.167999"
         y="261.20425"
         id="tspan36484"
         style="font-size:40px;line-height:6.66666698"><tspan
           x="31.167999"
           y="261.20425"
           style="font-style:normal;font-variant:normal;font-weight:normal;font-stretch:normal;font-size:13.33333302px;line-height:10.66666698px;font-family:Dosis;-inkscape-font-specification:Dosis"
           id="tspan36480">* allows complex game dynamics</tspan><tspan
           dx="0"
           x="198.43362"
           y="261.20425"
           style="font-style:normal;font-variant:normal;font-weight:normal;font-stretch:normal;font-size:13.33333302px;line-height:10.66666698px;font-family:Dosis;-inkscape-font-specification:Dosis"
           id="tspan36482" /></tspan><tspan
         sodipodi:role="line"
         x="31.167999"
         y="271.87091"
         id="tspan36488"
         style="font-size:40px;line-height:6.66666698" /><tspan
         sodipodi:role="line"
         x="31.167999"
         y="282.76157"
         id="tspan36492"
         style="font-size:40px;line-height:6.66666698"><tspan
           x="31.167999"
           y="282.76157"
           style="font-style:normal;font-variant:normal;font-weight:normal;font-stretch:normal;font-size:13.33333302px;line-height:10.66666698px;font-family:Dosis;-inkscape-font-specification:Dosis"
           id="tspan36490">Relates to: Discard Pile, Category, </tspan></tspan><tspan
         sodipodi:role="line"
         x="31.167999"
         y="297.65219"
         id="tspan36498"
         style="font-size:40px;line-height:6.66666698"><tspan
           x="31.167999"
           y="297.65219"
           style="font-style:normal;font-variant:normal;font-weight:normal;font-stretch:normal;font-size:13.33333302px;line-height:10.66666698px;font-family:Dosis;-inkscape-font-specification:Dosis"
           id="tspan36494">Discussion Points</tspan><tspan
           dx="0"
           x="117.8607"
           y="297.65219"
           style="font-style:normal;font-variant:normal;font-weight:normal;font-stretch:normal;font-size:13.33333302px;line-height:10.66666698px;font-family:Dosis;-inkscape-font-specification:Dosis"
           id="tspan36496" /></tspan><tspan
         sodipodi:role="line"
         x="31.167999"
         y="308.31885"
         id="tspan36502"
         style="font-size:40px;line-height:6.66666698" /><tspan
         sodipodi:role="line"
         x="31.167999"
         y="319.20947"
         id="tspan36506"
         style="font-size:40px;line-height:6.66666698"><tspan
           x="31.167999"
           y="319.20947"
           style="font-style:normal;font-variant:normal;font-weight:normal;font-stretch:normal;font-size:13.33333302px;line-height:10.66666698px;font-family:Dosis;-inkscape-font-specification:Dosis"
           id="tspan36504">Examples: Nex, Magic, Top Trumps</tspan></tspan></text>
<path
       inkscape:connector-curvature="0"
       id="path10099"
       d="m 82.574606,162.79094 c -0.244169,-0.0887 -0.700615,-0.38363 -1.014339,-0.65552 -0.3137,-0.2719 -0.702571,-0.60292 -0.864118,-0.7356 -0.719728,-0.59108 -1.1002,-3.39809 -0.647786,-4.77909 0.378444,-1.15519 4.395257,-4.95917 5.545634,-5.25178 0.368726,-0.0938 1.065981,-0.34316 1.549483,-0.55417 1.723509,-0.75213 2.507561,-1.0668 2.898675,-1.16337 0.218181,-0.0539 0.585946,-0.22546 0.817288,-0.38135 0.646778,-0.43584 1.668412,-0.8478 2.672144,-1.07752 0.500912,-0.11458 1.597885,-0.54772 2.437742,-0.9624 1.078291,-0.5324 1.80223,-0.7968 2.463646,-0.89977 0.515155,-0.0802 1.405981,-0.35217 1.979605,-0.60438 0.57362,-0.25221 1.14906,-0.45856 1.27875,-0.45856 0.27899,0 1.14043,-0.62792 1.14043,-0.83127 0,-0.0777 0.13694,-0.33249 0.3043,-0.56618 0.37794,-0.5277 0.77765,-1.39878 0.77765,-1.6947 0,-0.49354 0.84499,-2.5274 1.30001,-3.12907 0.0844,-0.11158 0.19667,-0.4463 0.24952,-0.74383 0.0529,-0.29754 0.21077,-0.72757 0.3509,-0.95563 0.2248,-0.36587 0.25317,-0.684 0.24131,-2.70488 -0.0152,-2.59741 0.2437,-4.73208 0.68452,-5.64268 0.15639,-0.32308 0.28434,-0.65251 0.28434,-0.7321 0,-0.0795 0.091,-0.31902 0.20206,-0.53209 0.1111,-0.21305 0.2024,-0.48327 0.20286,-0.60047 0.001,-0.25748 0.47068,-0.69054 0.9876,-0.91063 0.20801,-0.0885 0.48187,-0.35813 0.6086,-0.59907 0.28207,-0.53627 2.03698,-2.27869 2.86767,-2.84722 0.33473,-0.2291 0.82566,-0.63348 1.09095,-0.89863 0.26532,-0.26514 0.78262,-0.59581 1.14957,-0.7348 0.36698,-0.13899 0.92061,-0.42807 1.2303,-0.64241 0.30971,-0.21433 0.60341,-0.38969 0.65268,-0.38969 0.0493,0 0.43914,-0.26895 0.86633,-0.59768 0.42722,-0.32873 0.96193,-0.70909 1.18827,-0.84528 0.22634,-0.13617 0.76247,-0.52146 1.19139,-0.85619 1.52076,-1.18676 2.59998,-1.74757 4.84673,-2.51854 0.73212,-0.25123 1.17509,-0.53443 2.13871,-1.36736 0.66843,-0.57776 1.34715,-1.09935 1.50824,-1.15904 0.16111,-0.0598 0.38545,-0.18955 0.49856,-0.28854 0.11315,-0.099 0.54037,-0.27591 0.94948,-0.39317 0.40912,-0.11722 1.03376,-0.39741 1.3881,-0.62256 0.91925,-0.5841 1.58756,-0.90206 2.10235,-1.00026 0.24609,-0.0469 0.88146,-0.29916 1.41192,-0.56049 0.53049,-0.26134 1.03728,-0.47516 1.12622,-0.47516 0.0889,0 0.33603,-0.0909 0.54909,-0.20203 0.67932,-0.35429 2.16697,-0.14319 3.73772,0.5304 0.7315,0.31368 0.81758,-0.59976 0.15223,-1.61521 -0.1416,-0.21612 -0.19856,-0.7718 -0.20923,-2.04089 -0.0235,-2.80902 0.0721,-3.22876 1.20352,-5.27858 0.53929,-0.977082 0.98052,-1.869352 0.98052,-1.982827 0,-0.227293 0.54383,-0.711674 1.20137,-1.070052 0.2332,-0.127098 0.4784,-0.370537 0.54492,-0.540975 0.21668,-0.555331 1.69404,-1.722451 2.44627,-1.932578 0.18596,-0.05195 0.9467,-0.394894 1.69054,-0.762107 0.74385,-0.367215 1.59576,-0.706373 1.89316,-0.753687 0.29739,-0.04731 0.85633,-0.287926 1.2421,-0.534694 0.38575,-0.246766 1.15133,-0.595547 1.70127,-0.775064 1.56488,-0.510835 3.62976,-1.97584 2.78488,-1.97584 -0.48603,0 -2.54976,-2.390568 -2.54976,-2.953544 0,-0.08279 -0.12149,-0.349793 -0.26998,-0.593338 -0.14849,-0.243546 -0.27021,-0.551457 -0.27048,-0.684245 0,-0.132789 -0.0866,-0.376229 -0.19189,-0.540976 -0.676,-1.058118 -0.64292,-5.5769 0.0473,-6.453135 0.43684,-0.554613 0.82034,-1.264117 0.82034,-1.51768 0,-0.453571 2.8551,-2.787631 3.85445,-3.151038 0.37191,-0.135244 0.783,-0.336567 0.91352,-0.447384 0.2952,-0.250629 1.07415,-0.392588 3.102,-0.565324 0.86962,-0.07408 1.74083,-0.195402 1.93603,-0.269615 0.50917,-0.193585 1.62344,-0.166261 2.14739,0.05266 0.24692,0.103175 0.71665,0.231755 1.0438,0.285732 0.59763,0.0986 0.94383,0.335016 2.35298,1.606788 1.22903,1.109208 1.44441,1.361665 1.80229,2.112447 1.04816,2.198925 -0.0479,8.742772 -1.77059,10.571547 -0.37372,0.396723 -0.75665,0.903893 -0.85094,1.127045 -0.0943,0.223153 -0.33452,0.557881 -0.5338,0.743842 -0.74475,0.694942 -0.66051,1.43672 0.1971,1.735681 0.81017,0.282432 5.10263,4.976716 5.03909,5.510809 -0.0324,0.27161 0.0204,0.327164 0.31014,0.327164 0.31946,0 0.34573,0.04241 0.30943,0.499692 -0.0308,0.3889 0.021,0.531336 0.23386,0.642409 0.16355,0.08533 0.25361,0.243657 0.224,0.393759 -0.0272,0.138072 0.017,0.317609 0.0984,0.398968 0.0813,0.08136 0.14792,0.412647 0.14792,0.73619 0,0.32355 0.088,0.75831 0.19541,0.96613 0.27848,0.53852 0.41698,1.71251 0.21664,1.83633 -0.11662,0.0721 -0.10066,0.16306 0.0598,0.3403 0.25807,0.28517 0.26305,0.44197 0.0536,1.68942 -0.12114,0.72158 -0.18352,0.87613 -0.26486,0.65625 -0.26919,-0.72772 -0.43829,-0.50234 -0.58443,0.77896 -0.0652,0.57188 -0.8053,2.29573 -1.33014,3.0983 -0.12161,0.18596 -0.26557,0.52069 -0.31988,0.74384 -0.11242,0.46179 -1.60452,1.97958 -1.85464,1.88656 -0.0887,-0.033 -0.52636,0.24136 -0.97265,0.60962 -1.48798,1.22778 -1.62149,1.3257 -2.09688,1.5381 -0.53375,0.23846 -1.08136,0.67893 -1.08136,0.86977 0,0.11555 -0.8533,0.72851 -1.74494,1.25356 -0.64113,0.3775 -1.15543,0.73695 -1.39725,0.9765 -0.1314,0.13018 -0.32319,0.23667 -0.42622,0.23667 -0.10307,0 -0.28193,0.14442 -0.39758,0.32093 -0.15893,0.24255 -0.29649,0.30442 -0.56344,0.25339 -0.23441,-0.0449 -0.45315,0.0224 -0.65055,0.19991 -0.16357,0.14709 -0.41911,0.31101 -0.56789,0.3643 -0.25145,0.0901 -0.25383,0.10618 -0.0338,0.22973 0.43825,0.24603 0.24152,0.38988 -0.54097,0.39559 -0.48629,0.004 -0.9529,0.099 -1.2454,0.25473 -0.36541,0.19458 -0.53635,0.21781 -0.78132,0.10619 -0.22757,-0.10367 -0.35709,-0.0994 -0.47219,0.0157 -0.0872,0.0872 -0.32544,0.15863 -0.52934,0.15863 -0.20388,0 -0.4105,0.0644 -0.45918,0.14316 -0.0507,0.0822 -0.25605,0.10631 -0.48215,0.0568 -0.92134,-0.20235 -1.66924,-0.24413 -3.47796,-0.19427 -0.24678,0.007 -0.53157,-0.0564 -0.63288,-0.14049 -0.10127,-0.0841 -0.37755,-0.17733 -0.61387,-0.20725 -0.84967,-0.1075 -1.06663,-1.01487 -0.41907,-1.75261 0.38551,-0.43919 0.69443,-0.98898 0.69443,-1.23588 0,-0.12625 0.15372,-0.49185 0.34162,-0.81245 0.28855,-0.49241 0.3156,-0.62454 0.17415,-0.85102 -0.22348,-0.35785 -0.0398,-0.51639 0.2717,-0.23449 0.34144,0.30899 0.33889,0.31009 1.06246,-0.46345 0.35397,-0.37842 0.8185,-0.77848 1.03231,-0.88905 0.51106,-0.26428 0.38218,-0.3661 -0.31443,-0.2484 -0.32466,0.0548 -0.75138,0.26192 -1.01284,0.49148 -0.4249,0.37307 -0.45681,0.3809 -0.53596,0.13154 -0.0616,-0.19366 -0.2011,-0.26276 -0.51777,-0.25622 -0.49185,0.01 -1.79696,-0.41687 -3.01653,-0.98698 -0.45362,-0.21205 -0.97092,-0.45154 -1.14958,-0.53221 -0.74226,-0.33512 -1.38924,-0.76197 -1.52861,-1.00849 -0.0817,-0.14462 -0.29051,-0.3802 -0.46391,-0.52348 -0.19434,-0.16063 -0.29025,-0.35616 -0.25005,-0.50985 0.046,-0.17574 -0.0705,-0.33317 -0.39477,-0.53358 -0.52117,-0.32209 -0.51617,-0.31116 -0.30049,-0.65651 0.12766,-0.20441 0.1141,-0.32458 -0.0677,-0.60201 -0.12491,-0.19063 -0.22711,-0.43497 -0.22711,-0.54297 0,-0.10799 -0.0737,-0.22092 -0.16381,-0.25096 -0.36878,-0.12292 -0.23845,-1.09748 0.19624,-1.46759 0.33101,-0.28183 0.38454,-0.3977 0.2745,-0.59432 -0.0995,-0.1777 -0.0769,-0.35401 0.0825,-0.64718 0.16768,-0.30826 0.17946,-0.41754 0.0502,-0.46509 -0.093,-0.0342 -0.16904,-0.21281 -0.16904,-0.39697 0,-0.20269 0.0569,-0.29964 0.14422,-0.24567 0.20619,0.12743 0.54176,-0.36068 0.46926,-0.68258 -0.0437,-0.19411 0.0527,-0.33662 0.33893,-0.50088 0.31924,-0.18323 0.40002,-0.32206 0.40002,-0.68758 0,-0.41416 0.0516,-0.47503 0.53922,-0.63596 0.29658,-0.0979 0.6327,-0.32063 0.74695,-0.495 0.11423,-0.17437 0.32805,-0.31704 0.47512,-0.31704 0.25456,0 0.32629,-0.131128 0.27746,-0.507162 -0.0221,-0.169837 0.63439,-0.251512 1.59538,-0.198501 0.25076,0.01382 0.92021,-0.132577 1.48769,-0.325351 1.18251,-0.401709 2.54634,-0.560365 2.95178,-0.343385 0.20701,0.110794 0.33668,0.100704 0.52951,-0.04124 0.23932,-0.17616 0.24049,-0.193729 0.0187,-0.279716 -0.13017,-0.05047 -0.23668,-0.146099 -0.23668,-0.212525 0,-0.179578 0.3747,-0.146263 0.4364,0.0388 0.10798,0.324131 0.54472,-0.0092 0.4769,-0.364124 -0.0524,-0.274472 -0.0108,-0.336427 0.228,-0.336427 0.65822,0 0.80765,0.544914 0.21115,0.770065 -0.45053,0.170053 -0.54562,0.447129 -0.15348,0.447129 0.13873,0 0.40699,0.12172 0.59612,0.270488 0.18912,0.148768 0.45088,0.270487 0.58168,0.270487 0.25111,0 0.44936,0.15711 1.24237,0.984632 0.31243,0.32602 0.59084,0.49754 0.76837,0.47336 0.18417,-0.0251 0.264,0.0282 0.23584,0.15744 -0.0234,0.10745 0.0197,0.32046 0.0957,0.47335 0.0761,0.15289 0.15612,0.42861 0.17781,0.61271 0.0217,0.1841 0.16977,0.39943 0.32906,0.47851 0.257,0.12758 0.26842,0.17278 0.10139,0.40115 -0.32409,0.44323 -0.24717,0.90185 0.13516,0.80589 0.4364,-0.10952 0.54938,0.12726 0.26662,0.5588 -0.18671,0.28495 -0.20119,0.40571 -0.0732,0.61059 0.37676,0.60329 -0.0283,1.74674 -0.61889,1.74674 -0.2493,0 -0.33894,0.26777 -0.16131,0.48181 0.13198,0.15902 0.12465,0.24697 -0.0361,0.43362 -0.36618,0.425 -0.64479,1.14272 -0.5658,1.45748 0.0935,0.37264 -0.34259,0.69275 -0.59708,0.43826 -0.11182,-0.11188 -0.17613,-0.0837 -0.24558,0.10777 -0.0517,0.14261 -0.20588,0.42083 -0.34255,0.61827 -0.33599,0.48541 -0.32057,0.69645 0.0425,0.58123 0.23345,-0.0742 0.27398,-0.0481 0.20514,0.13125 -0.16246,0.42337 0.33306,0.42289 0.6974,-6.7e-4 0.18666,-0.21702 0.40529,-0.39594 0.48584,-0.39761 0.0805,-0.001 0.12859,-0.1081 0.10679,-0.23668 -0.0446,-0.26251 0.24442,-0.31296 0.47455,-0.0828 0.18891,0.1889 1.26622,-0.19455 1.60816,-0.57239 0.12677,-0.14006 0.29136,-0.25465 0.36579,-0.25465 0.22859,0 1.03994,-0.67894 1.03994,-0.87023 0,-0.29147 1.04778,-1.16305 1.28757,-1.07104 0.72995,0.28012 0.8616,1.82567 0.17584,2.06472 -0.48858,0.17032 -0.38274,0.41753 0.17878,0.41753 0.26886,0 0.38858,0.058 0.34938,0.16905 -0.0328,0.093 -0.17481,0.14947 -0.31556,0.12553 -1.4103,-0.23987 -1.82626,0.0216 -1.20642,0.75822 0.33449,0.39751 0.32301,0.69983 -0.0158,0.41857 -0.267,-0.22157 -0.58896,-0.0382 -0.58896,0.33551 0,0.24069 -0.0941,0.3513 -0.35407,0.41657 -0.46236,0.11602 -0.55704,0.005 -0.26742,-0.31578 0.25949,-0.28674 0.0425,-0.57129 -0.2288,-0.30001 -0.0828,0.0828 -0.26156,0.15051 -0.39729,0.15051 -0.13648,0 -0.30228,0.14597 -0.37095,0.32654 -0.0683,0.17959 -0.24935,0.36628 -0.40237,0.41483 -0.15304,0.0486 -0.27825,0.14508 -0.27825,0.21445 0,0.0694 -0.23939,0.12613 -0.53198,0.12613 -0.47982,0 -0.5362,0.0365 -0.5748,0.37192 -0.0335,0.29065 -0.11447,0.37256 -0.3706,0.37485 -0.41903,0.004 -0.52866,0.32166 -0.19796,0.57406 0.24433,0.18647 0.24273,0.19109 -0.0377,0.10775 -0.16111,-0.0479 -0.33207,-0.0238 -0.3799,0.0536 -0.11423,0.18475 -0.5024,0.17852 -0.97512,-0.0157 -0.56081,-0.23036 -0.85862,-0.14398 -1.48101,0.42952 -0.65754,0.60588 -1.2659,0.94395 -1.69931,0.94432 -0.35823,2.6e-4 -1.1901,1.10163 -1.1901,1.57559 0,0.84324 1.65248,1.29286 2.40972,0.65567 0.221,-0.18597 0.49956,-0.33811 0.61898,-0.33811 0.11939,0 0.21716,-0.0877 0.21716,-0.19489 0,-0.3084 0.25622,-0.38631 0.58073,-0.17659 0.69259,0.44758 1.6583,0.41551 1.5105,-0.0502 -0.12847,-0.40474 0.43799,-0.54581 1.19327,-0.29716 0.69699,0.22946 2.28396,-0.14727 2.4507,-0.58178 0.0431,-0.11243 0.19038,-0.18545 0.32721,-0.16226 0.13682,0.0232 0.48719,-0.0725 0.77857,-0.21254 0.29139,-0.14007 0.79355,-0.38336 1.11593,-0.54065 0.32234,-0.15729 0.94453,-0.57349 1.3826,-0.92489 0.43805,-0.3514 0.95375,-0.67838 1.14599,-0.72664 0.19223,-0.0482 0.44433,-0.2324 0.56019,-0.40922 0.1159,-0.17682 0.33106,-0.3215 0.4782,-0.3215 0.14716,0 0.52054,-0.23573 0.82972,-0.52385 1.38689,-1.29237 3.46992,-3.41732 3.46992,-3.53976 0,-0.0741 0.15579,-0.37017 0.3462,-0.6579 0.38142,-0.57638 1.12968,-2.41738 1.24168,-3.05501 0.0392,-0.22315 0.19458,-0.58095 0.34528,-0.79511 0.22126,-0.31441 0.24379,-0.43773 0.1171,-0.64057 -0.0863,-0.13816 -0.15688,-0.36021 -0.15688,-0.49343 0,-0.13323 -0.0836,-0.36228 -0.1859,-0.509 -0.10223,-0.14672 -0.23001,-0.52948 -0.28391,-0.85057 -0.0722,-0.43062 -0.18291,-0.62248 -0.42162,-0.73125 -0.24113,-0.10987 -0.28726,-0.1913 -0.18096,-0.31939 0.16342,-0.19691 -0.12563,-0.867075 -0.59552,-1.380683 -0.16123,-0.176242 -0.28584,-0.497534 -0.28848,-0.743842 -0.005,-0.391367 -0.0409,-0.429802 -0.37656,-0.394663 -0.38381,0.04017 -0.50238,-0.192477 -0.2346,-0.460272 0.2547,-0.254704 -0.23784,-0.998719 -0.66114,-0.998719 -0.49658,0 -0.69338,-0.22925 -0.69338,-0.807756 0,-0.417212 -0.0673,-0.519444 -0.49337,-0.748869 -0.27135,-0.146133 -0.56043,-0.418627 -0.64241,-0.60554 -0.22828,-0.520547 -0.78845,-1.21893 -0.9777,-1.21893 -0.0931,0 -0.46199,-0.244823 -0.81985,-0.544049 -0.35784,-0.299226 -0.72671,-0.605924 -0.81969,-0.681552 -0.22431,-0.182447 -0.21316,-0.333894 0.0434,-0.590531 0.1932,-0.193205 0.10942,-0.212525 -0.92103,-0.212525 -1.08659,0 -1.15143,0.01747 -1.56474,0.421563 -0.30829,0.301402 -0.51426,0.399839 -0.72262,0.345352 -0.16028,-0.04191 -0.46167,0.01188 -0.66972,0.119408 -0.20807,0.107591 -0.63998,0.196555 -0.9598,0.197693 -0.41727,0.0014 -0.52452,0.03809 -0.37977,0.129614 0.14492,0.09162 0.16044,0.168834 0.0552,0.274148 -0.10534,0.105311 -0.19537,0.08785 -0.31972,-0.06198 -0.22456,-0.270576 -0.54574,-0.268253 -0.54574,0.004 0,0.140595 -0.10295,0.200729 -0.30429,0.177639 -0.42824,-0.04912 -0.93778,0.143729 -0.8754,0.331322 0.0288,0.08666 0.19953,0.166895 0.37937,0.178283 0.17983,0.0114 0.77218,0.117897 1.31633,0.236677 0.54414,0.118785 1.47226,0.215972 2.06246,0.215972 0.84127,0 1.07312,0.04186 1.07312,0.193752 0,0.282973 -0.46073,0.386791 -1.78685,0.402642 -1.01087,0.0121 -1.20622,0.05235 -1.37519,0.28342 -0.10835,0.148132 -0.24213,0.224158 -0.29735,0.168943 -0.0552,-0.05522 0.0108,-0.222858 0.14591,-0.372538 0.13546,-0.14968 0.21422,-0.304221 0.17502,-0.343425 -0.11123,-0.111226 -1.18935,0.09316 -1.18935,0.225466 0,0.06488 -0.10343,0.117957 -0.22992,0.117957 -0.17363,0 -0.19173,-0.03818 -0.0739,-0.155964 0.3381,-0.338094 -0.21975,-0.771535 -1.11619,-0.867279 -0.14877,-0.01589 -0.57479,-0.0687 -0.94672,-0.117369 -1.43192,-0.18737 -2.7725,-0.02161 -2.7725,0.342813 0,0.180369 -1.03088,0.66256 -1.41649,0.66256 -0.18995,0 -0.45102,0.05877 -0.58018,0.130596 -0.39966,0.222257 -2.23948,0.910265 -2.7095,1.013225 -0.24528,0.05374 -0.51916,0.218595 -0.6086,0.36636 -0.0894,0.147765 -0.52776,0.449109 -0.97406,0.669651 -1.36131,0.672701 -2.47642,1.336027 -3.8795,2.30771 -0.12537,0.08682 -0.26346,0.299399 -0.30687,0.472407 -0.0434,0.173008 -0.13289,0.314561 -0.19877,0.314561 -0.066,0 -0.28669,0.289084 -0.49064,0.642412 -0.20395,0.35332 -0.48287,0.75059 -0.61981,0.88282 -0.13695,0.13224 -0.28834,0.4061 -0.33642,0.6086 -0.0481,0.2025 -0.17893,0.47355 -0.29078,0.60232 -0.16299,0.18765 -0.17024,0.27407 -0.0365,0.4352 0.13226,0.15937 0.13233,0.40526 0,1.18592 -0.2205,1.30401 -0.0881,3.61093 0.27157,4.7317 0.59527,1.85495 0.73159,2.21674 0.95847,2.54374 0.22233,0.32049 1.06456,2.07142 1.25763,2.61454 0.0488,0.13724 0.21013,0.28127 0.35851,0.32007 0.14839,0.0389 0.26979,0.14281 0.26979,0.23113 0,0.27231 0.83707,0.96687 1.72685,1.43288 0.86622,0.45366 1.04825,0.71475 0.95543,1.37042 -0.0642,0.45377 -0.63745,0.48381 -1.35883,0.0711 -0.31878,-0.18233 -0.80101,-0.37021 -1.07162,-0.41752 -0.27061,-0.0473 -0.76742,-0.29632 -1.10404,-0.55334 -0.612,-0.4673 -0.612,-0.4673 -0.89592,0.0139 -0.55204,0.93562 -0.63957,1.9417 -0.14595,1.67753 0.64655,-0.34601 0.71252,-0.0108 0.13154,0.66942 -0.36777,0.43023 -0.41274,0.44828 -0.57254,0.22975 -0.15962,-0.2183 -0.19941,-0.20165 -0.49985,0.2093 -0.17953,0.24556 -0.43672,0.52599 -0.57153,0.6232 -0.13481,0.0972 -0.24512,0.28768 -0.24512,0.42328 0,0.34749 -1.42144,1.40027 -1.74987,1.29604 -0.15767,-0.05 -0.498,0.0747 -0.90115,0.33039 -0.82641,0.52409 -1.07911,0.52519 -1.18314,0.005 -0.0446,-0.22315 -0.14351,-0.40573 -0.21978,-0.40573 -0.16494,0 -0.18821,0.76484 -0.0263,0.86491 0.16813,0.10391 0.0863,1.26263 -0.10559,1.49376 -0.0918,0.11063 -0.22561,0.67504 -0.29729,1.2542 -0.0717,0.57917 -0.18776,1.11086 -0.25798,1.18153 -0.27296,0.27471 -0.14229,0.88698 0.21858,1.02418 0.34874,0.13259 0.34142,0.40264 -0.0108,0.40264 -0.51678,0 -0.88615,3.1593 -0.47599,4.07129 0.43316,0.96302 1.55666,2.01467 2.15237,2.01467 0.14933,0 0.30914,0.0608 0.35511,0.13525 0.15283,0.24729 0.86006,0.15298 1.01432,-0.13525 0.20461,-0.3823 0.39699,-0.33594 0.56126,0.13525 0.16316,0.4681 0.20978,0.48423 0.53881,0.18646 0.14666,-0.13272 0.33771,-0.18251 0.48402,-0.12616 0.2293,0.0883 0.22956,0.1 0.005,0.22601 -0.34209,0.19203 -0.29061,0.3899 0.10139,0.3899 0.33557,0 0.39443,0.10223 0.34197,0.59376 -0.0191,0.1794 0.0345,0.2319 0.18008,0.17606 0.11411,-0.0438 0.52759,-0.0289 0.91898,0.0329 0.78824,0.12459 1.25387,-0.006 1.63275,-0.45687 0.31208,-0.37161 0.29985,-0.61636 -0.0308,-0.61636 -0.29084,0 -0.35941,-0.26271 -0.12877,-0.49335 0.0987,-0.0987 0.0895,-0.25625 -0.0306,-0.51986 -0.15568,-0.34168 -0.14328,-0.39743 0.12875,-0.57805 0.16559,-0.10991 0.30108,-0.30953 0.30108,-0.44351 0,-0.13399 0.1396,-0.41565 0.31026,-0.62591 0.18471,-0.22762 0.29338,-0.51911 0.26858,-0.7204 -0.19792,-1.6056 1.0951,-4.86421 1.93167,-4.86811 0.0791,-4.1e-4 0.31883,-0.18341 0.53281,-0.40676 0.3677,-0.38379 1.34385,-0.94635 1.6421,-0.94635 0.0754,0 0.40607,-0.17541 0.73495,-0.38979 0.7361,-0.4798 1.70564,-0.64975 2.08862,-0.36608 0.34071,0.25237 0.16996,0.39725 -1.13743,0.96511 -0.49179,0.21361 -1.08,0.57342 -1.3071,0.79959 -0.22712,0.22617 -0.75334,0.60887 -1.16939,0.85045 -0.88858,0.51593 -1.61934,1.81058 -1.92376,3.40824 -0.18106,0.95026 -0.7812,2.3004 -1.10322,2.4819 -0.41607,0.23453 -0.65621,0.93458 -0.38789,1.13078 0.20364,0.1489 0.21673,0.23096 0.0835,0.52333 -0.0869,0.19071 -0.15798,0.49243 -0.15798,0.6705 0,0.17807 -0.0552,0.35786 -0.12255,0.3995 -0.22047,0.13627 0.0176,0.63886 0.41799,0.88234 0.24983,0.15193 0.55682,0.58244 0.84677,1.18745 0.25016,0.522 0.51439,0.98591 0.58723,1.03091 0.23272,0.14384 0.3362,1.52374 0.14021,1.86984 -0.0971,0.17151 -0.17716,0.42838 -0.17784,0.57085 -0.001,0.16539 -0.19903,0.36094 -0.54836,0.54098 -0.30089,0.15506 -0.75332,0.43099 -1.00538,0.61318 -0.32607,0.23565 -0.60204,0.32084 -0.95647,0.29524 -0.3524,-0.0254 -0.52207,0.0264 -0.57988,0.17698 -0.0557,0.14512 -0.22293,0.20185 -0.5251,0.17809 -0.39032,-0.0307 -0.43832,10e-4 -0.40107,0.26947 0.0336,0.24165 -0.0235,0.30429 -0.27725,0.30429 -0.17577,0 -0.38263,0.0631 -0.45972,0.14017 -0.0967,0.0967 -0.45094,0.0947 -1.14282,-0.007 -0.55145,-0.0807 -1.24609,-0.18062 -1.54363,-0.22199 -0.29752,-0.0414 -0.67592,-0.1993 -0.84086,-0.35094 -0.19368,-0.17808 -0.55288,-0.29853 -1.01433,-0.34017 -0.7274,-0.0656 -1.96909,-0.82261 -2.26922,-1.38341 -0.0666,-0.1243 -0.39435,-0.37104 -0.72851,-0.54831 -0.33415,-0.17726 -0.66734,-0.45354 -0.74043,-0.61393 -0.16467,-0.36141 -0.73913,-0.52019 -1.12836,-0.31187 -0.26809,0.14348 -0.27342,0.16996 -0.0648,0.32248 0.30634,0.22399 0.28604,0.51459 -0.0577,0.8254 -0.52532,0.47511 -0.8372,1.28295 -0.85672,2.21908 -0.01,0.48372 -0.0625,0.95098 -0.11651,1.03835 -0.20295,0.32841 -0.52571,3.13919 -0.51638,4.49715 0.01,1.40611 0.0108,1.41262 0.45947,1.89341 0.24739,0.26536 0.53532,0.65411 0.63986,0.86389 0.29803,0.59801 1.16288,1.30911 1.59218,1.30911 0.20639,0 0.49529,0.0835 0.64202,0.1856 0.14673,0.1021 0.47978,0.2276 0.74012,0.27894 0.26035,0.0514 0.64072,0.1578 0.84528,0.23656 0.43032,0.16567 0.91662,0.007 1.80682,-0.59169 0.3057,-0.20539 0.89475,-0.46173 1.30901,-0.56963 1.95123,-0.50822 2.49708,-1.21025 2.50674,-3.22388 0.004,-0.72455 0.0529,-1.39269 0.10979,-1.48474 0.0569,-0.092 0.11962,-0.47302 0.13937,-0.84657 0.0198,-0.37352 0.0455,-0.86173 0.0572,-1.08489 0.012,-0.22314 0.0778,-0.44167 0.14681,-0.48561 0.0743,-0.0473 0.0576,-0.22888 -0.041,-0.44526 -0.14574,-0.31987 -0.13115,-0.40074 0.11711,-0.64895 0.438,-0.43802 0.73926,-0.23862 0.70063,0.46375 -0.037,0.67159 0.12453,1.72708 0.29704,1.94151 0.22193,0.27586 -0.4183,3.17142 -0.79683,3.6038 -0.23091,0.26379 -0.0419,0.32967 0.21342,0.0744 0.44062,-0.44062 0.13529,0.61431 -0.3138,1.08421 -0.34173,0.35758 -0.45616,0.58136 -0.4055,0.79307 0.11135,0.46501 -1.37103,1.35835 -2.12304,1.27948 -0.26386,-0.0277 -0.37647,0.022 -0.37647,0.16591 0,0.28417 -0.52711,0.62645 -0.96477,0.62645 -0.24405,0 -0.4855,0.14454 -0.73427,0.43954 -0.39832,0.47238 -0.68867,0.49874 -0.97595,0.0885 -0.23093,-0.32971 -0.42989,-0.33264 -0.34422,-0.005 0.0842,0.32218 -0.3481,0.41787 -1.25758,0.27833 -1.83786,-0.282 -2.83714,-0.81084 -3.62851,-1.9203 -0.33039,-0.46318 -0.78046,-1.0856 -1.00013,-1.38314 -1.05569,-1.42983 -1.09224,-2.56457 -0.23087,-7.16792 0.18094,-0.96699 0.36381,-1.97534 0.40637,-2.24079 0.0745,-0.46441 0.85695,-1.80886 1.51591,-2.60455 0.50416,-0.60879 0.41204,-0.90445 -0.64558,-2.07192 -0.52919,-0.58417 -1.05043,-1.11298 -1.15826,-1.17515 -0.6823,-0.39323 -1.56072,-3.60978 -1.53231,-5.611 0.023,-1.62155 -0.33841,-2.83726 -0.57478,-1.93339 -0.0702,0.26857 -1.13118,0.87512 -1.32318,0.75646 -0.0573,-0.0354 -0.0698,-0.19555 -0.0279,-0.35587 0.0419,-0.16033 0.021,-0.262 -0.0466,-0.22596 -0.0674,0.036 -0.528,0.26291 -1.02335,0.50412 -0.49534,0.2412 -1.01265,0.56306 -1.14957,0.71524 -0.13693,0.15216 -0.56731,0.41786 -0.95642,0.59042 -1.74357,0.77319 -4.36453,3.04338 -4.59256,3.97788 -0.046,0.18848 -0.196,0.5548 -0.33334,0.81403 -0.13735,0.25924 -0.24974,0.54151 -0.24974,0.62724 0,0.0858 -0.20532,0.45438 -0.45626,0.81919 -0.25096,0.36483 -0.59458,0.9344 -0.76363,1.26572 -0.16903,0.33133 -0.38293,0.66349 -0.47535,0.73812 -0.0924,0.0746 -0.20975,0.37914 -0.26073,0.67668 -0.051,0.29754 -0.1827,0.68069 -0.29271,0.85144 -0.11003,0.17075 -0.16448,0.42248 -0.12102,0.55937 0.086,0.27117 -0.47551,2.1296 -0.8406,2.78175 -0.12492,0.22316 -0.26717,0.67959 -0.3161,1.01432 -0.20022,1.36947 -1.00708,3.52077 -1.60614,4.28237 -0.24609,0.31286 -2.38513,2.0741 -2.51899,2.0741 -0.0397,0 -0.41881,0.23464 -0.84244,0.52143 -0.96232,0.65147 -1.5695,0.96626 -1.86377,0.96626 -0.12533,0 -0.35657,0.13787 -0.51387,0.30641 -0.1573,0.16853 -0.55988,0.38815 -0.8946,0.48803 -0.33473,0.0998 -1.04844,0.35758 -1.58604,0.57267 -0.53758,0.21508 -1.06189,0.39105 -1.16513,0.39105 -0.10331,0 -0.34245,0.12172 -0.53159,0.27049 -0.18913,0.14877 -0.44099,0.27049 -0.5597,0.27049 -0.11866,0 -0.44294,0.12172 -0.72051,0.27049 -0.27757,0.14877 -0.57697,0.27049 -0.66535,0.27049 -0.0883,0 -0.33293,0.13693 -0.54348,0.3043 -0.490583,0.38997 -0.65561,0.48129 -2.613317,1.4462 -0.63226,0.31162 -1.240858,0.61948 -1.352432,0.68414 -0.111586,0.0647 -0.781041,0.34529 -1.487691,0.62363 -0.70665,0.27835 -1.376105,0.57888 -1.487678,0.66785 -0.111586,0.0889 -0.442564,0.23881 -0.735531,0.33299 -0.292966,0.0942 -1.242202,0.5279 -2.109427,0.96381 -0.867214,0.43591 -1.668268,0.79256 -1.780142,0.79256 -0.752328,0 -3.895268,0.97014 -3.895268,1.20236 0,0.13812 -1.255484,0.69827 -1.512743,0.67491 -0.09779,-0.008 -0.377568,-0.0887 -0.621749,-0.1773 z m 4.660699,-2.26812 c 0.559668,-0.20238 0.589377,-0.39985 0.04379,-0.29072 -0.249052,0.0498 -0.488794,0.012 -0.621677,-0.0984 -0.182533,-0.15148 -0.236406,-0.14356 -0.345172,0.0507 -0.07091,0.12666 -0.217136,0.23029 -0.325015,0.23029 -0.107866,0 -0.196151,0.0608 -0.196151,0.13525 0,0.18675 0.899454,0.16984 1.444269,-0.0271 z m 0.0108,-1.50563 c 0.137059,-0.13706 0.166683,-0.32656 0.09911,-0.63415 -0.06383,-0.29033 -0.132212,-0.38068 -0.202367,-0.26715 -0.08255,0.13365 -0.203302,0.13764 -0.54647,0.018 -0.784808,-0.27359 -1.215169,-0.0319 -0.456698,0.25637 0.457622,0.17399 0.351879,0.45799 -0.190452,0.51155 -0.282624,0.028 -0.429137,0.11519 -0.429137,0.25561 0,0.27499 1.42669,0.15909 1.726004,-0.14023 z m 1.846793,-0.34254 c 0.189804,-0.30713 -0.385295,-0.54489 -0.699619,-0.28924 -0.209541,0.17043 -0.251884,0.26956 -0.135235,0.31658 0.280945,0.11327 0.757584,0.0977 0.834854,-0.0274 z m -7.494846,-1.24819 c 0,-0.0499 0.121713,-0.1226 0.270482,-0.16151 0.317383,-0.083 0.36017,-0.52948 0.07355,-0.76737 -0.244301,-0.20275 -0.479267,-0.0726 -0.479267,0.26558 0,0.13999 -0.06179,0.29271 -0.137298,0.33938 -0.1549,0.0957 -0.541839,0.9652 -0.533428,1.19863 0.006,0.15685 0.805961,-0.71174 0.805961,-0.87471 z m 8.757037,0.4205 c 0.390515,-7.3e-4 0.710034,-0.0626 0.710034,-0.1371 0,-0.0744 -0.12572,-0.13523 -0.279384,-0.13523 -0.443572,0 -0.87956,-0.27456 -0.655705,-0.41292 0.100907,-0.0623 0.140994,-0.15576 0.08915,-0.20761 -0.05183,-0.0518 -0.171794,-0.0306 -0.26657,0.0474 -0.09479,0.0779 -0.324475,0.1626 -0.510427,0.18832 -0.258459,0.0358 -0.348616,0.13878 -0.382704,0.43728 -0.03995,0.35047 -0.01224,0.38186 0.270482,0.30615 0.173294,-0.0463 0.634599,-0.0852 1.025113,-0.0862 z m -3.011472,-0.40504 c 0.523325,-0.57826 -0.159208,-0.86862 -0.803706,-0.34192 -0.400257,0.32712 -0.400257,0.32712 -0.06767,0.45993 0.48709,0.19445 0.602719,0.17879 0.871329,-0.11795 z m 4.753411,-0.4978 c 0.107026,-0.4264 -0.02916,-0.55149 -0.369277,-0.3391 -0.233563,0.14585 -0.305817,0.1277 -0.513763,-0.1291 -0.320575,-0.39591 -0.68984,-0.25648 -0.68984,0.26046 0,0.50595 0.01272,0.51425 0.809453,0.52628 0.612306,0.01 0.689216,-0.0229 0.763427,-0.31854 z m 6.136019,-1.69286 c 0,-0.23115 -1.512396,-0.39887 -1.622926,-0.17997 -0.03719,0.0737 0.114946,0.16968 0.338105,0.21339 0.56868,0.11135 1.284821,0.0927 1.284821,-0.0335 z m -3.245863,-0.17864 c 0,-0.21329 -0.26891,-0.25397 -0.777645,-0.11758 -0.48991,0.1313 -0.350188,0.32049 0.236682,0.32049 0.390694,0 0.540963,-0.0564 0.540963,-0.20286 z m 2.79346,-1.89925 c 0.122865,-0.32019 -0.02532,-0.37415 -0.550994,-0.20065 -0.68852,0.22724 -0.725139,0.40934 -0.08231,0.40934 0.373848,0 0.579166,-0.0677 0.633291,-0.20869 z m -0.629548,-2.55469 c 0,-0.10655 -0.127015,-0.23406 -0.282252,-0.28333 -0.366649,-0.11639 -1.205438,0.0419 -1.205438,0.22738 0,0.0858 0.136278,0.10955 0.338117,0.0589 0.194963,-0.0489 0.338105,-0.0265 0.338105,0.0529 0,0.0758 0.18258,0.13782 0.40574,0.13782 0.261999,0 0.405728,-0.0686 0.405728,-0.19376 z m 12.853644,-0.91363 c 0.41537,-0.30709 0.54432,-0.59977 0.20727,-0.47043 -0.29312,0.11243 -0.53279,-0.24135 -0.29637,-0.43757 0.14738,-0.12231 0.23693,-0.11111 0.39773,0.0497 0.31556,0.31556 0.44295,0.25988 0.91761,-0.40105 0.24037,-0.33473 0.4876,-0.60859 0.54937,-0.60859 0.0618,0 0.11231,-0.14857 0.11231,-0.33014 0,-0.18156 0.0552,-0.3642 0.12254,-0.40586 0.0674,-0.0416 0.0907,-0.1974 0.0518,-0.3461 -0.0474,-0.18122 -0.004,-0.27035 0.13137,-0.27035 0.29376,0 0.50526,-0.3106 0.42374,-0.62234 -0.0967,-0.36968 -0.57938,-0.66382 -0.77251,-0.47072 -0.0805,0.0805 -0.25588,0.14636 -0.38978,0.14636 -0.14127,0 -0.24388,0.0993 -0.24449,0.23667 -10e-4,0.22454 -0.54351,0.57478 -0.89031,0.57478 -0.17704,0 -0.59632,0.94 -0.59632,1.33693 0,0.13724 -0.12846,0.41285 -0.28549,0.61247 -0.26425,0.33595 -0.26921,0.38091 -0.0666,0.6048 0.15324,0.16933 0.19323,0.37017 0.13334,0.66963 -0.10138,0.50672 -0.036,0.52415 0.49471,0.13184 z m -13.65405,0.0254 c 0.38088,0 0.529913,-0.0571 0.529913,-0.20286 0,-0.11158 0.111106,-0.20287 0.246916,-0.20287 0.135799,0 0.385535,-0.14755 0.554942,-0.32789 0.308049,-0.32789 0.308049,-0.32789 -0.204118,-0.46931 -0.570228,-0.15744 -0.812849,-0.0423 -1.011459,0.48008 -0.07331,0.19292 -0.311745,0.36154 -0.657697,0.46519 -0.298462,0.0894 -0.508063,0.21855 -0.46578,0.28696 0.04235,0.0685 0.166982,0.0898 0.277116,0.0475 0.110146,-0.0422 0.438712,-0.0768 0.730167,-0.0768 z m -2.92158,-0.33899 c 0.505928,-0.4134 0.33417,-0.70131 -0.279252,-0.46808 -0.578423,0.21992 -0.918459,0.55604 -0.701683,0.69361 0.287183,0.18226 0.558121,0.11999 0.980935,-0.22553 z m 48.04672,-0.37104 c 0.23635,-0.30014 0.31728,-1.41117 0.11507,-1.57902 -0.22625,-0.18777 -0.35944,0.19248 -0.21041,0.60066 0.0542,0.14847 0.0178,0.46467 -0.0817,0.70788 -0.17873,0.43731 -0.0769,0.59294 0.17705,0.27048 z m -42.739699,-0.77268 c -0.09323,-0.35653 0.112185,-0.4932 0.916971,-0.60986 0.806628,-0.11698 1.149578,-0.28083 1.149578,-0.54944 0,-0.25903 -0.57278,-0.25855 -1.07448,7.4e-4 -0.211641,0.10943 -0.633483,0.23876 -0.937428,0.28736 -0.303946,0.0486 -0.622085,0.17206 -0.706974,0.27436 -0.08495,0.10223 -0.234606,0.18599 -0.332694,0.18599 -0.09803,0 -0.215361,0.06 -0.260643,0.13321 -0.05075,0.0822 0.07043,0.1027 0.316508,0.0535 0.325075,-0.065 0.415555,-0.0271 0.48919,0.2049 0.117825,0.37118 0.536799,0.38942 0.439972,0.0192 z m 10.857389,-1.27532 c 0,-0.26427 -0.37508,-0.37849 -0.6898,-0.21007 -0.35356,0.18922 -0.20019,0.39847 0.29205,0.39847 0.24982,0 0.39775,-0.0701 0.39775,-0.1884 z m 3.08273,-2.14994 c -0.0218,-0.096 0.1533,-0.35459 0.38922,-0.57478 0.56478,-0.52711 0.69009,-0.95001 0.31088,-1.04918 -0.24981,-0.0654 -0.26184,-0.10643 -0.10522,-0.35899 0.14876,-0.23999 0.14464,-0.30573 -0.026,-0.4143 -0.28663,-0.18234 -0.37956,-0.16445 -0.42963,0.0827 -0.0463,0.22841 -0.91767,0.59011 -1.42998,0.59354 -0.21345,0.001 -0.30429,0.0828 -0.30429,0.27252 0,0.3467 0.33018,0.34937 0.9674,0.008 0.41108,-0.22033 0.52869,-0.23438 0.73001,-0.0872 0.34335,0.25107 0.16592,0.6861 -0.19999,0.49028 -0.18818,-0.10066 -0.3648,-0.0961 -0.6106,0.0158 -0.43688,0.19906 -0.43306,0.26266 0.0465,0.77607 0.40365,0.43211 0.73196,0.55395 0.66171,0.2456 z m 27.75287,-3.60763 c 0,-0.0718 -0.13694,-0.20227 -0.30431,-0.29 -0.16735,-0.0877 -0.53689,-0.36757 -0.82121,-0.62183 -0.53727,-0.48049 -1.06334,-0.43712 -0.78261,0.0646 0.23831,0.42581 1.90813,1.1673 1.90813,0.84729 z m 3.26315,-0.20538 c 0.8937,-0.39314 1.08372,-0.65654 1.03813,-1.43901 -0.0464,-0.79704 -0.70921,-1.40871 -1.13949,-1.05161 -0.15002,0.12451 -0.24955,0.10643 -0.45943,-0.0835 -0.28348,-0.25653 -0.36003,-0.6063 -0.13272,-0.6063 0.0744,0 0.13523,-0.087 0.13523,-0.19342 0,-0.15308 -0.0897,-0.16768 -0.4304,-0.0699 -0.56559,0.16221 -0.76491,0.36365 -0.47129,0.47631 0.12403,0.0475 0.22547,0.19428 0.22547,0.32599 0,0.1317 0.0913,0.31521 0.20287,0.40782 0.11159,0.0926 0.20287,0.27235 0.20287,0.39944 0,0.12709 0.15214,0.3125 0.33811,0.41201 0.58272,0.31187 0.43203,0.57165 -0.27048,0.46629 -0.68272,-0.10235 -0.84116,0.10978 -0.27473,0.36786 0.18362,0.0836 0.29995,0.207 0.25849,0.27406 -0.2664,0.43105 0.13908,0.59489 0.77737,0.3141 z m -2.34168,-1.86185 c -0.0569,-0.58928 -0.85385,-0.68397 -0.85385,-0.10139 0,0.24094 0.0652,0.32737 0.22649,0.30072 0.12455,-0.0206 0.26509,0.0251 0.31227,0.10139 0.17916,0.28988 0.35579,0.12133 0.31509,-0.30072 z m -28.00422,-0.27049 c -0.0348,-0.10403 -0.32538,-0.17343 -0.75511,-0.18044 -1.16083,-0.0188 -0.79172,0.26471 0.42843,0.32924 0.25279,0.0133 0.36396,-0.0373 0.32668,-0.1488 z m 24.84637,-2.20858 c 0.17478,-0.0439 0.45038,-0.008 0.61245,0.078 0.33786,0.18082 0.47594,0.10546 0.36006,-0.19649 -0.044,-0.11483 -0.2369,-0.2087 -0.42859,-0.2087 -0.19166,0 -0.50065,-0.15214 -0.6866,-0.33811 -0.18596,-0.18595 -0.41141,-0.33903 -0.50101,-0.34014 -0.40422,-0.005 -1.17036,-0.37921 -1.75031,-0.8548 -0.60845,-0.49894 -0.91462,-0.55199 -0.91462,-0.15847 0,0.12135 0.11039,0.1659 0.31791,0.12828 0.21972,-0.0398 0.35546,0.0235 0.43954,0.20494 0.13684,0.29538 0.87854,0.87148 1.44026,1.11869 0.41003,0.18043 0.51523,0.69665 0.16906,0.8295 -0.30931,0.11866 -0.2608,0.52868 0.0509,0.42976 0.18322,-0.0582 0.28342,0.005 0.36067,0.22756 0.0897,0.25851 0.11542,0.21569 0.15973,-0.26606 0.0431,-0.46798 0.11159,-0.5889 0.37058,-0.65391 z m 4.97165,0.30444 c 0.32574,-0.51209 -0.066,-1.13583 -0.59869,-0.9532 -0.17093,0.0587 -0.59493,0.0888 -0.94222,0.0672 -0.51034,-0.0318 -0.65825,0.0108 -0.77132,0.222 -0.16229,0.30324 0.0296,0.57332 0.40749,0.57332 0.1295,0 0.26955,0.0552 0.3112,0.12255 0.0416,0.0674 0.19053,0.0925 0.33083,0.0558 0.14029,-0.0367 0.29903,0.005 0.35273,0.0913 0.11471,0.18569 0.75856,0.059 0.90998,-0.17896 z m -2.87052,-0.23019 c 0,-0.3468 -0.34263,-0.48697 -0.62251,-0.25468 -0.1932,0.16033 -0.1906,0.19373 0.0275,0.35324 0.35065,0.2564 0.59496,0.21592 0.59496,-0.0985 z m -26.58648,0.0574 c 0.1177,-0.0451 0.21393,-0.15242 0.21393,-0.23842 0,-0.086 0.13004,-0.21639 0.28896,-0.28982 0.15893,-0.0734 0.28387,-0.19436 0.27763,-0.26875 -0.023,-0.27553 -0.39455,-0.20277 -0.74281,0.14549 -0.29786,0.29785 -0.43698,0.34442 -0.81643,0.27323 -0.49939,-0.0937 -1.26112,0.10594 -0.90077,0.23603 0.56979,0.20574 1.34332,0.27125 1.67949,0.14224 z m -5.04054,-1.21509 c 0.0782,-0.0484 0.0365,-0.18856 -0.10175,-0.34131 -0.22312,-0.24655 -0.2219,-0.26856 0.025,-0.45028 0.24248,-0.17845 0.24399,-0.1971 0.0229,-0.28279 -0.13017,-0.0505 -0.23668,-0.20338 -0.23668,-0.3398 0,-0.13641 -0.0608,-0.28565 -0.13525,-0.33162 -0.0744,-0.046 -0.13523,-0.26819 -0.13523,-0.49384 0,-0.41024 0,-0.41024 0.71002,-0.3641 0.77094,0.05 1.1337,-0.19637 0.39345,-0.26731 -0.40088,-0.0384 -0.44272,-0.0796 -0.37113,-0.36476 0.0553,-0.22031 0.0108,-0.3609 -0.14321,-0.44676 -0.14232,-0.0797 -0.19723,-0.22728 -0.1507,-0.40522 0.0443,-0.16946 -0.0185,-0.36288 -0.15924,-0.49024 -0.35088,-0.31757 -0.92192,0.29312 -0.6861,0.73375 0.0865,0.16161 0.12235,0.38477 0.0797,0.49592 -0.0427,0.11111 -0.0168,0.31571 0.0576,0.45458 0.0744,0.13886 0.0841,0.28401 0.0217,0.32256 -0.0624,0.0385 -0.0851,0.41105 -0.0506,0.82778 0.0575,0.69371 0.0375,0.76429 -0.23597,0.83584 -0.2018,0.0528 -0.2787,0.15504 -0.23686,0.31503 0.0341,0.13029 0.0126,0.31679 -0.0477,0.41445 -0.23738,0.38411 0.82498,0.5212 1.38011,0.17812 z m 25.97871,-1.7396 c 0.0455,-0.23803 -0.0412,-0.43216 -0.30652,-0.68634 -0.20344,-0.19494 -0.48219,-0.56288 -0.61939,-0.81767 -0.24912,-0.46258 -0.56068,-0.65422 -0.4053,-0.2493 0.0452,0.1177 0.0821,0.29557 0.0821,0.39536 0,0.0998 0.15215,0.36224 0.3381,0.58324 0.18597,0.221 0.33811,0.51984 0.33811,0.66406 0,0.53188 0.47485,0.6236 0.5729,0.11062 z m -4.48145,-2.90042 c -0.1562,-0.1562 -0.28401,-0.3753 -0.28401,-0.48688 0,-0.11159 -0.0984,-0.20287 -0.21863,-0.20287 -0.16074,0 -0.19706,0.0806 -0.1371,0.3043 0.0449,0.16737 0.0824,0.37108 0.0834,0.45269 0.002,0.19957 0.58085,0.45741 0.72539,0.32337 0.0632,-0.0587 -0.0128,-0.2344 -0.16906,-0.39061 z m -20.61008,-0.61332 c -0.01,-0.32689 -0.0854,-0.48342 -0.25711,-0.52831 -0.33875,-0.0885 -0.31244,-0.49485 0.032,-0.49485 0.33933,0 1.07647,-0.52677 1.07647,-0.76927 0,-0.10535 -0.15819,-0.17743 -0.38915,-0.17743 -0.48249,0 -0.84443,-0.36219 -0.54886,-0.54921 0.10679,-0.0675 0.41491,-0.1238 0.6847,-0.12494 0.45903,-0.002 0.50918,-0.0455 0.78141,-0.67829 0.16067,-0.37351 0.38002,-0.67622 0.49,-0.67622 0.25441,0 0.25225,0.12284 -0.007,0.4095 -0.17602,0.19448 -0.17852,0.25098 -0.0172,0.38493 0.2691,0.22333 0.65828,-0.40305 0.60333,-0.97096 -0.0254,-0.26309 0.0364,-0.49304 0.15796,-0.58797 0.15347,-0.11975 0.16916,-0.24261 0.0677,-0.52993 -0.17844,-0.50495 -0.35522,-0.53376 -0.7919,-0.12908 -0.20269,0.18786 -0.44609,0.34156 -0.54086,0.34156 -0.2167,0 -0.70114,0.52135 -0.81685,0.87908 -0.0481,0.14877 -0.32659,0.43557 -0.6188,0.63731 -0.68694,0.47429 -1.23715,1.45897 -0.81524,1.45897 0.15029,0 0.27323,0.0608 0.27323,0.13525 0,0.0744 -0.0596,0.13524 -0.13249,0.13524 -0.13367,0 -0.67896,0.96246 -0.67896,1.19837 0,0.07 0.22822,0.18249 0.50716,0.25006 0.44559,0.10799 0.50244,0.16706 0.46824,0.48679 -0.0304,0.28332 0.0191,0.36393 0.22329,0.36393 0.21113,0 0.25965,-0.0905 0.24906,-0.46453 z m 3.06383,-0.008 c 0.0726,-0.18909 -0.38038,-0.74481 -0.60703,-0.74481 -0.17561,0 -0.26386,0.2478 -0.11998,0.33674 0.0756,0.0467 0.13744,0.20309 0.13744,0.34746 0,0.31506 0.47322,0.36371 0.58952,0.0606 z m 20.86378,-0.41858 c 0.01,-0.291 0.0619,-0.69724 0.11651,-0.90277 0.0626,-0.23548 0.0377,-0.44805 -0.0675,-0.57478 -0.24723,-0.29791 -0.40427,-0.2447 -0.40427,0.13698 0,0.20424 -0.0771,0.33812 -0.19489,0.33812 -0.30968,0 -0.35807,0.2074 -0.16229,0.69566 0.10007,0.24965 0.22146,0.56548 0.26967,0.70184 0.14669,0.41487 0.42455,0.16696 0.44276,-0.39505 z m -11.90783,-1.33473 c 0.30515,-0.15831 0.33671,-0.21359 0.16054,-0.28118 -0.36419,-0.13977 -0.84192,-0.01 -0.88987,0.24154 -0.0554,0.29042 0.21738,0.30523 0.72933,0.0397 z m 2.53039,-0.47931 c -0.0822,-0.31445 -0.0128,-0.32728 0.59027,-0.10918 0.58144,0.21025 0.71376,0.0579 0.31679,-0.3646 -0.31714,-0.33758 -0.31714,-0.33758 -0.023,-0.65059 0.16174,-0.17216 0.29406,-0.41346 0.29406,-0.53622 0,-0.27156 0.40058,-0.5032 0.87019,-0.5032 0.21829,0 0.34701,0.0752 0.34701,0.20287 0,0.11159 -0.0913,0.20286 -0.20287,0.20286 -0.14168,0 -0.20287,0.14276 -0.20287,0.47335 0,0.26034 0.0608,0.47335 0.13525,0.47335 0.0744,0 0.13524,-0.0608 0.13524,-0.13523 0,-0.0744 0.0649,-0.13525 0.14426,-0.13525 0.221,0 1.0737,-0.68822 1.06717,-0.86132 -0.002,-0.0841 -0.31482,-0.39148 -0.69255,-0.68294 -0.54902,-0.42362 -0.66916,-0.47431 -0.59881,-0.2527 0.12014,0.37854 -0.20691,0.48296 -0.86724,0.27686 -0.84822,-0.26472 -0.73157,-1.38765 0.14416,-1.38765 0.35705,0 0.59816,-0.068 0.63615,-0.17955 0.0648,-0.19017 -1.17718,-0.0897 -1.32083,0.10678 -0.0372,0.0509 -0.17412,0.13183 -0.30429,0.17986 -0.13017,0.048 -0.23667,0.20444 -0.23667,0.34757 0,0.30498 -0.25058,0.42446 -0.89016,0.42446 -0.4209,0 -0.68871,0.25653 -0.29323,0.28091 0.52285,0.0322 1.40937,0.14212 1.55531,0.19283 0.23634,0.0821 0.2116,0.56294 -0.0338,0.65712 -0.12357,0.0474 -0.20287,2.6e-4 -0.20287,-0.12078 0,-0.32125 -0.326,-0.22901 -0.7482,0.21168 -0.34208,0.35704 -0.3711,0.44554 -0.2236,0.68171 0.0932,0.14929 0.13104,0.33365 0.0841,0.40969 -0.047,0.0761 0.0192,0.25389 0.14705,0.3952 0.12789,0.1413 0.19891,0.34453 0.15781,0.45161 -0.0833,0.21717 0.0238,0.38356 0.18332,0.28494 0.057,-0.0352 0.0719,-0.18574 0.033,-0.33444 z m -5.3371,-4.5023 c 0.10787,-0.12995 0.0746,-0.21856 -0.13,-0.34632 -0.15914,-0.0993 -0.24264,-0.25583 -0.19827,-0.37147 0.0818,-0.21337 0.001,-0.25657 -0.71292,-0.38061 -0.38628,-0.0671 -0.43132,-0.0494 -0.29441,0.11554 0.0889,0.10715 0.2387,0.16517 0.33292,0.12901 0.20201,-0.0775 0.51211,0.25468 0.47735,0.51133 -0.0705,0.5209 0.22007,0.7104 0.52533,0.34256 z m 12.02235,-0.12062 c 0.64368,-0.5342 0.65323,-1.2925 0.0179,-1.41957 -0.52639,-0.10522 -0.57856,-0.23736 -0.17836,-0.45156 0.231,-0.12362 0.3335,-0.29335 0.3335,-0.55224 0,-0.25833 0.0859,-0.401 0.27794,-0.46198 0.46083,-0.14626 0.21247,-0.40123 -0.42442,-0.4357 -0.67049,-0.0364 -1.81455,0.45983 -1.81455,0.78688 0,0.3297 0.53605,0.22681 0.58419,-0.11218 0.0613,-0.43165 0.2946,-0.37842 0.29638,0.0677 0.001,0.20455 0.0392,0.60014 0.0853,0.87908 0.0758,0.45859 0.0552,0.50716 -0.21563,0.50716 -0.18025,0 -0.27642,0.0673 -0.2416,0.16906 0.0356,0.10403 0.2412,0.15277 0.53449,0.12669 0.53173,-0.0473 0.6783,0.13411 0.49873,0.61714 -0.0649,0.17455 -0.2269,0.30431 -0.37998,0.30431 -0.14676,0 -0.31035,0.0703 -0.36349,0.15635 -0.12433,0.20118 0.71379,0.0478 0.98958,-0.18111 z m -6.06342,-0.33392 c 0.18424,-0.40434 0.044,-0.64252 -0.30026,-0.51037 -0.13857,0.0532 -0.22549,0.23732 -0.22549,0.47779 0,0.49652 0.30575,0.51547 0.52575,0.0325 z m -7.55842,-1.06139 c 0.0926,-0.11158 0.27125,-0.20286 0.39699,-0.20286 0.29155,0 0.95545,-0.68646 0.95545,-0.98791 0,-0.32957 -0.91938,-0.32306 -1.04558,0.007 -0.0497,0.13017 -0.29666,0.43153 -0.54874,0.66969 -0.43928,0.41502 -0.48338,0.71655 -0.10475,0.71655 0.098,0 0.2541,-0.0913 0.34669,-0.20286 z m 20.14608,-1.5455 c 0.0768,-0.14338 0.10283,-0.35639 0.0578,-0.47336 -0.089,-0.23187 0.14994,-0.29667 0.28545,-0.0774 0.13894,0.22483 0.3145,0.1529 0.41261,-0.16905 0.051,-0.16736 0.18737,-0.41204 0.30302,-0.5437 0.19146,-0.21794 0.18538,-0.27309 -0.0677,-0.61543 -0.28383,-0.38392 -0.13007,-1.1062 0.23551,-1.1062 0.072,0 0.13091,-0.0925 0.13091,-0.20545 0,-0.14667 -0.0888,-0.18317 -0.31016,-0.12761 -0.20117,0.0505 -0.43436,-0.0199 -0.66373,-0.20027 -0.43913,-0.34542 -0.5138,-0.34723 -0.5138,-0.0124 0,0.14615 0.12173,0.33087 0.2705,0.41049 0.14877,0.0797 0.27049,0.25491 0.27049,0.38952 0,0.3488 -0.43216,0.70802 -0.67286,0.55926 -0.10631,-0.0657 -0.24187,-0.0895 -0.3012,-0.0528 -0.18535,0.11459 -0.11782,0.59636 0.0949,0.67804 0.23157,0.0889 0.27308,0.53052 0.0622,0.6609 -0.0774,0.0479 -0.10535,0.19847 -0.0622,0.33471 0.0433,0.13625 0.0152,0.28687 -0.062,0.33471 -0.0774,0.0479 -0.14076,0.17468 -0.14076,0.28188 0,0.28704 0.50885,0.23714 0.67098,-0.0657 z m -16.69531,-0.96047 c 0.38524,-0.74495 -0.30601,-0.82911 -0.87273,-0.10631 -0.2847,0.36313 -0.2847,0.36313 0.15774,0.41789 0.24334,0.0301 0.45611,0.0646 0.47279,0.0764 0.0167,0.012 0.12568,-0.16272 0.2422,-0.38806 z m 1.51408,-0.67225 c -0.0524,-0.20064 -0.005,-0.27049 0.18708,-0.27049 0.16766,0 0.25782,-0.0945 0.25782,-0.27049 0,-0.17031 -0.0901,-0.27048 -0.24343,-0.27048 -0.1339,0 -0.30689,-0.0635 -0.38441,-0.14098 -0.17541,-0.1754 -0.381,0.0585 -0.50386,0.57337 -0.0641,0.2685 -0.0243,0.40124 0.1504,0.50303 0.39103,0.22773 0.61483,0.17601 0.5364,-0.12396 z m 14.24741,-1.251 c 0.33993,-0.40748 0.33199,-0.63518 -0.0189,-0.54341 -0.2768,0.0724 -0.55551,0.54703 -0.43821,0.74627 0.0954,0.16193 0.18656,0.12145 0.45713,-0.20286 z m 4.48651,-2.14746 c 0.17657,-1.21286 0.17184,-1.66338 -0.0252,-2.39497 -0.22546,-0.83734 -0.36733,-0.68709 -0.45799,0.48511 -0.0446,0.57647 -0.11867,1.35243 -0.1645,1.72436 -0.20007,1.62191 0.41296,1.7975 0.64764,0.1855 z m -8.88155,0.95109 c 0.13349,-0.21598 -0.2589,-0.55298 -0.52498,-0.45088 -0.12478,0.0479 -0.22688,0.16677 -0.22688,0.26418 0,0.29811 0.59214,0.44514 0.75186,0.1867 z m -5.15694,-0.47004 c 0.4611,-0.4611 0.1853,-0.65704 -0.54025,-0.38383 -0.29262,0.11015 -0.63787,0.23549 -0.7672,0.27848 -0.40443,0.1344 -0.1135,0.31788 0.50396,0.31788 0.35692,0 0.67513,-0.0842 0.80349,-0.21253 z m 2.17081,-0.38135 c -0.46126,-0.3373 0.46569,-1.38426 1.35308,-1.52827 0.46593,-0.0756 0.6725,-0.31224 0.2726,-0.31224 -0.11267,0 -0.20288,-0.12022 -0.20288,-0.27049 0,-0.29026 -0.19754,-0.36267 -0.3438,-0.12602 -0.0491,0.0794 -0.18139,0.10907 -0.29399,0.066 -0.12281,-0.0472 -0.41508,0.11146 -0.73055,0.39651 -0.28922,0.26128 -0.6474,0.47507 -0.79594,0.47507 -0.14855,0 -0.2701,0.0608 -0.2701,0.13523 0,0.0744 0.0846,0.13525 0.18807,0.13525 0.20612,0 0.37635,0.91625 0.19146,1.03052 -0.25665,0.15862 -0.0738,0.2635 0.36915,0.21178 0.40243,-0.0469 0.44409,-0.0807 0.2629,-0.21325 z m 9.90051,-0.48308 c -0.18546,-0.2204 -0.36896,-0.47905 -0.40776,-0.57479 -0.049,-0.12068 -0.15563,-0.0703 -0.34804,0.16406 -0.41289,0.50313 -0.35096,0.6546 0.2913,0.71244 0.31612,0.0284 0.62584,0.0624 0.68824,0.0754 0.0624,0.013 -0.0383,-0.1567 -0.22374,-0.37711 z m -2.56615,-1.49271 c 0.0782,-0.29942 0.15111,-0.32391 0.43281,-0.14557 0.1171,0.0742 0.28394,0.0625 0.43198,-0.0299 0.18942,-0.1183 0.29883,-0.0985 0.50957,0.0923 0.48482,0.43876 1.54724,-0.27901 1.24604,-0.84183 -0.0807,-0.15089 -0.14683,-0.40576 -0.14683,-0.56638 0,-0.16523 -0.10355,-0.31913 -0.23845,-0.3544 -0.13114,-0.0342 -0.34496,-0.24793 -0.47513,-0.47472 -0.3251,-0.56649 -1.70114,-0.41342 -2.43541,0.27089 -0.32068,0.29887 -0.41564,0.32642 -0.64058,0.18594 -0.36519,-0.22807 -0.40299,-0.21212 -0.40299,0.17006 0,0.20809 -0.12809,0.41893 -0.33812,0.55654 -0.18595,0.12185 -0.3381,0.2754 -0.3381,0.34123 0,0.16489 0.64061,0.15149 0.74383,-0.0156 0.13263,-0.21459 0.37581,-0.15688 0.28497,0.0677 -0.0451,0.11159 -0.11903,0.29415 -0.16419,0.40574 -0.0641,0.15819 0.0263,0.20286 0.40999,0.20286 0.31262,0 0.52044,0.074 0.56991,0.20287 0.11243,0.29296 0.46781,0.24933 0.5507,-0.0677 z m 1.22257,-0.71671 c -0.41358,-0.16342 -0.4768,-0.33348 -0.16802,-0.45197 0.24874,-0.0955 0.91819,0.31813 0.80676,0.49841 -0.094,0.15192 -0.14646,0.1481 -0.63874,-0.0464 z m -5.65996,-0.0108 c 0.0852,-0.10259 0.33604,-0.2228 0.55752,-0.2671 0.46682,-0.0934 0.55992,-0.49303 0.11483,-0.49303 -0.26315,0 -1.74081,0.75462 -1.74081,0.88901 0,0.14827 0.93168,0.0359 1.06843,-0.12887 z m 22.11792,-1.77876 c 0.1444,-0.10919 0.40305,-0.19856 0.57479,-0.19856 0.2237,0 0.31226,-0.0779 0.31226,-0.27473 0,-0.4103 -0.40395,-0.50083 -0.68514,-0.15356 -0.13051,0.16118 -0.29616,0.29304 -0.3681,0.29304 -0.18663,0 -0.44919,0.3459 -0.34309,0.45199 0.12655,0.12655 0.21192,0.10679 0.50928,-0.11818 z m -0.742,-4.04563 c 0.15028,-0.18108 0.12529,-0.21025 -0.18017,-0.21025 -0.2587,0 -0.35468,-0.0698 -0.35468,-0.25783 0,-0.19124 -0.0698,-0.23956 -0.27049,-0.18709 -0.32513,0.085 -0.38714,-0.33026 -0.0677,-0.45288 0.2536,-0.0973 0.26793,-0.45464 0.0182,-0.45464 -0.26125,0 -0.89732,0.52526 -0.89732,0.74099 0,0.1024 0.10235,0.15683 0.23667,0.1259 0.32698,-0.0753 0.89623,0.4282 0.79181,0.7003 -0.19481,0.50768 0.30106,0.50459 0.72356,-0.004 z m 2.98149,-0.9385 c 0,-0.0942 0.15215,-0.31425 0.33811,-0.48894 0.41826,-0.39293 0.42963,-0.62074 0.0361,-0.72365 -0.23352,-0.0611 -0.26547,-0.11546 -0.14097,-0.23995 0.12153,-0.12154 0.20686,-0.12292 0.34821,-0.006 0.20829,0.17286 0.36521,0.0794 0.36521,-0.21758 0,-0.14059 -0.0945,-0.17125 -0.33901,-0.1099 -0.31445,0.0789 -0.33648,0.053 -0.30429,-0.35726 0.03,-0.38326 -0.0108,-0.44702 -0.30341,-0.47738 -0.54634,-0.0566 -0.75832,0.15297 -0.57088,0.56437 0.13962,0.30642 0.11578,0.38459 -0.20917,0.6859 -0.36675,0.34007 -0.36675,0.34007 0.007,0.34007 0.46287,0 0.78202,0.54272 0.51112,0.86915 -0.0918,0.11052 -0.12691,0.26547 -0.0782,0.34432 0.1087,0.17595 0.34041,0.051 0.34041,-0.18355 z m -9.06133,-0.21846 c 0,-0.22315 0.0587,-0.40573 0.13048,-0.40573 0.29384,0 0.42842,-0.53979 0.25451,-1.02076 -0.19483,-0.5388 -0.47185,-0.54764 -0.41368,-0.0132 0.0454,0.41643 -0.23299,0.4883 -0.33786,0.0873 -0.0812,-0.31052 -0.15745,-0.32673 -0.45698,-0.0971 -0.42682,0.32716 -0.40157,0.90713 0.0609,1.39891 0.53045,0.56407 0.76261,0.57949 0.76261,0.0506 z m 1.21719,-2.0329 c 0,-0.0767 -0.0913,-0.17452 -0.20287,-0.21733 -0.34101,-0.13086 -0.2304,-0.58679 0.20202,-0.83285 0.48478,-0.27586 0.53183,-0.46984 0.0869,-0.35817 -0.24732,0.0621 -0.33633,0.0167 -0.39308,-0.20029 -0.10079,-0.38534 -0.48316,-0.3515 -0.93655,0.0829 -0.42929,0.41127 -0.50298,0.85378 -0.1422,0.85378 0.13039,0 0.40943,0.18258 0.62005,0.40573 0.37891,0.40145 0.76575,0.53595 0.76575,0.26624 z m 1.62293,-2.62311 c 0,-0.11431 -0.71306,0.0638 -0.87909,0.21953 -0.0885,0.0831 -0.0472,0.19187 0.11998,0.31531 0.23962,0.1769 0.75911,-0.18911 0.75911,-0.53484 z m 11.16868,-10.978357 c 0.34918,-0.145895 0.45107,-0.26407 0.42669,-0.494891 -0.0283,-0.26762 0.0212,-0.298024 0.42142,-0.258905 0.32663,0.03193 0.54439,-0.04111 0.77861,-0.26115 0.32517,-0.305477 0.32517,-0.305477 0.60696,-0.003 0.26675,0.286322 0.29969,0.290758 0.6167,0.08304 0.25251,-0.165457 0.37996,-0.182028 0.51811,-0.06737 0.13617,0.113014 0.26407,0.109942 0.49811,-0.012 0.17319,-0.09022 0.40481,-0.205988 0.51473,-0.257271 0.1099,-0.05128 0.206,-0.209188 0.21355,-0.350901 0.0391,-0.734681 0.0546,-0.763971 0.36158,-0.683683 0.56428,0.147559 1.29965,-0.826363 0.91465,-1.211354 -0.0914,-0.0914 -0.002,-0.235023 0.27049,-0.436828 0.25647,-0.189619 0.40666,-0.421083 0.40666,-0.626737 0,-0.179343 0.0608,-0.363691 0.13525,-0.409663 0.0744,-0.04597 0.13524,-0.312893 0.13524,-0.593156 0,-0.497032 -0.0108,-0.508095 -0.43954,-0.449641 -0.59256,0.0808 -0.31199,-0.233119 0.32476,-0.363349 0.30326,-0.06203 0.46471,-0.179232 0.49226,-0.357402 0.0226,-0.14581 0.13887,-0.493784 0.25849,-0.773276 0.18109,-0.423159 0.20299,-0.826443 0.13093,-2.410817 -0.0991,-2.179356 -0.28583,-2.625833 -1.44424,-3.453986 -0.33411,-0.238855 -0.82049,-0.649473 -1.08084,-0.912484 -0.38412,-0.388057 -0.66456,-0.520621 -1.48768,-0.703227 -1.46902,-0.325894 -1.68211,-0.320597 -1.73375,0.0431 -0.0511,0.359668 -0.11015,0.367685 -0.74739,0.101435 -0.53672,-0.224255 -1.65181,-0.273474 -1.77247,-0.07824 -0.0892,0.14428 0.6637,0.551592 1.01956,0.551592 0.16207,0 0.25471,0.121517 0.28352,0.37192 0.0434,0.377104 0.10511,0.397297 0.85426,0.279287 0.21889,-0.03448 0.26176,0.02187 0.22475,0.295499 -0.0457,0.338109 -0.0457,0.338109 0.24195,0.03381 0.15821,-0.167364 0.35746,-0.304298 0.44275,-0.304298 0.0853,0 0.28071,-0.115041 0.43427,-0.25564 0.32295,-0.295701 1.15828,-0.246571 1.15828,0.06813 0,0.103139 0.12173,0.187516 0.2705,0.187516 0.20815,0 0.27049,0.09017 0.27049,0.391262 0,0.469164 -0.34563,0.65177 -0.67296,0.355545 -0.25237,-0.2284 -0.409,-0.148758 -0.409,0.207971 0,0.128413 -0.0962,0.270419 -0.21394,0.31557 -0.41939,0.160941 -0.59752,0.08463 -0.59752,-0.256018 0,-0.254154 -0.0711,-0.33811 -0.28626,-0.33811 -0.23918,0 -0.27458,0.06101 -0.21534,0.37099 0.0797,0.416637 -0.55381,1.116693 -1.01043,1.116693 -0.36758,0 -0.29796,0.333103 0.1667,0.797765 0.35561,0.35562 0.44936,0.390044 0.67622,0.24836 0.32682,-0.204101 0.33714,-0.485435 0.0268,-0.727497 -0.22028,-0.171768 -0.20858,-0.208079 0.16906,-0.524463 0.47159,-0.395085 0.96988,-0.401973 0.90275,-0.01249 -0.0327,0.189603 0.0136,0.232978 0.18012,0.169055 0.12323,-0.04729 0.34651,-0.08598 0.49615,-0.08598 0.15836,0 0.30167,-0.113073 0.34283,-0.270486 0.13898,-0.531481 0.3007,-0.257526 0.28137,0.476695 -0.0108,0.432434 -0.095,0.809726 -0.19854,0.895647 -0.5224,0.433559 -0.18982,0.60114 0.49732,0.250583 0.29163,-0.148768 0.64375,-0.270487 0.78252,-0.270487 0.25566,0 0.99287,0.665749 0.76256,0.688647 -0.0687,0.0068 -0.30221,0.02204 -0.5188,0.03381 -0.44557,0.02419 -0.66389,0.359492 -0.23405,0.359492 0.15057,0 0.31138,0.06086 0.35735,0.135244 0.046,0.07438 0.23331,0.135244 0.4163,0.135244 0.29373,0 0.32259,0.04357 0.24628,0.37192 -0.16195,0.69695 -0.90695,1.003703 -0.83674,0.344524 0.0648,-0.607811 -0.61408,-0.767186 -1.03252,-0.242417 -0.408,0.511688 0.11951,1.152453 0.85926,1.043871 0.45699,-0.06707 0.53535,0.100655 0.20252,0.433477 -0.23951,0.239518 -0.67556,0.281548 -0.80181,0.07728 -0.046,-0.07438 -0.32701,-0.135243 -0.62455,-0.135243 -0.58856,0 -0.60296,0.196128 -0.0305,0.41382 0.41929,0.15941 0.27972,0.427426 -0.1645,0.315931 -0.49228,-0.123555 -0.81165,0.03028 -0.5978,0.287964 0.0926,0.111682 0.23647,0.195036 0.31952,0.185241 0.42842,-0.05053 0.52506,0.0108 0.34975,0.222098 -0.0949,0.114321 -0.26971,0.193948 -0.38849,0.176947 -0.56652,-0.08109 -1.08015,0.387979 -0.68932,0.629523 0.234,0.144623 0.14717,0.33811 -0.15175,0.33811 -0.4745,0 0.012,0.579051 0.63294,0.753645 0.82631,0.232268 0.89167,0.503013 0.25888,1.072636 -0.47884,0.431066 -0.5115,0.49843 -0.30053,0.620193 0.47361,0.273343 0.29219,0.420736 -0.74384,0.604352 -0.59318,0.105131 -0.69987,-0.128705 -0.16906,-0.370558 0.22226,-0.101268 0.33811,-0.26392 0.33811,-0.474698 0,-0.176356 0.0913,-0.355677 0.20287,-0.398492 0.17614,-0.0676 0.30069,-0.454641 0.14631,-0.454641 -0.0311,0 -0.15985,-0.03963 -0.28611,-0.08808 -0.18604,-0.0714 -0.21202,-0.03296 -0.13719,0.202866 0.13328,0.419895 -0.2117,0.376244 -0.71074,-0.08994 -0.38868,-0.36308 -0.39567,-0.388417 -0.14953,-0.542123 0.46923,-0.293051 0.32233,-0.550663 -0.24153,-0.423494 -0.57112,0.128811 -0.71749,0.07599 -0.71749,-0.25891 0,-0.469575 -0.79403,-1.050194 -0.99392,-0.726779 -0.1572,0.254369 0.0772,0.811361 0.31514,0.749114 0.32285,-0.08442 0.457,0.15709 0.20394,0.367114 -0.46544,0.386282 -0.14788,1.080714 0.49422,1.080714 0.41203,0 0.94208,0.560905 0.62513,0.661536 -0.0942,0.02989 -0.21982,0.136712 -0.27931,0.23738 -0.0595,0.100667 -0.31154,0.183034 -0.56013,0.183034 -0.36669,0 -0.46764,0.06244 -0.53502,0.330921 -0.0457,0.182006 -0.26529,0.438567 -0.48803,0.570135 -0.22272,0.131568 -0.40494,0.353524 -0.40494,0.493234 0,0.265615 -1.35936,0.2212 -1.46187,-0.04777 -0.0229,-0.06032 -0.22971,-0.04418 -0.45939,0.03589 -0.31213,0.108814 -0.48518,0.103342 -0.68534,-0.02167 -0.21908,-0.136809 -0.30542,-0.129602 -0.47462,0.03961 -0.21572,0.215703 -0.10991,0.289451 1.03768,0.723121 0.51774,0.195654 2.15768,0.170702 2.6632,-0.04052 z m 0.8004,-1.541961 c -0.046,-0.07439 0.0265,-0.136296 0.16107,-0.137582 0.13457,-0.0012 0.38777,-0.15321 0.56267,-0.337612 0.29805,-0.314218 0.56106,-0.342794 0.56106,-0.06095 0,0.244956 -1.16445,0.730883 -1.2848,0.53615 z m 3.71921,-9.585754 c 0,-0.247841 0.40514,-0.43899 0.83644,-0.394636 0.44837,0.04611 0.44837,0.04611 -0.0754,0.279714 -0.58748,0.262065 -0.76114,0.288284 -0.76114,0.114922 z m -5.40976,9.45051 c 0.0846,-0.158174 0.28317,-0.270488 0.47811,-0.270488 0.3957,0 0.40713,-0.046 0.10043,-0.404186 -0.26964,-0.314907 -0.87889,-0.359112 -1.11009,-0.08055 -0.12693,0.152934 -0.10306,0.209231 0.11867,0.2796 0.29848,0.09474 0.36071,0.273046 0.14236,0.407992 -0.0744,0.04597 -0.13525,0.140854 -0.13525,0.210847 0,0.225859 0.25671,0.135242 0.40573,-0.143224 z m -4.45468,-0.901108 c 0.18616,-0.489653 -0.0253,-0.684781 -0.43279,-0.39936 -0.17159,0.120183 -0.45805,0.218517 -0.63656,0.218517 -0.44538,0 -0.1476,0.367274 0.36086,0.445062 0.1991,0.03046 0.40916,0.0645 0.4668,0.07565 0.0576,0.01116 0.16639,-0.141797 0.24169,-0.339869 z m 4.25975,-1.262795 c 0.19803,0 0.41182,-0.134115 0.55002,-0.345053 0.31653,-0.483081 0.0711,-0.695478 -0.38706,-0.335044 -0.19185,0.150901 -0.46962,0.274367 -0.6173,0.274367 -0.27025,0 -0.48718,0.306155 -0.32899,0.464337 0.0468,0.04678 0.16928,0.05272 0.27223,0.01322 0.10295,-0.03951 0.33295,-0.07183 0.5111,-0.07183 z m -1.69849,-0.113529 c 0,-0.198508 -0.62029,-0.410542 -0.82391,-0.281638 -0.10475,0.06629 -0.3918,0.121475 -0.63794,0.122614 -0.26349,0.0012 -0.41315,0.05769 -0.36394,0.137314 0.10079,0.162979 1.82579,0.18349 1.82579,0.0217 z m 0.54186,-0.698209 c 0.82878,0.01448 1.24068,-0.275399 0.91022,-0.640563 -0.12919,-0.142747 -0.23489,-0.330823 -0.23489,-0.417946 0,-0.08712 -0.12171,-0.158405 -0.27048,-0.158405 -0.28887,0 -0.37753,0.347506 -0.11134,0.436252 0.36921,0.123079 -0.0794,0.366946 -0.63088,0.342943 -0.44542,-0.01939 -0.62468,-0.09266 -0.71348,-0.291649 -0.11722,-0.262672 -0.12181,-0.26253 -0.39651,0.01218 -0.15286,0.152863 -0.36161,0.305933 -0.4639,0.340156 -0.3172,0.106138 0.58983,0.519444 0.96361,0.439085 0.18596,-0.03998 0.61238,-0.0679 0.94759,-0.06204 z m -5.14015,-0.39747 c 0,-0.218762 0.0608,-0.435363 0.13524,-0.481334 0.18558,-0.114682 0.1704,-0.654594 -0.0239,-0.848842 -0.12196,-0.121967 -0.10054,-0.223714 0.0914,-0.435975 0.1921,-0.212262 0.21344,-0.31401 0.0914,-0.435977 -0.41056,-0.410569 0.13469,-0.608863 0.65515,-0.238262 0.21117,0.150372 0.41814,0.218099 0.45992,0.150504 0.0418,-0.06759 -0.0757,-0.222247 -0.261,-0.343674 -0.22521,-0.147564 -0.33695,-0.345325 -0.33695,-0.596342 0,-0.206561 -0.0677,-0.443295 -0.15051,-0.526075 -0.0877,-0.08772 -0.10318,-0.22595 -0.0372,-0.331347 0.0623,-0.09947 0.0953,-0.290591 0.0732,-0.424735 -0.0341,-0.206836 -0.001,-0.219797 0.21379,-0.0853 0.43097,0.269145 1.38841,-0.301412 1.38841,-0.827378 0,-0.237219 -0.0847,-0.439726 -0.20287,-0.485073 -0.11158,-0.04281 -0.20286,-0.162626 -0.20286,-0.266245 0,-0.103619 -0.11818,-0.188395 -0.26251,-0.188395 -0.14438,0 -0.30012,-0.06086 -0.34608,-0.135244 -0.15415,-0.249394 -0.44322,-0.138514 -0.5289,0.202866 -0.0595,0.237025 -0.17708,0.33811 -0.39334,0.33811 -0.36964,0 -0.63307,0.235279 -0.63307,0.565436 0,0.207649 0.0839,0.229352 0.6086,0.157435 0.41307,-0.05661 0.60859,-0.03406 0.60859,0.0702 0,0.08449 -0.18448,0.153626 -0.40998,0.153626 -0.23074,0 -0.44242,0.08455 -0.4842,0.193414 -0.0408,0.106378 -0.24458,0.252809 -0.45282,0.325401 -0.35607,0.124125 -0.64472,0.927031 -0.45562,1.267259 0.13013,0.234068 0.45019,-0.09157 0.45019,-0.458022 0,-0.308266 0.0545,-0.390692 0.23512,-0.355898 0.36683,0.07065 0.3523,0.43959 -0.0355,0.900456 -0.36079,0.428766 -0.35089,0.697023 0.0257,0.697023 0.14894,0 0.17928,0.06831 0.10511,0.236676 -0.0574,0.130173 -0.11711,0.404042 -0.13281,0.608599 -0.0424,0.550019 -0.0454,0.554393 -0.26528,0.37192 -0.25857,-0.214601 -0.2809,0.316755 -0.0462,1.100071 0.18673,0.623192 0.51957,0.70334 0.51957,0.125105 z m 9.15967,-1.089933 c 0.18915,-0.148768 0.42696,-0.270487 0.52851,-0.270487 0.10151,0 0.18462,-0.06086 0.18462,-0.135244 0,-0.23327 -1.04313,-0.16096 -1.1351,0.07869 -0.22984,0.598983 -0.0756,0.718488 0.42197,0.327048 z m -4.7849,-0.247651 c 0.27046,-0.298854 0.16997,-0.428567 -0.332,-0.428567 -0.46168,0 -0.54359,-0.118857 -0.41451,-0.601468 0.0896,-0.335173 0.11974,-0.352056 0.28129,-0.157468 0.24797,0.298788 0.37491,0.274596 0.634,-0.120828 0.18805,-0.287008 0.19402,-0.372488 0.039,-0.559304 -0.10067,-0.121286 -0.19042,-0.288346 -0.19944,-0.371245 -0.0395,-0.362907 -0.23556,-0.76685 -0.35313,-0.727658 -0.14488,0.04829 -0.14735,0.102119 -0.0266,0.582991 0.0818,0.325868 -0.29174,0.978079 -0.46241,0.80741 -0.15371,-0.153709 -0.43027,0.263809 -0.43027,0.649565 0,0.788689 0.83503,1.400739 1.26414,0.926572 z m 4.55133,-0.901921 c 0.22682,-0.273294 0.67338,-0.256398 0.89369,0.03381 0.16953,0.223336 0.1799,0.222271 0.18395,-0.0189 0.002,-0.140567 0.10919,-0.332244 0.23731,-0.425948 0.36425,-0.266344 -0.008,-0.873778 -0.53524,-0.873778 -0.65241,0 -0.94525,0.230392 -0.84913,0.668049 0.0673,0.306584 0.0303,0.392574 -0.19419,0.451288 -0.15256,0.0399 -0.27736,0.139092 -0.27736,0.22044 0,0.215847 0.34534,0.180761 0.54097,-0.05496 z m -0.21054,-1.585397 c 0.2662,-0.380042 0.26934,-0.646126 0.007,-0.646126 -0.24367,0 -0.26161,-0.157634 -0.0428,-0.376428 0.23325,-0.233255 0.0449,-0.346612 -0.28369,-0.170747 -0.31355,0.1678 -0.37342,0.484809 -0.11303,0.598339 0.11603,0.05057 0.0736,0.144187 -0.13523,0.298253 -0.16737,0.123504 -0.30431,0.308416 -0.30431,0.410919 0,0.302139 0.6384,0.218468 0.87143,-0.114214 z m 2.28482,-0.123399 c 0.13808,0.114597 0.25251,0.07387 0.48353,-0.172039 0.39909,-0.424801 0.19658,-0.540181 -0.74224,-0.422884 -0.7594,0.09488 -0.90408,0.255843 -0.49732,0.553267 0.16579,0.121235 0.28683,0.130831 0.40573,0.03217 0.11782,-0.09781 0.22449,-0.09493 0.3503,0.0095 z m -4.17602,-0.513913 c 0.11387,-0.184142 -0.83381,-0.864498 -1.07512,-0.771899 -0.23481,0.09011 -0.27708,0.357353 -0.0565,0.357353 0.0812,0 0.30246,0.12172 0.49159,0.270488 0.38138,0.29999 0.52386,0.33206 0.64006,0.144058 z m 0.94367,-0.8902 c 0.10607,-0.565085 0.022,-0.741541 -0.35315,-0.741541 -0.26855,0 -0.27016,0.01205 -0.047,0.352568 0.16711,0.255063 0.19011,0.393451 0.0831,0.500402 -0.20303,0.203027 -0.18533,0.364225 0.0401,0.364225 0.10775,0 0.22585,-0.202793 0.27705,-0.475654 z m -0.93645,-0.338644 c 0.1087,-0.175973 -0.84416,-0.58116 -1.11885,-0.475747 -0.2594,0.09954 -0.1393,0.222626 0.41361,0.423922 0.57641,0.209841 0.60622,0.212032 0.70524,0.05182 z m 0.15023,-0.871101 c 0.0418,-0.108742 0.19196,-0.234565 0.33386,-0.279603 0.24634,-0.07818 0.36174,-0.59105 0.17502,-0.777769 -0.19831,-0.198309 -1.2603,0.506264 -1.17829,0.781735 0.13557,0.455421 0.53698,0.620707 0.66941,0.275637 z m -5.08809,-0.478503 c 0.45656,0 1.08446,-0.450491 1.00029,-0.717645 -0.0785,-0.248977 0.41911,-0.828969 0.94975,-1.107181 0.34889,-0.182907 0.42179,-0.454802 0.14991,-0.55913 -0.3094,-0.118737 -1.24017,0.32821 -1.93497,0.929152 -0.32193,0.278426 -0.70382,0.569652 -0.84864,0.647167 -0.14484,0.07751 -0.26335,0.208463 -0.26335,0.290999 0,0.191806 0.59366,0.753124 0.65367,0.618071 0.0248,-0.05579 0.15681,-0.101435 0.29334,-0.101435 z m 4.06843,-0.173355 c 0.29723,-0.228549 0.45872,-0.908595 0.21574,-0.908595 -0.10103,0 -0.25305,0.152149 -0.33778,0.338108 -0.13128,0.288084 -0.24455,0.338111 -0.76556,0.338111 -0.45338,0 -0.6115,0.05245 -0.6115,0.202866 0,0.254934 1.1758,0.27808 1.4991,0.02952 z m 17.23217,74.69009 c -0.29753,-0.0572 -0.9339,-0.18002 -1.41415,-0.27293 -0.54121,-0.10474 -1.07693,-0.3165 -1.4091,-0.55713 -0.29625,-0.21461 -0.6355,-0.35662 -0.75858,-0.31757 -0.29088,0.0923 -1.97822,-1.35994 -3.02103,-2.60016 -0.74162,-0.88201 -0.99232,-1.26056 -1.8154,-2.74129 -0.18608,-0.33472 -0.47601,-0.76074 -0.6443,-0.94671 -0.32828,-0.36273 -0.74261,-1.11344 -0.74261,-1.34553 0,-0.23054 -1.10095,-2.61708 -1.3631,-2.95481 -0.13262,-0.17086 -0.27958,-0.50558 -0.32656,-0.74384 -0.10391,-0.52711 -0.29237,-1.06623 -0.62719,-1.79452 -0.13904,-0.30243 -0.25279,-0.6792 -0.25279,-0.83729 0,-0.15808 -0.0541,-0.32088 -0.12026,-0.36176 -0.0661,-0.0409 -0.16192,-0.24226 -0.21286,-0.44752 -0.15514,-0.6253 -1.32055,-3.05636 -1.63767,-3.41619 -0.16387,-0.18595 -0.33712,-0.46807 -0.38498,-0.62692 -0.0479,-0.15885 -0.34377,-0.46245 -0.6576,-0.67467 -0.31383,-0.21223 -0.87489,-0.68814 -1.24681,-1.05759 -0.37193,-0.36944 -1.00118,-0.93823 -1.39836,-1.26396 -1.44986,-1.18909 -1.74213,-1.65789 -1.20508,-1.93292 0.16737,-0.0857 0.39939,-0.27513 0.51561,-0.42093 0.20597,-0.25836 0.22958,-0.25023 0.92914,0.32013 0.39481,0.32187 0.91426,0.68784 1.15433,0.81327 0.24007,0.12542 0.70175,0.47535 1.02591,0.77764 0.32419,0.30229 0.63563,0.54962 0.69213,0.54962 0.0565,0 0.31602,0.18729 0.57673,0.4162 0.26073,0.22891 0.54064,0.37502 0.62208,0.3247 0.52843,-0.32657 1.02566,0.061 1.19935,0.93466 0.14284,0.71872 0.23072,0.88855 0.53166,1.0275 0.36052,0.16646 0.36052,0.16646 0.0593,0.36912 -0.41605,0.27987 -0.18871,0.71464 0.37368,0.71464 0.46038,0 0.49228,0.0806 0.17189,0.43471 -0.21696,0.23973 -0.21308,0.25732 0.0731,0.33214 0.28507,0.0745 0.28932,0.0931 0.0751,0.32975 -0.25606,0.28296 -0.10691,0.58375 0.36358,0.73307 0.31064,0.0986 0.33304,0.31723 0.0535,0.52219 -0.17855,0.13091 -0.16122,0.21422 0.13525,0.65015 0.18702,0.27499 0.34003,0.69161 0.34003,0.92584 0,0.23421 0.0807,0.58738 0.17938,0.78482 0.0986,0.19743 0.28123,0.56171 0.40574,0.80949 0.12448,0.24776 0.22634,0.55763 0.22634,0.68856 0,0.27995 1.02556,2.39407 1.2195,2.51394 0.0731,0.0452 0.13294,0.20271 0.13294,0.35005 0,0.3669 0.50858,1.33513 0.74996,1.42775 0.10822,0.0415 0.19675,0.18297 0.19675,0.31433 0,0.3773 0.50227,1.41378 0.82459,1.70168 0.16138,0.14415 0.52666,0.57616 0.81173,0.96005 1.13807,1.5326 2.9742,3.00897 4.10996,3.30466 0.2984,0.0778 0.93555,0.29613 1.41588,0.48541 1.45557,0.5736 2.96929,0.19495 2.87223,-0.71848 -0.0228,-0.21366 -0.0616,-1.12524 -0.0862,-2.02575 -0.0496,-1.80971 -0.10318,-2.06969 -0.56788,-2.75573 -0.17545,-0.25901 -0.31925,-0.59374 -0.31951,-0.74384 0,-0.15009 -0.10967,-0.45548 -0.24319,-0.67864 -0.13347,-0.22314 -0.34619,-0.68147 -0.47272,-1.0185 -0.36027,-0.9597 -1.15975,-2.39464 -1.38158,-2.47977 -0.11063,-0.0425 -0.20116,-0.17281 -0.20116,-0.28969 0,-0.53386 -0.77537,-1.71646 -1.92723,-2.9394 -0.35332,-0.37513 -0.64489,-0.74945 -0.64795,-0.83179 -0.0154,-0.41475 -1.02259,-1.27209 -1.40794,-1.19842 -0.37215,0.0712 -0.38322,0.0581 -0.30027,-0.35678 0.0629,-0.31443 0.032,-0.45138 -0.11435,-0.50757 -0.11026,-0.0423 -0.2005,-0.15959 -0.2005,-0.26058 0,-0.10103 -0.12644,-0.25131 -0.28097,-0.33402 -0.15455,-0.0827 -0.24927,-0.23301 -0.2105,-0.33401 0.0423,-0.11038 -0.11843,-0.29507 -0.40298,-0.46298 -0.56635,-0.33415 -0.6473,-0.3448 -0.54236,-0.0714 0.0454,0.11842 -0.007,0.24116 -0.12077,0.28496 -0.11039,0.0423 -0.20059,0.16175 -0.20059,0.26537 0,0.10367 -0.12402,0.1884 -0.2756,0.1884 -0.2192,0 -0.26765,-0.0751 -0.23668,-0.36712 0.0287,-0.27067 -0.0287,-0.3809 -0.21841,-0.41962 -0.28482,-0.0581 -0.55413,0.29136 -0.55413,0.71912 0,0.21759 -0.0902,0.27048 -0.46107,0.27048 -0.46109,0 -0.46109,0 -0.47335,-0.85824 -0.0136,-0.94998 0.0738,-1.11242 0.3705,-0.68877 0.19202,0.27415 0.21282,0.27586 0.64362,0.053 0.41468,-0.21445 0.42833,-0.24254 0.19915,-0.41011 -0.14956,-0.1093 -0.21904,-0.28301 -0.17723,-0.44291 0.0731,-0.27942 -0.49753,-0.49869 -0.89793,-0.34504 -0.10486,0.0402 -0.22655,0.0151 -0.27042,-0.0559 -0.0778,-0.12593 -0.75438,0.0475 -1.13429,0.29078 -0.44384,0.2842 -1.38294,-0.17082 -1.38294,-0.67009 0,-0.40448 0.0426,-0.4019 0.47322,0.0287 0.23934,0.23933 0.42333,0.31895 0.58093,0.25136 0.12686,-0.0545 0.41325,-0.12402 0.6364,-0.15474 0.91384,-0.12573 0.94573,-0.14645 0.96992,-0.63027 0.0232,-0.46279 0.0209,-0.46462 -0.68885,-0.55328 -0.71202,-0.089 -0.71202,-0.089 -0.73571,-0.7581 -0.0209,-0.58883 0.01,-0.66915 0.24928,-0.66915 0.15013,0 0.27298,-0.0486 0.27298,-0.10822 0,-0.27254 -0.38262,-0.43278 -1.0334,-0.43278 -0.38985,0 -0.74114,-0.0523 -0.78066,-0.11626 -0.12511,-0.20245 0.24875,-0.82832 0.49543,-0.82941 0.55573,-0.002 0.17346,-0.25998 -0.51333,-0.34579 -0.69642,-0.087 -0.73506,-0.11027 -0.54098,-0.32468 0.41033,-0.45339 0.27437,-0.60306 -0.50132,-0.55188 -0.47622,0.0314 -0.59475,-0.26515 -0.32337,-0.80913 0.22844,-0.45792 0.17498,-0.74969 -0.20511,-1.11927 -0.13687,-0.13306 -0.24885,-0.35478 -0.24885,-0.49269 0,-0.13791 -0.0894,-0.28504 -0.19853,-0.32694 -0.23221,-0.0891 -0.4115,0.12385 -0.20941,0.24876 0.0756,0.0467 0.13746,0.19564 0.13746,0.33095 0,0.13531 0.13018,0.33245 0.28929,0.4381 0.28932,0.1921 0.28932,0.1921 -0.0738,0.58393 -0.2009,0.21678 -0.34687,0.51596 -0.32672,0.66967 0.0388,0.29592 -0.0514,0.37337 -0.32687,0.28079 -0.0937,-0.0316 -0.32263,-0.0755 -0.50858,-0.0978 -0.44236,-0.0529 -0.43601,-0.29954 0.01,-0.35134 0.25228,-0.0294 0.39087,-0.16135 0.50718,-0.48295 0.25183,-0.69644 0.19737,-0.86974 -0.3898,-1.24039 -0.62799,-0.39644 -0.63237,-0.60995 -0.0158,-0.76974 0.50082,-0.12976 0.53156,-0.24075 0.15987,-0.57712 -0.14877,-0.13464 -0.27049,-0.32856 -0.27049,-0.43094 0,-0.10235 -0.0845,-0.21855 -0.18769,-0.25817 -0.56323,-0.21613 -0.19488,-1.91431 0.37828,-1.74406 0.0811,0.0241 0.31378,0.0803 0.51698,0.12469 0.23481,0.0513 0.45089,0.24035 0.59289,0.51846 0.12289,0.24067 0.4435,0.68483 0.71249,0.98703 0.84928,0.95416 2.09675,2.61194 2.51772,3.34588 0.55244,0.96317 1.192,1.86494 1.5534,2.19032 0.16504,0.14859 0.394,0.4529 0.5088,0.67621 0.35562,0.69187 1.37506,1.9395 1.65818,2.02937 0.14812,0.047 0.26931,0.17052 0.26931,0.27446 0,0.10391 0.12173,0.25414 0.27049,0.33375 0.14877,0.0797 0.27049,0.20907 0.27049,0.28768 0,0.0786 0.12496,0.30467 0.27769,0.5024 0.55966,0.7245 0.94199,1.39562 0.86554,1.51933 -0.0431,0.0697 0.0177,0.16379 0.13529,0.2089 0.45138,0.17321 1.82737,1.64516 2.30884,2.46989 0.27719,0.47479 0.89886,1.29353 1.38146,1.81941 0.4826,0.52589 0.94385,1.11118 1.02499,1.30065 0.0811,0.18946 0.30785,0.58792 0.50376,0.88546 0.92903,1.41094 1.07755,1.67067 1.34046,2.34424 0.15486,0.39673 0.5499,1.27919 0.87786,1.96104 0.7163,1.48913 0.88468,2.0765 0.88566,3.08967 10e-4,0.73468 0.21199,1.19303 0.54988,1.19303 0.15059,0 0.15649,0.13251 0.11662,2.61211 -0.0133,0.82658 -0.0473,0.93637 -0.32988,1.06511 -0.17327,0.0789 -0.35026,0.28387 -0.3933,0.45537 -0.0696,0.27721 -2.73181,1.33812 -3.16243,1.26023 -0.0515,-0.01 -0.33703,-0.0637 -0.63456,-0.12093 z m -2.09627,-4.04509 c 0,-0.26819 0.81009,-0.58483 1.02977,-0.40251 0.10942,0.0908 0.15066,0.20894 0.0917,0.26258 -0.1887,0.17171 -1.12149,0.2881 -1.12149,0.13993 z m 0.18786,-1.22405 c -0.47878,-0.19346 -0.57271,-0.8142 -0.12322,-0.8142 0.10115,0 0.38664,0.10654 0.63444,0.23667 0.24775,0.13017 0.46713,0.24318 0.48749,0.25113 0.0204,0.008 -0.001,0.11446 -0.0483,0.23668 -0.0915,0.23859 -0.48912,0.27612 -0.95042,0.0897 z m -0.82101,-1.65948 c -0.20133,-0.31613 -0.41281,-0.84865 -0.46993,-1.18339 -0.0571,-0.33473 -0.14352,-0.80638 -0.19197,-1.04814 -0.0799,-0.39881 -0.058,-0.43954 0.23832,-0.43954 0.50605,0 0.67334,0.24589 0.42509,0.62476 -0.1971,0.30084 -0.1901,0.32474 0.13094,0.4468 0.18655,0.0709 0.37912,0.19357 0.42791,0.27254 0.0488,0.079 0.17575,0.14358 0.28209,0.14358 0.25347,0 0.74304,-0.42244 0.65488,-0.56509 -0.0378,-0.0612 0.0191,-0.11111 0.12639,-0.11111 0.50824,0 0.34497,0.75809 -0.17912,0.83164 -0.30658,0.0431 -0.33839,0.10799 -0.34112,0.69665 -0.005,1.05867 -0.53828,1.2188 -1.10348,0.33131 z m -2.3873,-0.59733 c -0.38078,-0.38078 0.0683,-0.82588 0.52869,-0.52415 0.34151,0.22376 0.32269,0.55792 -0.0239,0.42492 -0.10403,-0.04 -0.18919,-0.0137 -0.18919,0.0584 0,0.15034 -0.18246,0.17394 -0.31557,0.0408 z m 1.26227,-2.41185 c 0,-0.11159 -0.0839,-0.20286 -0.1863,-0.20286 -0.33289,0 -0.53136,-0.36083 -0.25668,-0.46666 0.36648,-0.1412 -0.0651,-0.33952 -0.54093,-0.24851 -0.34072,0.0651 -0.35366,0.0876 -0.14035,0.24359 0.31242,0.22845 0.023,0.60681 -0.46416,0.60681 -0.27898,0 -0.30983,-0.0341 -0.17644,-0.19479 0.0889,-0.10715 0.15023,-0.30493 0.13623,-0.43954 -0.08,-0.76991 -0.0182,-0.87008 0.47906,-0.77679 0.45807,0.0859 0.47335,0.0753 0.47335,-0.3294 0,-0.41783 0,-0.41812 -0.6086,-0.33478 -0.56548,0.0775 -0.60859,0.0619 -0.60859,-0.2205 0,-0.27295 0.0473,-0.29505 0.46417,-0.21684 0.36214,0.0679 0.4934,0.0348 0.59713,-0.15051 0.1925,-0.34399 -0.0565,-0.75461 -0.39279,-0.64787 -0.56166,0.17826 -1.92375,-0.88856 -1.57709,-1.23521 0.31103,-0.31104 0.78052,-0.16735 1.0031,0.30699 0.21585,0.46001 0.30644,0.525 0.78478,0.5629 0.68743,0.0545 0.89963,0.24822 0.55249,0.50448 -0.24717,0.18244 -0.24017,0.19881 0.15638,0.36555 0.40543,0.17047 0.41086,0.18473 0.23191,0.61032 -0.16867,0.40115 -0.16115,0.44759 0.0947,0.58451 0.21448,0.11483 0.26047,0.23599 0.2015,0.5309 -0.0532,0.26596 0.007,0.48793 0.19723,0.73006 0.15053,0.19136 0.23571,0.40936 0.1893,0.48447 -0.13137,0.21253 -0.60941,0.16051 -0.60941,-0.0663 z m 0.27049,-2.05181 c 0,-0.0499 0.10198,-0.20352 0.22672,-0.34131 0.16467,-0.18196 0.18607,-0.29117 0.0782,-0.39905 -0.18694,-0.18693 -0.0679,-0.5213 0.1855,-0.5213 0.13324,0 0.1667,0.0966 0.11074,0.31978 -0.0552,0.22006 -0.0139,0.34525 0.13267,0.40149 0.2752,0.10559 0.2746,0.44332 -0.001,0.54907 -0.2861,0.10979 -0.73283,0.10451 -0.73283,-0.008 z m -0.8759,-3.39984 c -0.27648,-0.27648 0.29925,-0.70194 0.94989,-0.70194 0.39076,0 0.42331,0.14881 0.095,0.43473 -0.24801,0.21605 -0.92342,0.38875 -1.04496,0.26721 z m -1.15276,-0.52047 c -0.56793,-0.18941 -0.57621,-0.22899 -0.0677,-0.3233 0.32041,-0.0594 0.60931,-0.0448 0.70854,0.0361 0.33961,0.27642 -0.0925,0.4701 -0.64092,0.28721 z m -2.49456,-0.71042 c -0.066,-0.10679 -0.0354,-0.22946 0.0767,-0.30793 0.14415,-0.10091 0.14807,-0.14597 0.0174,-0.19902 -0.29905,-0.12134 -0.21566,-1.128 0.0935,-1.128 0.14438,0 0.30012,0.0608 0.3461,0.13525 0.046,0.0744 0.19663,0.13523 0.33482,0.13523 0.13818,0 0.27682,0.0761 0.30812,0.16906 0.0684,0.20316 -0.57715,1.04813 -0.80073,1.04814 -0.0867,0 -0.18214,0.0731 -0.21192,0.1624 -0.0403,0.12098 -0.0821,0.1171 -0.16384,-0.0151 z m -1.96502,-3.59182 c -0.13258,-0.15974 -0.1123,-0.26551 0.10331,-0.5396 0.20271,-0.25772 0.29981,-0.29999 0.39783,-0.17324 0.28225,0.365 0.29641,0.63716 0.0402,0.77423 -0.32985,0.17653 -0.34538,0.17477 -0.54136,-0.0613 z m -4.37338,-3.68956 c -0.0445,-0.2249 0,-0.44802 0.11386,-0.5644 0.25729,-0.26402 0.56458,0.45551 0.32028,0.74991 -0.23164,0.27911 -0.35241,0.22751 -0.4342,-0.18551 z m 1.47371,-0.77904 c -0.17294,-0.26394 -0.18942,-0.40118 -0.074,-0.61676 0.15429,-0.28831 0.62966,-0.30187 0.56968,-0.0162 -0.0186,0.0885 -0.0491,0.2371 -0.0677,0.33007 -0.0225,0.11279 0.11255,0.15764 0.40573,0.13474 0.48846,-0.0382 0.5806,0.1522 0.17796,0.36768 -0.42858,0.22937 -0.77552,0.16097 -1.01168,-0.19949 z m -4.52745,-2.34467 c -0.32029,-0.44978 -0.37876,-0.85958 -0.10787,-0.75561 0.18782,0.0721 0.5693,0.97998 0.45838,1.09092 -0.0359,0.0359 -0.19366,-0.11494 -0.35054,-0.33531 z m -20.51263,-0.88523 c -0.0857,-0.34118 0.18624,-0.99798 0.53177,-1.28475 0.11171,-0.0927 0.33325,-0.57514 0.49234,-1.0721 0.15908,-0.49697 0.376,-1.03836 0.48206,-1.20311 0.10607,-0.16475 0.19281,-0.38666 0.19281,-0.49315 0,-0.28771 0.91119,-1.03824 1.14949,-0.9468 0.25328,0.0972 0.25441,0.44298 0.002,0.77563 -0.11314,0.14938 -0.16141,0.40555 -0.1177,0.62418 0.0581,0.29004 -0.0172,0.46424 -0.34481,0.79947 -0.23046,0.23574 -0.419,0.50571 -0.419,0.59993 0,0.0942 -0.24344,0.54595 -0.54098,1.00385 -0.29754,0.45791 -0.54097,0.89168 -0.54097,0.96394 0,0.50318 -0.76903,0.705 -0.88752,0.23291 z m 14.91267,-1.73893 c -0.28066,-0.20888 -0.17381,-1.18339 0.12977,-1.18339 0.26509,0 0.37853,0.37051 0.18488,0.60384 -0.0888,0.10703 -0.12199,0.31929 -0.0737,0.47164 0.10235,0.32237 0.0678,0.3378 -0.24101,0.10798 z m 1.75708,-1.01605 c -0.31258,-0.0702 -0.24432,-0.2696 0.1801,-0.52623 0.25763,-0.15577 0.42006,-0.16963 0.70647,-0.0604 0.4974,0.18992 0.51549,0.6198 0.0209,0.49565 -0.19308,-0.0485 -0.4213,-0.0355 -0.50718,0.0288 -0.0859,0.0643 -0.26599,0.0923 -0.40028,0.0622 z m -9.90227,-7.20517 c -0.0652,-0.10559 0.74497,-0.53588 1.00886,-0.53588 0.20033,0 0.82007,0.4073 0.82007,0.53896 0,0.13221 -1.74714,0.12927 -1.82893,-0.002 z m 2.1953,0.0559 c -0.18934,-0.18933 -0.0899,-0.32127 0.24223,-0.32127 0.2104,0 0.33812,-0.0767 0.33812,-0.20288 0,-0.11159 0.0913,-0.20286 0.20286,-0.20286 0.26315,0 0.26228,0.21876 -0.001,0.31988 -0.11231,0.0431 -0.18834,0.15465 -0.16906,0.24794 0.0383,0.18517 -0.45802,0.31407 -0.61291,0.15919 z m 18.06061,-10.82181 c -0.093,-0.0391 -0.16906,-0.14707 -0.16906,-0.24001 0,-0.19158 1.46061,-0.50268 1.56525,-0.33338 0.15322,0.24791 -1.02205,0.73058 -1.39619,0.57339 z m -0.98051,-1.52728 c 0,-0.20974 0.28328,-0.32068 0.43399,-0.16997 0.17906,0.17907 0.51271,0.0544 0.51271,-0.1915 0,-0.25593 0.39454,-0.23972 0.4943,0.0203 0.044,0.11479 0.0442,0.24465 0,0.28858 -0.13911,0.13906 -1.44128,0.18657 -1.44128,0.0526 z M 140.97053,75.521303 c -0.11159,-0.04076 -0.32541,-0.185191 -0.47519,-0.320939 -0.14979,-0.135752 -0.5078,-0.345203 -0.79561,-0.465452 -0.28778,-0.120247 -0.83567,-0.514099 -1.2175,-0.875224 -0.38183,-0.361125 -1.01383,-0.817107 -1.40443,-1.013291 -0.77119,-0.387346 -1.14511,-0.830173 -1.14511,-1.356128 0,-0.77625 0.79868,-0.991538 1.49737,-0.403623 0.2213,0.186212 0.65653,0.452356 0.96715,0.591428 0.57838,0.258943 2.30283,1.605082 2.30283,1.797621 0,0.05885 0.23671,0.227771 0.52604,0.375372 0.69457,0.354334 1.07803,1.630542 0.48995,1.630542 -0.10031,0 -0.26345,0.0256 -0.36251,0.05691 -0.0991,0.0313 -0.27142,0.02355 -0.38299,-0.01721 z m 28.96923,-6.017471 c -0.36952,-0.369518 -0.20526,-0.782731 0.86638,-2.179523 1.335,-1.740025 3.12478,-3.47367 3.58617,-3.47367 0.31151,0 0.3971,-0.05516 0.36724,-0.236677 -0.0625,-0.380312 0.14404,-0.618818 0.37209,-0.429549 0.42984,0.356727 -0.18318,1.947332 -1.08874,2.825049 -0.26325,0.255129 -0.47861,0.518239 -0.47861,0.584689 0,0.13874 -1.51184,2.121155 -2.05206,2.690778 -0.39271,0.414096 -1.25696,0.534407 -1.57247,0.218903 z m -15.51243,-2.728697 c -0.23859,-0.174469 -0.43232,-0.884217 -0.55828,-2.045412 -0.0403,-0.371919 -0.15556,-0.859712 -0.25599,-1.083981 -0.41343,-0.923105 -0.4772,-1.213975 -0.39145,-1.785785 0.0635,-0.423127 0.18571,-0.657636 0.42439,-0.814021 0.53373,-0.349716 0.74275,-0.09762 1.00655,1.213894 0.12799,0.636293 0.32744,1.383677 0.44326,1.660855 0.58726,1.405521 0.11399,3.426579 -0.66848,2.85445 z"
       style="fill:#000000;fill-opacity:1;stroke-width:0.13524385" /></g></svg>