<?xml version="1.0" encoding="UTF-8" standalone="no"?>
<!-- Created with Inkscape (http://www.inkscape.org/) -->

<svg
   xmlns:osb="http://www.openswatchbook.org/uri/2009/osb"
   xmlns:dc="http://purl.org/dc/elements/1.1/"
   xmlns:cc="http://creativecommons.org/ns#"
   xmlns:rdf="http://www.w3.org/1999/02/22-rdf-syntax-ns#"
   xmlns:svg="http://www.w3.org/2000/svg"
   xmlns="http://www.w3.org/2000/svg"
   xmlns:xlink="http://www.w3.org/1999/xlink"
   xmlns:sodipodi="http://sodipodi.sourceforge.net/DTD/sodipodi-0.dtd"
   xmlns:inkscape="http://www.inkscape.org/namespaces/inkscape"
   version="1.1"
   id="svg834"
   xml:space="preserve"
   width="2.72in"
   height="3.7in"
   viewBox="0 0 261.12 355.20001"
   sodipodi:docname="explanation.svg"
   inkscape:export-filename="/home/ma/Documents/studium/master/patternCards/continuity/turnBased.png"
   inkscape:export-xdpi="300"
   inkscape:export-ydpi="300"
   inkscape:version="0.91 r"
   enable-background="new"><metadata
     id="metadata840"><rdf:RDF><cc:Work
         rdf:about=""><dc:format>image/svg+xml</dc:format><dc:type
           rdf:resource="http://purl.org/dc/dcmitype/StillImage" /><dc:title /></cc:Work></rdf:RDF></metadata><defs
     id="defs838"><linearGradient
       id="linearGradient39672"
       inkscape:collect="always"><stop
         id="stop39676"
         offset="0"
         style="stop-color:#124971;stop-opacity:1" /><stop
         style="stop-color:#3a7a00;stop-opacity:1"
         offset="0.142"
         id="stop39695" /><stop
         id="stop39697"
         offset="0.28"
         style="stop-color:#dac927;stop-opacity:1" /><stop
         style="stop-color:#4b2751;stop-opacity:1"
         offset="0.43000001"
         id="stop39699" /><stop
         id="stop39701"
         offset="0.625"
         style="stop-color:#d14773;stop-opacity:1" /><stop
         style="stop-color:#502c19;stop-opacity:1"
         offset="0.75"
         id="stop39703" /><stop
         id="stop39705"
         offset="0.86000001"
         style="stop-color:#e66800;stop-opacity:1" /><stop
         id="stop39678"
         offset="1"
         style="stop-color:#960004;stop-opacity:1" /></linearGradient><linearGradient
       id="linearGradient4584"
       osb:paint="solid"><stop
         style="stop-color:#0d676f;stop-opacity:1;"
         offset="0"
         id="stop4582" /></linearGradient><linearGradient
       id="linearGradient4576"
       osb:paint="solid"><stop
         style="stop-color:#595959;stop-opacity:1;"
         offset="0"
         id="stop4574" /></linearGradient><linearGradient
       id="linearGradient4570"
       osb:paint="solid"><stop
         style="stop-color:#000000;stop-opacity:1;"
         offset="0"
         id="stop4568" /></linearGradient><clipPath
       clipPathUnits="userSpaceOnUse"
       id="clipPath850"><path
         d="m 82.398,25.067 h 31.045 v 18.51 H 82.398 Z"
         id="path848"
         inkscape:connector-curvature="0" /></clipPath><clipPath
       clipPathUnits="userSpaceOnUse"
       id="clipPath866"><path
         d="M 0,266.4 H 195.84 V 0 H 0 Z"
         id="path864"
         inkscape:connector-curvature="0" /></clipPath><linearGradient
       inkscape:collect="always"
       xlink:href="#linearGradient4570"
       id="linearGradient4578"
       x1="24.824408"
       y1="-79.199997"
       x2="171.01559"
       y2="-79.199997"
       gradientUnits="userSpaceOnUse"
       gradientTransform="translate(-4.8239983,2.160012)" /><linearGradient
       inkscape:collect="always"
       xlink:href="#linearGradient4570"
       id="linearGradient4588"
       gradientUnits="userSpaceOnUse"
       x1="24.824408"
       y1="-181.79997"
       x2="171.01559"
       y2="-181.79997"
       gradientTransform="translate(-4.8239983,-3.4560057)" /><linearGradient
       inkscape:collect="always"
       xlink:href="#linearGradient39672"
       id="linearGradient4214"
       x1="22.343742"
       y1="22.137514"
       x2="238.78125"
       y2="333.05939"
       gradientUnits="userSpaceOnUse" /></defs><sodipodi:namedview
     pagecolor="#ffffff"
     bordercolor="#666666"
     borderopacity="1"
     objecttolerance="10"
     gridtolerance="10"
     guidetolerance="10"
     inkscape:pageopacity="0"
     inkscape:pageshadow="2"
     inkscape:window-width="1141"
     inkscape:window-height="901"
     id="namedview836"
     showgrid="false"
     inkscape:zoom="1.4142136"
     inkscape:cx="8.2615209"
     inkscape:cy="175.56887"
     inkscape:window-x="673"
     inkscape:window-y="113"
     inkscape:window-maximized="0"
     inkscape:current-layer="layer3"
     inkscape:document-units="in"
     units="in"
     scale-x="96"
     showguides="true"
     inkscape:guide-bbox="true"
     inkscape:snap-text-baseline="true"><sodipodi:guide
       position="230.32813,22.140625"
       orientation="0,1"
       id="guide829"
       inkscape:locked="false"
       inkscape:label=""
       inkscape:color="rgb(0,0,255)" /><sodipodi:guide
       position="22.34375,333.3125"
       orientation="1,0"
       id="guide831"
       inkscape:locked="false"
       inkscape:label=""
       inkscape:color="rgb(0,0,255)" /><sodipodi:guide
       position="238.78125,334.54688"
       orientation="1,0"
       id="guide833"
       inkscape:locked="false"
       inkscape:label=""
       inkscape:color="rgb(0,0,255)" /><sodipodi:guide
       position="22.144531,333.0625"
       orientation="0,1"
       id="guide4524"
       inkscape:locked="false"
       inkscape:label=""
       inkscape:color="rgb(0,0,255)" /><sodipodi:guide
       position="26.505456,311.7899"
       orientation="0,1"
       id="guide4556"
       inkscape:locked="false"
       inkscape:label=""
       inkscape:color="rgb(0,0,255)" /><sodipodi:guide
       position="33.6,302.208"
       orientation="0,1"
       id="guide4558"
       inkscape:locked="false"
       inkscape:label=""
       inkscape:color="rgb(0,0,255)" /><sodipodi:guide
       position="249.375,184.3125"
       orientation="0,1"
       id="guide4560"
       inkscape:locked="false"
       inkscape:label=""
       inkscape:color="rgb(0,0,255)" /><sodipodi:guide
       position="33.6,174.72"
       orientation="0,1"
       id="guide4562"
       inkscape:locked="false"
       inkscape:label=""
       inkscape:color="rgb(0,0,255)" /><sodipodi:guide
       position="27.168,308.82888"
       orientation="1,0"
       id="guide4636"
       inkscape:locked="false"
       inkscape:label=""
       inkscape:color="rgb(0,0,255)" /><sodipodi:guide
       position="37.653437,328.224"
       orientation="0,1"
       id="guide4638"
       inkscape:locked="false"
       inkscape:label=""
       inkscape:color="rgb(0,0,255)" /><sodipodi:guide
       position="234.24,286.37824"
       orientation="1,0"
       id="guide4640"
       inkscape:locked="false"
       inkscape:label=""
       inkscape:color="rgb(0,0,255)" /></sodipodi:namedview><g
     inkscape:groupmode="layer"
     id="layer3"
     inkscape:label="cut"
     style="display:inline"><path
       d="m 249.61466,332.56067 c 0,6.236 -5.10267,11.33867 -11.33867,11.33867 l -215.433317,0 c -6.236,0 -11.337333,-5.10267 -11.337333,-11.33867 l 0,-309.921334 c 0,-6.237333 5.101333,-11.338666 11.337333,-11.338666 l 215.433317,0 c 6.236,0 11.33867,5.101333 11.33867,11.338666 z"
       style="fill:url(#linearGradient4214);fill-opacity:1;stroke:#231f20;stroke-width:1;stroke-linecap:butt;stroke-linejoin:miter;stroke-miterlimit:4;stroke-dasharray:none;stroke-opacity:1"
       id="path6570"
       inkscape:connector-curvature="0" /></g><g
     id="g842"
     inkscape:groupmode="layer"
     inkscape:label="background"
     transform="matrix(1.3333333,0,0,-1.3333333,0,355.19999)"
     style="display:inline"><rect
       style="opacity:1;fill:#ffffff;fill-opacity:1;stroke:url(#linearGradient4578);stroke-width:0.75118113;stroke-miterlimit:4;stroke-dasharray:none;stroke-opacity:0.94117647"
       id="rect4566"
       width="155.304"
       height="114.43452"
       x="20.376001"
       y="-131.03998"
       transform="scale(1,-1)"
       ry="4.125" /><rect
       style="opacity:1;fill:#ffffff;fill-opacity:1;stroke:url(#linearGradient4588);stroke-width:0.75118107;stroke-miterlimit:4;stroke-dasharray:none;stroke-opacity:0.94117647"
       id="rect4580"
       width="155.304"
       height="88.415642"
       x="20.376001"
       y="-226.65599"
       transform="scale(1,-1)"
       ry="3.75" /></g><g
     inkscape:groupmode="layer"
     id="layer2"
     inkscape:label="secureLine"
     style="display:none"
     sodipodi:insensitive="true"><g
       id="g2736"
       transform="matrix(1.3333333,0,0,-1.3333333,238.276,321.99612)"><path
         d="m 0,0 c 0,-4.357 -3.463,-7.924 -7.694,-7.924 h -146.187 c -4.231,0 -7.694,3.567 -7.694,7.924 v 216.593 c 0,4.359 3.463,7.925 7.694,7.925 H -7.694 c 4.231,0 7.694,-3.566 7.694,-7.925 z"
         style="fill:none;stroke:#ed1c24;stroke-width:0.75;stroke-linecap:butt;stroke-linejoin:miter;stroke-miterlimit:4;stroke-dasharray:3;stroke-dashoffset:0;stroke-opacity:1"
         id="path2738"
         inkscape:connector-curvature="0" /></g></g><g
     inkscape:groupmode="layer"
     id="layer1"
     inkscape:label="content"
     sodipodi:insensitive="true"><text
       xml:space="preserve"
       style="font-style:normal;font-weight:normal;font-size:40px;line-height:125%;font-family:sans-serif;letter-spacing:0px;word-spacing:0px;fill:#000000;fill-opacity:1;stroke:none;stroke-width:1px;stroke-linecap:butt;stroke-linejoin:miter;stroke-opacity:1"
       x="26.848118"
       y="43.256229"
       id="text832"
       sodipodi:linespacing="125%"><tspan
         sodipodi:role="line"
         id="tspan830"
         x="26.848118"
         y="43.256229"
         style="font-style:normal;font-variant:normal;font-weight:normal;font-stretch:normal;font-size:21.33333397px;line-height:125%;font-family:Dosis;-inkscape-font-specification:Dosis;stroke-width:1px">Explanation</tspan></text>
<text
       xml:space="preserve"
       style="font-style:normal;font-variant:normal;font-weight:normal;font-stretch:normal;font-size:13.33333302px;line-height:10.67000008px;font-family:Dosis;-inkscape-font-specification:Dosis;letter-spacing:0px;word-spacing:0px;fill:#000000;fill-opacity:1;stroke:none;stroke-width:1px;stroke-linecap:butt;stroke-linejoin:miter;stroke-opacity:1"
       x="31.167999"
       y="194.9751"
       id="text38867"><tspan
         sodipodi:role="line"
         x="31.167999"
         y="194.9751"
         id="tspan38967" /></text>
<text
       xml:space="preserve"
       style="font-style:normal;font-variant:normal;font-weight:normal;font-stretch:normal;font-size:13.33333302px;line-height:14.22666645px;font-family:Dosis;-inkscape-font-specification:Dosis;letter-spacing:0px;word-spacing:0px;fill:#000000;fill-opacity:1;stroke:none;stroke-width:1px;stroke-linecap:butt;stroke-linejoin:miter;stroke-opacity:1"
       x="31.65325"
       y="195.29601"
       id="text56626"><tspan
         sodipodi:role="line"
         x="31.65325"
         y="195.29601"
         id="tspan56574"><tspan
           x="31.65325"
           y="195.29601"
           style="font-style:normal;font-variant:normal;font-weight:normal;font-stretch:normal;font-size:13.33333302px;line-height:14.22666645px;font-family:Dosis;-inkscape-font-specification:Dosis"
           id="tspan56570">Short pattern description.</tspan><tspan
           dx="0"
           x="160.24699"
           y="195.29601"
           style="font-style:normal;font-variant:normal;font-weight:normal;font-stretch:normal;font-size:13.33333302px;line-height:14.22666645px;font-family:Dosis;-inkscape-font-specification:Dosis"
           id="tspan56572" /></tspan><tspan
         sodipodi:role="line"
         x="31.65325"
         y="209.52267"
         id="tspan56580"><tspan
           x="31.65325"
           y="209.52267"
           style="font-style:normal;font-variant:normal;font-weight:normal;font-stretch:normal;font-size:13.33333302px;line-height:14.22666645px;font-family:Dosis;-inkscape-font-specification:Dosis"
           id="tspan56576">Variants, specialities.</tspan><tspan
           dx="0"
           x="134.33554"
           y="209.52267"
           style="font-style:normal;font-variant:normal;font-weight:normal;font-stretch:normal;font-size:13.33333302px;line-height:14.22666645px;font-family:Dosis;-inkscape-font-specification:Dosis"
           id="tspan56578" /></tspan><tspan
         sodipodi:role="line"
         x="31.65325"
         y="223.74934"
         id="tspan56584"><tspan
           x="31.65325"
           y="223.74934"
           style="font-style:normal;font-variant:normal;font-weight:normal;font-stretch:normal;font-size:13.33333302px;line-height:14.22666645px;font-family:Dosis;-inkscape-font-specification:Dosis"
           id="tspan56582" /></tspan><tspan
         sodipodi:role="line"
         x="31.65325"
         y="237.97601"
         id="tspan56590"><tspan
           x="31.65325"
           y="237.97601"
           style="font-style:normal;font-variant:normal;font-weight:normal;font-stretch:normal;font-size:13.33333302px;line-height:14.22666645px;font-family:Dosis;-inkscape-font-specification:Dosis"
           id="tspan56586">* constraints</tspan><tspan
           dx="0"
           x="95.898041"
           y="237.97601"
           style="font-style:normal;font-variant:normal;font-weight:normal;font-stretch:normal;font-size:13.33333302px;line-height:14.22666645px;font-family:Dosis;-inkscape-font-specification:Dosis"
           id="tspan56588" /></tspan><tspan
         sodipodi:role="line"
         x="31.65325"
         y="252.20268"
         id="tspan56596"><tspan
           x="31.65325"
           y="252.20268"
           style="font-style:normal;font-variant:normal;font-weight:normal;font-stretch:normal;font-size:13.33333302px;line-height:14.22666645px;font-family:Dosis;-inkscape-font-specification:Dosis"
           id="tspan56592">* and enablers</tspan><tspan
           dx="0"
           x="105.01263"
           y="252.20268"
           style="font-style:normal;font-variant:normal;font-weight:normal;font-stretch:normal;font-size:13.33333302px;line-height:14.22666645px;font-family:Dosis;-inkscape-font-specification:Dosis"
           id="tspan56594" /></tspan><tspan
         sodipodi:role="line"
         x="31.65325"
         y="266.42935"
         id="tspan56600"><tspan
           x="31.65325"
           y="266.42935"
           style="font-style:normal;font-variant:normal;font-weight:normal;font-stretch:normal;font-size:13.33333302px;line-height:14.22666645px;font-family:Dosis;-inkscape-font-specification:Dosis"
           id="tspan56598" /></tspan><tspan
         sodipodi:role="line"
         x="31.65325"
         y="280.65601"
         id="tspan56604"><tspan
           x="31.65325"
           y="280.65601"
           style="font-style:normal;font-variant:normal;font-weight:normal;font-stretch:normal;font-size:13.33333302px;line-height:14.22666645px;font-family:Dosis;-inkscape-font-specification:Dosis"
           id="tspan56602">Relations: conflicts, instantiates, </tspan></tspan><tspan
         sodipodi:role="line"
         x="31.65325"
         y="294.88266"
         id="tspan56610"><tspan
           x="31.65325"
           y="294.88266"
           style="font-style:normal;font-variant:normal;font-weight:normal;font-stretch:normal;font-size:13.33333302px;line-height:14.22666645px;font-family:Dosis;-inkscape-font-specification:Dosis"
           id="tspan56606">modulates</tspan><tspan
           dx="0"
           x="85.038666"
           y="294.88266"
           style="font-style:normal;font-variant:normal;font-weight:normal;font-stretch:normal;font-size:13.33333302px;line-height:14.22666645px;font-family:Dosis;-inkscape-font-specification:Dosis"
           id="tspan56608" /></tspan><tspan
         sodipodi:role="line"
         x="31.65325"
         y="309.10931"
         id="tspan56614"><tspan
           x="31.65325"
           y="309.10931"
           style="font-style:normal;font-variant:normal;font-weight:normal;font-stretch:normal;font-size:13.33333302px;line-height:14.22666645px;font-family:Dosis;-inkscape-font-specification:Dosis"
           id="tspan56612" /></tspan><tspan
         sodipodi:role="line"
         x="31.65325"
         y="323.33597"
         id="tspan56620"><tspan
           x="31.65325"
           y="323.33597"
           style="font-style:normal;font-variant:normal;font-weight:normal;font-stretch:normal;font-size:13.33333302px;line-height:14.22666645px;font-family:Dosis;-inkscape-font-specification:Dosis"
           id="tspan56616">Examples: list of games</tspan><tspan
           dx="0"
           x="149.46574"
           y="323.33597"
           style="font-style:normal;font-variant:normal;font-weight:normal;font-stretch:normal;font-size:13.33333302px;line-height:14.22666645px;font-family:Dosis;-inkscape-font-specification:Dosis"
           id="tspan56618" /></tspan><tspan
         sodipodi:role="line"
         x="31.65325"
         y="323.33597"
         id="tspan56624"><tspan
           x="31.65325"
           y="337.56262"
           style="font-style:normal;font-variant:normal;font-weight:normal;font-stretch:normal;font-size:13.33333302px;line-height:14.22666645px;font-family:Dosis;-inkscape-font-specification:Dosis"
           id="tspan56622" /></tspan></text>
</g></svg>