<?xml version="1.0" encoding="UTF-8" standalone="no"?>
<!-- Created with Inkscape (http://www.inkscape.org/) -->

<svg
   xmlns:osb="http://www.openswatchbook.org/uri/2009/osb"
   xmlns:dc="http://purl.org/dc/elements/1.1/"
   xmlns:cc="http://creativecommons.org/ns#"
   xmlns:rdf="http://www.w3.org/1999/02/22-rdf-syntax-ns#"
   xmlns:svg="http://www.w3.org/2000/svg"
   xmlns="http://www.w3.org/2000/svg"
   xmlns:xlink="http://www.w3.org/1999/xlink"
   xmlns:sodipodi="http://sodipodi.sourceforge.net/DTD/sodipodi-0.dtd"
   xmlns:inkscape="http://www.inkscape.org/namespaces/inkscape"
   version="1.1"
   id="svg834"
   xml:space="preserve"
   width="2.72in"
   height="3.7in"
   viewBox="0 0 261.12 355.20001"
   sodipodi:docname="jumpIn.svg"
   inkscape:export-filename="/home/ma/Documents/studium/master/patternCards/continuity/turnBased.png"
   inkscape:export-xdpi="300"
   inkscape:export-ydpi="300"
   inkscape:version="0.91 r"
   enable-background="new"><metadata
     id="metadata840"><rdf:RDF><cc:Work
         rdf:about=""><dc:format>image/svg+xml</dc:format><dc:type
           rdf:resource="http://purl.org/dc/dcmitype/StillImage" /><dc:title /></cc:Work></rdf:RDF></metadata><defs
     id="defs838"><linearGradient
       id="linearGradient4584"
       osb:paint="solid"><stop
         style="stop-color:#0d676f;stop-opacity:1;"
         offset="0"
         id="stop4582" /></linearGradient><linearGradient
       id="linearGradient4576"
       osb:paint="solid"><stop
         style="stop-color:#595959;stop-opacity:1;"
         offset="0"
         id="stop4574" /></linearGradient><linearGradient
       id="linearGradient4570"
       osb:paint="solid"><stop
         style="stop-color:#000000;stop-opacity:1;"
         offset="0"
         id="stop4568" /></linearGradient><clipPath
       clipPathUnits="userSpaceOnUse"
       id="clipPath850"><path
         d="m 82.398,25.067 h 31.045 v 18.51 H 82.398 Z"
         id="path848"
         inkscape:connector-curvature="0" /></clipPath><clipPath
       clipPathUnits="userSpaceOnUse"
       id="clipPath866"><path
         d="M 0,266.4 H 195.84 V 0 H 0 Z"
         id="path864"
         inkscape:connector-curvature="0" /></clipPath><linearGradient
       inkscape:collect="always"
       xlink:href="#linearGradient4570"
       id="linearGradient4578"
       x1="24.824408"
       y1="-79.199997"
       x2="171.01559"
       y2="-79.199997"
       gradientUnits="userSpaceOnUse"
       gradientTransform="translate(-4.8239983,2.160012)" /><linearGradient
       inkscape:collect="always"
       xlink:href="#linearGradient4570"
       id="linearGradient4588"
       gradientUnits="userSpaceOnUse"
       x1="24.824408"
       y1="-181.79997"
       x2="171.01559"
       y2="-181.79997"
       gradientTransform="translate(-4.8239983,-3.4560057)" /></defs><sodipodi:namedview
     pagecolor="#ffffff"
     bordercolor="#666666"
     borderopacity="1"
     objecttolerance="10"
     gridtolerance="10"
     guidetolerance="10"
     inkscape:pageopacity="0"
     inkscape:pageshadow="2"
     inkscape:window-width="1081"
     inkscape:window-height="621"
     id="namedview836"
     showgrid="false"
     inkscape:zoom="1"
     inkscape:cx="123.13651"
     inkscape:cy="162.02533"
     inkscape:window-x="821"
     inkscape:window-y="463"
     inkscape:window-maximized="0"
     inkscape:current-layer="layer1"
     inkscape:document-units="in"
     units="in"
     scale-x="96"
     showguides="true"
     inkscape:guide-bbox="true"
     inkscape:snap-text-baseline="true"><sodipodi:guide
       position="230.32813,22.140625"
       orientation="0,1"
       id="guide829"
       inkscape:locked="false"
       inkscape:label=""
       inkscape:color="rgb(0,0,255)" /><sodipodi:guide
       position="22.34375,333.3125"
       orientation="1,0"
       id="guide831"
       inkscape:locked="false"
       inkscape:label=""
       inkscape:color="rgb(0,0,255)" /><sodipodi:guide
       position="238.78125,334.54688"
       orientation="1,0"
       id="guide833"
       inkscape:locked="false"
       inkscape:label=""
       inkscape:color="rgb(0,0,255)" /><sodipodi:guide
       position="22.144531,333.0625"
       orientation="0,1"
       id="guide4524"
       inkscape:locked="false"
       inkscape:label=""
       inkscape:color="rgb(0,0,255)" /><sodipodi:guide
       position="26.505456,311.7899"
       orientation="0,1"
       id="guide4556"
       inkscape:locked="false"
       inkscape:label=""
       inkscape:color="rgb(0,0,255)" /><sodipodi:guide
       position="33.6,302.208"
       orientation="0,1"
       id="guide4558"
       inkscape:locked="false"
       inkscape:label=""
       inkscape:color="rgb(0,0,255)" /><sodipodi:guide
       position="249.375,184.3125"
       orientation="0,1"
       id="guide4560"
       inkscape:locked="false"
       inkscape:label=""
       inkscape:color="rgb(0,0,255)" /><sodipodi:guide
       position="33.6,174.72"
       orientation="0,1"
       id="guide4562"
       inkscape:locked="false"
       inkscape:label=""
       inkscape:color="rgb(0,0,255)" /><sodipodi:guide
       position="27.168,308.82888"
       orientation="1,0"
       id="guide4636"
       inkscape:locked="false"
       inkscape:label=""
       inkscape:color="rgb(0,0,255)" /><sodipodi:guide
       position="37.653437,328.224"
       orientation="0,1"
       id="guide4638"
       inkscape:locked="false"
       inkscape:label=""
       inkscape:color="rgb(0,0,255)" /><sodipodi:guide
       position="234.24,286.37824"
       orientation="1,0"
       id="guide4640"
       inkscape:locked="false"
       inkscape:label=""
       inkscape:color="rgb(0,0,255)" /></sodipodi:namedview><g
     inkscape:groupmode="layer"
     id="layer3"
     inkscape:label="cut"
     style="display:inline"><path
       d="m 249.61466,332.56067 c 0,6.236 -5.10267,11.33867 -11.33867,11.33867 l -215.433317,0 c -6.236,0 -11.337333,-5.10267 -11.337333,-11.33867 l 0,-309.921334 c 0,-6.237333 5.101333,-11.338666 11.337333,-11.338666 l 215.433317,0 c 6.236,0 11.33867,5.101333 11.33867,11.338666 z"
       style="fill:#16afbd;stroke:#231f20;stroke-width:1;stroke-linecap:butt;stroke-linejoin:miter;stroke-miterlimit:4;stroke-dasharray:none;stroke-opacity:1;fill-opacity:1"
       id="path6570"
       inkscape:connector-curvature="0" /></g><g
     id="g842"
     inkscape:groupmode="layer"
     inkscape:label="background"
     transform="matrix(1.3333333,0,0,-1.3333333,0,355.19999)"><rect
       style="opacity:1;fill:#ffffff;fill-opacity:1;stroke:url(#linearGradient4578);stroke-width:0.75118113;stroke-miterlimit:4;stroke-dasharray:none;stroke-opacity:0.94117647"
       id="rect4566"
       width="155.304"
       height="114.43452"
       x="20.376001"
       y="-131.03998"
       transform="scale(1,-1)"
       ry="4.125" /><rect
       style="opacity:1;fill:#ffffff;fill-opacity:1;stroke:url(#linearGradient4588);stroke-width:0.75118107;stroke-miterlimit:4;stroke-dasharray:none;stroke-opacity:0.94117647"
       id="rect4580"
       width="155.304"
       height="88.415642"
       x="20.376001"
       y="-226.65599"
       transform="scale(1,-1)"
       ry="3.75" /></g><g
     inkscape:groupmode="layer"
     id="layer2"
     inkscape:label="secureLine"
     style="display:none"
     sodipodi:insensitive="true"><g
       id="g2736"
       transform="matrix(1.3333333,0,0,-1.3333333,238.276,321.99612)"><path
         d="m 0,0 c 0,-4.357 -3.463,-7.924 -7.694,-7.924 h -146.187 c -4.231,0 -7.694,3.567 -7.694,7.924 v 216.593 c 0,4.359 3.463,7.925 7.694,7.925 H -7.694 c 4.231,0 7.694,-3.566 7.694,-7.925 z"
         style="fill:none;stroke:#ed1c24;stroke-width:0.75;stroke-linecap:butt;stroke-linejoin:miter;stroke-miterlimit:4;stroke-dasharray:3;stroke-dashoffset:0;stroke-opacity:1"
         id="path2738"
         inkscape:connector-curvature="0" /></g></g><g
     inkscape:groupmode="layer"
     id="layer1"
     inkscape:label="content"><text
       xml:space="preserve"
       style="font-style:normal;font-weight:normal;line-height:0%;font-family:sans-serif;letter-spacing:0px;word-spacing:0px;fill:#000000;fill-opacity:1;stroke:none;stroke-width:1px;stroke-linecap:butt;stroke-linejoin:miter;stroke-opacity:1"
       x="26.848118"
       y="43.256229"
       id="text832"><tspan
         sodipodi:role="line"
         id="tspan830"
         x="26.848118"
         y="43.256229"
         style="font-style:normal;font-variant:normal;font-weight:normal;font-stretch:normal;font-size:21.33333397px;line-height:125%;font-family:Dosis;-inkscape-font-specification:Dosis;stroke-width:1px">Jump-In</tspan></text>
<text
       xml:space="preserve"
       style="font-style:normal;font-weight:normal;line-height:0%;font-family:sans-serif;letter-spacing:0px;word-spacing:0px;fill:#000000;fill-opacity:1;stroke:none;stroke-width:1px;stroke-linecap:butt;stroke-linejoin:miter;stroke-opacity:1"
       x="31.167999"
       y="194.9751"
       id="text23776"
       sodipodi:linespacing="0%"><tspan
         sodipodi:role="line"
         x="31.167999"
         y="194.9751"
         id="tspan23730"
         style="font-size:40px;line-height:6.66666698"><tspan
           x="31.167999"
           y="194.9751"
           style="font-style:normal;font-variant:normal;font-weight:normal;font-stretch:normal;font-size:13.33333302px;line-height:10.66666698px;font-family:Dosis;-inkscape-font-specification:Dosis"
           id="tspan23728">Take actions or make moves when </tspan></tspan><tspan
         sodipodi:role="line"
         x="31.167999"
         y="209.86571"
         id="tspan23736"
         style="font-size:40px;line-height:6.66666698"><tspan
           x="31.167999"
           y="209.86571"
           style="font-style:normal;font-variant:normal;font-weight:normal;font-stretch:normal;font-size:13.33333302px;line-height:10.66666698px;font-family:Dosis;-inkscape-font-specification:Dosis"
           id="tspan23732">you are not in control of the game.</tspan><tspan
           dx="0"
           x="203.38153"
           y="209.86571"
           style="font-style:normal;font-variant:normal;font-weight:normal;font-stretch:normal;font-size:13.33333302px;line-height:10.66666698px;font-family:Dosis;-inkscape-font-specification:Dosis"
           id="tspan23734" /></tspan><tspan
         sodipodi:role="line"
         x="31.167999"
         y="220.53238"
         id="tspan23740"
         style="font-size:40px;line-height:6.66666698" /><tspan
         sodipodi:role="line"
         x="31.167999"
         y="231.42302"
         id="tspan23746"
         style="font-size:40px;line-height:6.66666698"><tspan
           x="31.167999"
           y="231.42302"
           style="font-style:normal;font-variant:normal;font-weight:normal;font-stretch:normal;font-size:13.33333302px;line-height:10.66666698px;font-family:Dosis;-inkscape-font-specification:Dosis"
           id="tspan23742">* interruptions in game flow</tspan><tspan
           dx="0"
           x="172.33987"
           y="231.42302"
           style="font-style:normal;font-variant:normal;font-weight:normal;font-stretch:normal;font-size:13.33333302px;line-height:10.66666698px;font-family:Dosis;-inkscape-font-specification:Dosis"
           id="tspan23744" /></tspan><tspan
         sodipodi:role="line"
         x="31.167999"
         y="246.31363"
         id="tspan23752"
         style="font-size:40px;line-height:6.66666698"><tspan
           x="31.167999"
           y="246.31363"
           style="font-style:normal;font-variant:normal;font-weight:normal;font-stretch:normal;font-size:13.33333302px;line-height:10.66666698px;font-family:Dosis;-inkscape-font-specification:Dosis"
           id="tspan23748">* more influence / freedom of choice</tspan><tspan
           dx="0"
           x="219.293"
           y="246.31363"
           style="font-style:normal;font-variant:normal;font-weight:normal;font-stretch:normal;font-size:13.33333302px;line-height:10.66666698px;font-family:Dosis;-inkscape-font-specification:Dosis"
           id="tspan23750" /></tspan><tspan
         sodipodi:role="line"
         x="31.167999"
         y="256.98029"
         id="tspan23756"
         style="font-size:40px;line-height:6.66666698" /><tspan
         sodipodi:role="line"
         x="31.167999"
         y="267.87094"
         id="tspan23762"
         style="font-size:40px;line-height:6.66666698"><tspan
           x="31.167999"
           y="267.87094"
           style="font-style:normal;font-variant:normal;font-weight:normal;font-stretch:normal;font-size:13.33333302px;line-height:10.66666698px;font-family:Dosis;-inkscape-font-specification:Dosis"
           id="tspan23758">Relates to: Turn Based, Phases</tspan><tspan
           dx="0"
           x="182.88675"
           y="267.87094"
           style="font-style:normal;font-variant:normal;font-weight:normal;font-stretch:normal;font-size:13.33333302px;line-height:10.66666698px;font-family:Dosis;-inkscape-font-specification:Dosis"
           id="tspan23760" /></tspan><tspan
         sodipodi:role="line"
         x="31.167999"
         y="278.5376"
         id="tspan23766"
         style="font-size:40px;line-height:6.66666698" /><tspan
         sodipodi:role="line"
         x="31.167999"
         y="289.42822"
         id="tspan23770"
         style="font-size:40px;line-height:6.66666698"><tspan
           x="31.167999"
           y="289.42822"
           style="font-style:normal;font-variant:normal;font-weight:normal;font-stretch:normal;font-size:13.33333302px;line-height:10.66666698px;font-family:Dosis;-inkscape-font-specification:Dosis"
           id="tspan23768">Examples: Uno, Magic, </tspan></tspan><tspan
         sodipodi:role="line"
         x="31.167999"
         y="304.31885"
         id="tspan23774"
         style="font-size:40px;line-height:6.66666698"><tspan
           x="31.167999"
           y="304.31885"
           style="font-style:normal;font-variant:normal;font-weight:normal;font-stretch:normal;font-size:13.33333302px;line-height:10.66666698px;font-family:Dosis;-inkscape-font-specification:Dosis"
           id="tspan23772">Minderheitenquartett</tspan></tspan></text>
<path
       style="fill:#000000;fill-opacity:1;stroke-width:0.16116382"
       d="m 114.89262,162.79649 c -1.41778,-0.49701 -2.58278,-1.10656 -3.02847,-1.58456 -0.20311,-0.21783 -0.66496,-0.96837 -1.02636,-1.66788 l -0.65707,-1.27184 -0.13705,-4.75434 c -0.0754,-2.61486 -0.14776,-7.07508 -0.16082,-9.91156 -0.0131,-2.83648 -0.0287,-5.70116 -0.0348,-6.36596 -0.0394,-4.29523 0.47868,-6.12224 2.1087,-7.43619 1.76828,-1.42539 2.26249,-1.59419 4.89158,-1.67068 4.15613,-0.12093 6.8027,-0.11948 8.21465,0.005 0.89884,0.0789 1.4226,0.064 1.48835,-0.0424 0.0558,-0.0903 0.14995,-0.7951 0.20922,-1.56627 0.13922,-1.81125 0.42753,-2.26416 1.75046,-2.74988 0.65106,-0.23904 1.54361,-0.39091 2.73192,-0.46487 0.97071,-0.0604 1.85542,-0.18496 1.96602,-0.27675 0.12297,-0.10205 1.37822,-0.16676 3.23113,-0.16655 1.66654,1.7e-4 3.4652,-0.0105 3.99704,-0.0239 0.53185,-0.0134 1.15086,0.0325 1.37562,0.10194 0.38949,0.12031 0.42554,0.0756 0.76987,-0.95571 0.33152,-0.99292 1.14379,-2.16311 1.75896,-2.53403 0.69391,-0.41838 5.33286,-0.44584 7.77992,-0.046 0.93072,0.15206 2.09879,0.2937 2.59572,0.31474 1.39798,0.0592 3.74842,0.85263 4.31616,1.45696 0.17702,0.18843 0.51806,0.77119 0.75788,1.295 0.43468,0.94947 0.43568,0.96038 0.32516,3.54513 -0.061,1.426 -0.21631,4.11572 -0.3452,5.97716 -0.12887,1.86145 -0.27263,4.1822 -0.31947,5.15724 -0.0468,0.97505 -0.0928,1.88159 -0.10219,2.01456 -0.009,0.13295 0.003,1.87351 0.0269,3.86791 0.0242,1.99441 -0.0136,3.98769 -0.0839,4.4295 -0.0703,0.44182 -0.14317,1.05827 -0.16192,1.36989 -0.0187,0.31163 -0.0443,0.69305 -0.0566,0.84762 -0.0321,0.39984 -1.24122,1.23832 -1.63665,1.13491 -0.21473,-0.0562 -0.31986,-0.004 -0.31986,0.15966 0,0.31959 -0.34349,0.43894 -1.26325,0.43894 -0.41437,0 -0.97772,0.0643 -1.25186,0.14296 -0.4876,0.13984 -5.3764,-0.0337 -6.4907,-0.23042 -0.60643,-0.10706 -0.59158,-0.22371 -0.17526,1.37677 0.21889,0.84152 0.24198,3.88685 0.0348,4.58868 -0.2047,0.6934 -0.72814,0.76405 -7.21182,0.97336 -1.41824,0.0458 -3.12255,0.15267 -3.78736,0.23754 -0.66479,0.0848 -2.1706,0.13453 -3.34622,0.11037 -1.17564,-0.0241 -2.20627,-9.4e-4 -2.29032,0.0506 -0.0841,0.052 -0.30668,0.44232 -0.49476,0.86748 -0.18807,0.42517 -0.63477,1.05721 -0.99268,1.40455 -0.63271,0.61402 -0.68257,0.63158 -1.79973,0.63372 -1.26757,0.002 -1.87425,0.11589 -1.87425,0.35051 0,0.0926 0.35326,0.10983 0.8864,0.0432 1.13591,-0.14192 1.17553,0.12678 0.0727,0.49308 -0.60354,0.20046 -1.09262,0.24402 -1.89369,0.16867 -0.73652,-0.0693 -1.7719,0.002 -3.25569,0.22544 -3.01692,0.45347 -5.68607,0.42987 -7.09121,-0.0627 z m 4.43201,-0.99256 c 0.97504,-0.0141 2.09915,-0.11545 2.49803,-0.22506 1.6997,-0.46709 2.37792,-0.62748 3.05412,-0.72224 0.39448,-0.0553 0.81282,-0.17983 0.92964,-0.27678 0.11681,-0.097 0.48303,-0.23519 0.81381,-0.30719 1.32082,-0.28748 2.86472,-0.93987 3.16616,-1.3379 0.41335,-0.54576 0.41862,-0.677 0.45395,-11.29936 0.0256,-7.71009 -0.0116,-9.49711 -0.23175,-11.12029 -0.24702,-1.82117 -0.37225,-3.80019 -0.32127,-5.07666 0.0555,-1.38962 -0.65229,-2.17299 -1.79573,-1.98743 -0.37169,0.0603 -0.77282,0.003 -1.11411,-0.15882 -0.42253,-0.2005 -0.66613,-0.21863 -1.17271,-0.0873 -0.81966,0.21249 -2.03662,0.2765 -6.62067,0.34827 l -3.72497,0.0583 -1.19052,0.65175 c -0.6548,0.35846 -1.26949,0.8053 -1.366,0.99296 -0.0965,0.18767 -0.28822,0.46862 -0.42602,0.62435 -0.13779,0.15573 -0.41752,0.93586 -0.62162,1.73362 -0.35894,1.40306 -0.37137,1.68234 -0.3798,8.54168 -0.005,3.90016 0.0535,8.03401 0.1295,9.18634 0.076,1.15231 0.1579,2.89348 0.18194,3.86926 0.051,2.06901 0.30664,3.49032 0.76232,4.23803 0.74475,1.22201 3.53399,2.72283 4.63882,2.49602 0.31024,-0.0636 1.36184,-0.12739 2.33688,-0.14156 z m 4.65496,-10.7749 c -0.0539,-0.14033 0.0195,-1.0701 0.16302,-2.06613 0.14351,-0.99605 0.26042,-1.86538 0.2598,-1.93185 -5.7e-4,-0.0665 -0.41814,-0.12124 -0.92782,-0.12169 -1.35782,-9.4e-4 -1.7496,-0.36995 -2.06876,-1.9473 -0.24267,-1.19929 -0.23942,-1.25139 0.16854,-2.70238 0.47047,-1.67329 1.17293,-2.9409 1.78402,-3.21933 0.5143,-0.23433 1.27158,-0.2396 2.31374,-0.0161 0.96222,0.20637 1.23085,0.45674 0.9306,0.86736 -0.18381,0.25139 -0.30955,0.26683 -0.99045,0.1216 -0.45023,-0.096 -0.93158,-0.10867 -1.13871,-0.0299 -0.47651,0.18117 -1.52277,1.10828 -1.52277,1.34934 0,0.10505 -0.14268,0.47086 -0.31707,0.81292 -0.39992,0.78442 -0.36808,2.41829 0.0599,3.0714 0.25186,0.38439 0.35303,0.42208 0.87536,0.32614 0.75161,-0.13804 0.86973,-0.25977 0.80465,-0.82928 -0.0434,-0.37967 -0.13968,-0.47269 -0.53586,-0.51767 -0.85879,-0.0975 -0.91091,-0.67041 -0.061,-0.67041 0.26652,0 0.63394,-0.0799 0.81648,-0.17762 0.27474,-0.14703 0.39874,-0.11078 0.72002,0.21049 0.46756,0.46757 0.51738,1.142 0.24758,3.35157 -0.10283,0.84209 -0.1917,1.89369 -0.19749,2.33688 -0.0133,1.01146 -0.4338,1.91588 -0.92333,1.98557 -0.2182,0.0311 -0.40145,-0.05 -0.4604,-0.20358 z m -7.58964,-0.81524 c -0.24737,-0.22173 -0.72537,-0.63132 -1.06222,-0.91019 -0.41549,-0.344 -0.59689,-0.6155 -0.56407,-0.84424 0.059,-0.41105 0.60488,-0.54751 0.84989,-0.21244 0.40171,0.54936 1.59176,1.40304 1.95589,1.40304 0.2169,0 0.64875,-0.23711 0.97288,-0.53414 0.46622,-0.42727 0.62321,-0.73001 0.78456,-1.51297 0.27302,-1.32489 0.16355,-1.71842 -0.68612,-2.46633 -0.71398,-0.62847 -0.73269,-0.63447 -1.17133,-0.37535 -0.24516,0.14481 -0.56436,0.21779 -0.70933,0.16217 -0.39072,-0.14994 -0.58686,-0.78215 -0.3336,-1.07528 0.31933,-0.3696 0.45028,-5.81968 0.15012,-6.24821 -0.24906,-0.35559 -0.1613,-0.52066 0.27683,-0.52066 0.18802,0 0.29546,-0.11721 0.29546,-0.32233 0,-0.37673 0.0173,-0.38096 0.55584,-0.1356 0.34384,0.15667 0.46421,0.13754 0.74747,-0.11881 0.23082,-0.20889 0.58002,-0.3062 1.10383,-0.3076 0.42141,-9.5e-4 0.86809,-0.0797 0.99262,-0.17449 0.12454,-0.0948 0.53761,-0.2706 0.91794,-0.39058 0.60195,-0.18991 0.72347,-0.18621 0.93821,0.0285 0.22089,0.22089 0.22103,0.27234 9.4e-4,0.49203 -0.13494,0.13495 -0.52087,0.29603 -0.85761,0.35796 -0.33676,0.062 -0.8155,0.30545 -1.06388,0.54113 -0.24838,0.23566 -0.75548,0.50196 -1.12688,0.59174 -0.71324,0.17243 -1.08216,0.65522 -1.15974,1.51768 -0.0207,0.2301 -0.0859,0.99857 -0.14489,1.70767 -0.059,0.70913 -0.14216,1.55975 -0.18479,1.89027 -0.0709,0.54974 -0.0396,0.60983 0.36705,0.70515 0.57618,0.13505 1.59149,1.09978 2.00878,1.90871 0.59704,1.15737 0.17551,3.24142 -0.8942,4.42095 -0.80007,0.88222 -2.22076,1.08485 -2.96004,0.42219 z m 17.96687,6.82183 c 0.13329,-0.13328 0.29725,-0.14148 0.55602,-0.0278 0.20185,0.0887 0.5483,0.11373 0.7699,0.0557 0.2216,-0.0581 0.56749,-0.0333 0.76863,0.0551 0.24843,0.10913 0.68817,0.10124 1.37102,-0.0246 0.89223,-0.1644 2.08578,-0.27917 6.36621,-0.61223 0.93348,-0.0726 1.27069,-0.17354 1.65192,-0.49433 0.2653,-0.22323 0.47902,-0.56205 0.47902,-0.75942 0,-0.19598 0.0907,-0.44699 0.20146,-0.55778 0.12136,-0.12134 0.21599,-0.72686 0.23803,-1.52299 0.0202,-0.72686 0.0563,-1.50126 0.0806,-1.72089 0.0383,-0.3475 -0.0403,-0.41749 -0.60584,-0.53927 -0.83802,-0.18048 -2.30087,-1.16467 -2.76877,-1.86281 -0.20095,-0.29981 -0.4438,-0.80747 -0.53968,-1.12814 -0.28301,-0.94661 -0.65191,-7.32421 -0.54642,-9.44704 0.0671,-1.35104 0.0228,-2.41973 -0.14702,-3.5456 -0.13371,-0.88641 -0.21801,-1.90174 -0.18734,-2.2563 0.0307,-0.35456 0.0149,-2.47587 -0.0352,-4.71403 -0.0944,-4.22031 -0.13764,-4.43777 -0.74248,-3.73137 -0.20807,0.24301 -0.38802,0.30625 -0.64018,0.22497 -0.69075,-0.22264 -6.75405,-0.28611 -8.1672,-0.0855 -1.90023,0.26977 -3.60471,0.88576 -4.10885,1.4849 -0.43069,0.51185 -0.53474,1.37881 -0.25408,2.11702 0.1511,0.3974 0.87662,0.7555 1.5307,0.7555 0.58519,0 1.31906,0.82998 1.6057,1.81599 0.2374,0.81667 0.27155,1.52038 0.22469,4.63057 -0.004,0.22159 0.003,1.96217 0.0141,3.86793 0.0111,1.90574 0.002,5.31436 -0.0199,7.57469 -0.022,2.26031 0.0256,5.39602 0.10605,6.9682 0.16761,3.27844 0.17728,3.29993 1.57697,3.50378 0.47053,0.0686 0.89541,0.13365 0.94417,0.14472 0.0488,0.011 0.17369,-0.065 0.27766,-0.16893 z m 5.51618,-9.88937 c 0,-0.22472 -0.11621,-0.58594 -0.25825,-0.80272 -0.19878,-0.30338 -0.24517,-0.70457 -0.20145,-1.74213 0.0663,-1.57436 -0.089,-1.88149 -0.95119,-1.88149 -1.2191,0 -2.28276,-2.03921 -1.83797,-3.52374 0.10271,-0.34283 0.18675,-0.81007 0.18675,-1.03832 0,-0.22824 0.0725,-0.45981 0.16115,-0.51459 0.0887,-0.0548 0.16118,-0.23025 0.16118,-0.38993 0,-0.15968 0.18131,-0.5575 0.4029,-0.88404 0.22161,-0.32656 0.40291,-0.69674 0.40291,-0.82265 0,-0.1259 0.14611,-0.30711 0.32468,-0.40267 0.17858,-0.0956 0.49944,-0.4506 0.71302,-0.78895 0.31978,-0.50654 0.50931,-0.63451 1.07335,-0.72471 0.49899,-0.0797 0.74819,-0.0463 0.91769,0.12315 0.29307,0.29307 0.12339,0.58594 -0.3395,0.58594 -0.22992,0 -0.55116,0.25672 -0.91718,0.73299 -0.30983,0.40314 -0.71564,0.92893 -0.90179,1.16843 -0.77033,0.99109 -1.14408,1.89678 -1.25744,3.04718 -0.09,0.91391 -0.0597,1.26245 0.14429,1.65691 0.28149,0.54434 0.91572,0.87195 1.39409,0.72012 0.37,-0.11743 0.78276,-0.87631 0.78276,-1.43913 0,-0.30104 0.11777,-0.45968 0.42915,-0.57807 0.59487,-0.22617 0.81904,0.0238 0.54701,0.60997 -0.14201,0.30603 -0.22283,1.47727 -0.25555,3.70378 -0.0263,1.79092 -0.0947,3.33205 -0.15199,3.42473 -0.20314,0.32868 -0.56862,0.17438 -0.56862,-0.24006 z m -6.53751,-2.12379 c -0.6991,-0.60515 -1.26762,-2.14112 -0.88097,-2.38007 0.0913,-0.0565 0.1661,-0.46467 0.1661,-0.90713 0,-0.51963 0.17624,-1.25044 0.49777,-2.06407 l 0.49775,-1.25962 -0.33659,-0.65977 c -0.2651,-0.51962 -0.33659,-0.95799 -0.33659,-2.06368 0,-1.03294 -0.0651,-1.4758 -0.24616,-1.67591 -0.22427,-0.24783 -0.18765,-0.32485 0.41215,-0.86673 0.39275,-0.35482 0.76835,-0.56449 0.9311,-0.51978 0.15005,0.0412 0.62938,0.12358 1.06522,0.183 0.91454,0.12469 1.33635,0.36424 1.83932,1.04453 0.33942,0.4591 0.34886,0.54602 0.17081,1.57391 -0.20743,1.19756 -0.45923,1.75463 -1.237,2.73665 -0.51358,0.64843 -0.64256,1.1266 -0.38346,1.42149 0.23846,0.2714 0.63899,1.5807 0.73706,2.4094 0.0798,0.67358 0.0203,0.96448 -0.36258,1.77279 -0.25188,0.53184 -0.57539,1.06416 -0.71891,1.18294 -0.43618,0.36095 -1.43546,0.40062 -1.81502,0.072 z m 1.25057,-1.12397 c 0.39229,-0.37584 0.45084,-0.55155 0.44302,-1.32961 -0.0112,-1.11521 -0.47865,-2.347 -0.89066,-2.347 -0.74829,0 -1.116,2.74379 -0.49478,3.69191 0.34004,0.51898 0.38554,0.51824 0.94242,-0.0154 z m 1.32491,-7.79167 c 0.31303,-0.95703 0.31757,-1.12277 0.0308,-1.12277 -0.23825,0 -0.49141,0.43487 -0.44053,0.75671 0.0168,0.10595 -0.11686,0.4675 -0.29691,0.80344 -0.45851,0.85548 -0.43083,1.17186 0.0621,0.70885 0.21416,-0.2012 0.50426,-0.71701 0.64465,-1.14623 z m -1.21436,-0.15543 c 0.10617,-0.35436 0.34307,-0.78409 0.52645,-0.95493 0.27388,-0.25516 0.30634,-0.3919 0.18174,-0.76587 -0.33888,-1.01716 -1.26889,-0.44346 -1.48269,0.91463 -0.2234,1.41913 0.39728,2.06521 0.7745,0.80617 z m 20.22441,14.11366 c 0.93532,-0.24362 1.68989,-0.6514 1.95389,-1.05588 0.0881,-0.13509 0.32803,-0.68075 0.53304,-1.2126 0.5041,-1.30777 0.60437,-3.1512 0.33753,-6.20597 -0.11997,-1.37328 -0.21904,-2.93201 -0.22016,-3.46385 -0.002,-1.09478 0.32081,-4.15817 0.65486,-6.20831 0.39185,-2.40483 0.72409,-6.29548 0.62446,-7.31282 -0.11794,-1.20438 -0.4958,-2.30881 -0.85506,-2.49923 -0.81412,-0.43152 -2.92616,-1.01569 -3.93846,-1.08935 -3.02661,-0.22019 -5.84545,-0.27239 -6.64665,-0.12307 -0.27022,0.0504 -0.83036,-0.0263 -1.26122,-0.17257 -0.70786,-0.24032 -0.80885,-0.24104 -1.16399,-0.008 -0.53109,0.34798 -1.26386,1.67729 -1.52527,2.76701 -0.17989,0.74985 -0.18151,1.86382 -0.01,6.64562 0.1135,3.15962 0.22001,6.90515 0.23672,8.32339 0.0485,4.1191 0.278,7.82358 0.52877,8.53578 0.3571,1.01415 0.99418,1.816 1.80739,2.27481 0.65049,0.36701 1.03246,0.4401 3.00163,0.57433 1.24097,0.0847 2.76396,0.21232 3.38444,0.28384 0.62049,0.0716 1.25153,0.14054 1.40232,0.15339 0.1508,0.0129 0.67078,-0.0799 1.15551,-0.20617 z m -0.26124,-7.31762 c -0.42883,-0.26053 -0.44017,-0.30323 -0.34956,-1.31683 0.0515,-0.57616 0.16029,-1.25781 0.24174,-1.51481 0.3531,-1.11398 0.0252,-1.54817 -0.73516,-0.97345 -0.20336,0.1537 -0.48358,0.20517 -0.77213,0.14179 -0.25899,-0.0569 -0.55125,-0.0179 -0.68252,0.091 -0.29755,0.24693 -5.55141,0.35736 -5.84115,0.12277 -0.45083,-0.36501 -0.35584,-0.61542 1.45047,-3.82403 0.59832,-1.06281 1.08786,-1.97188 1.08786,-2.02015 0,-0.0483 0.18903,-0.38721 0.42007,-0.75319 0.57042,-0.90361 1.06303,-3.62138 0.69736,-3.84738 -0.48046,-0.29694 -3.21256,1.62578 -3.21256,2.26084 0,0.20636 -0.10338,0.2055 -0.49503,-0.004 -0.28545,-0.15277 -0.29265,-0.20608 -0.0827,-0.61211 0.37331,-0.7219 2.57986,-2.72011 3.13943,-2.84302 0.72543,-0.15932 1.43999,0.0464 1.73735,0.50025 0.40688,0.62097 0.2043,2.43994 -0.42849,3.84746 -1.27142,2.82802 -1.86697,4.05309 -2.11536,4.35142 -0.22876,0.27476 -0.94964,1.58553 -0.94929,1.72608 8e-5,0.0257 0.92475,0.0467 2.05485,0.0467 1.96956,0 2.05194,-0.0134 1.98785,-0.32233 -0.0368,-0.17728 -0.0731,-1.19289 -0.0806,-2.25689 l -0.0137,-1.93457 0.77307,-1.53046 c 0.75435,-1.4934 1.70005,-2.73919 2.07938,-2.73919 0.10389,0 0.35125,-0.15252 0.54969,-0.33895 l 0.36078,-0.33894 0.57627,0.45982 c 0.31696,0.2529 0.57629,0.54159 0.5763,0.64153 0,0.31218 -0.42587,0.55303 -0.91234,0.51596 -0.62079,-0.0473 -0.72616,0.0335 -1.47521,1.13082 -1.21863,1.7853 -1.3543,2.17361 -1.35577,3.88064 -0.002,2.22598 0.0219,2.43412 0.29022,2.53709 0.32542,0.12488 0.79642,-0.32792 1.19275,-1.14662 0.40564,-0.83794 0.40538,-0.93453 -0.004,-1.30461 -0.20555,-0.18601 -0.31189,-0.4537 -0.28204,-0.70992 0.0424,-0.36393 0.11292,-0.40608 0.61199,-0.36577 0.33643,0.0272 0.72335,0.20418 0.95874,0.4386 0.36528,0.36382 0.39214,0.4983 0.36105,1.80784 -0.0185,0.77812 -0.10672,2.17627 -0.1961,3.10699 -0.0893,0.93071 -0.17934,2.05418 -0.1999,2.49658 -0.0423,0.90822 -0.24251,1.03143 -0.96407,0.59305 z m -23.60847,-27.09827 c -0.9731,-0.35285 -1.87535,-1.05663 -4.4801,-3.49463 -2.3605,-2.20939 -3.37787,-3.54752 -4.39226,-5.77703 -0.78619,-1.72798 -1.05385,-2.61898 -1.04816,-3.48912 0.004,-0.59677 0.63788,-1.86695 1.32321,-2.65107 0.86219,-0.986486 1.47194,-1.728496 2.18902,-2.663891 1.22257,-1.594724 5.36502,-5.526096 8.36647,-7.940163 0.53957,-0.433972 1.37991,-1.165065 1.86743,-1.624657 0.48752,-0.459587 1.19728,-1.031779 1.57724,-1.271538 0.37996,-0.239754 0.96014,-0.674936 1.28931,-0.967075 1.62576,-1.442884 5.85751,-2.176965 7.01582,-1.217028 0.19334,0.160228 0.62721,0.523693 0.96417,0.80771 0.71877,0.605848 0.79744,0.559751 1.25206,-0.733733 0.48339,-1.375324 1.18388,-2.688904 1.6794,-3.149225 0.23854,-0.221601 0.68891,-0.74983 1.00083,-1.173844 0.60041,-0.816189 3.5442,-3.398408 5.29983,-4.648866 0.57609,-0.41033 1.39306,-1.037494 1.81551,-1.393702 0.98851,-0.83353 3.67646,-2.609561 5.79892,-3.831571 0.91584,-0.527293 2.48519,-1.430118 3.48746,-2.006277 1.00227,-0.576162 1.92388,-1.134445 2.04802,-1.240631 0.12415,-0.106186 1.09162,-0.563835 2.14998,-1.016995 1.05834,-0.453159 2.14331,-0.95633 2.41104,-1.118157 0.26774,-0.161827 0.66811,-0.346113 0.8897,-0.409526 0.2216,-0.06341 0.65674,-0.313743 0.96698,-0.556291 1.27374,-0.995813 1.7005,-1.038298 2.5407,-0.252935 l 0.602,0.562705 -0.80582,0.720413 c -0.4432,0.396227 -0.90049,0.7232 -1.01619,0.726605 -0.11571,0.0034 -0.68869,0.260025 -1.27331,0.570265 -0.58461,0.31024 -1.13222,0.564072 -1.2169,0.564072 -0.0846,0 -0.42257,0.212723 -0.75084,0.472715 -0.32826,0.259992 -0.8101,0.524987 -1.07075,0.588879 -0.57574,0.141125 -2.06613,0.960592 -2.33392,1.283271 -0.1067,0.128565 -0.28413,0.233755 -0.39428,0.233755 -0.11015,0 -0.37324,0.135072 -0.58463,0.300159 -0.21138,0.165084 -0.55792,0.35458 -0.77006,0.421099 -0.21214,0.06652 -0.86485,0.429569 -1.45047,0.806781 -0.58562,0.377209 -1.39112,0.850867 -1.79,1.052568 -0.39888,0.201701 -0.82,0.50134 -0.93583,0.665862 -0.11583,0.164524 -0.30402,0.299133 -0.41822,0.299133 -0.31274,0 -0.79785,0.590551 -0.59041,0.718748 0.38759,0.239543 0.15505,0.442152 -0.3901,0.339883 -0.51353,-0.09634 -0.73808,0.0146 -2.61517,1.292094 -1.12938,0.768614 -2.45397,1.740356 -2.94355,2.159426 -0.48958,0.419069 -1.32528,1.063686 -1.85713,1.432481 -2.38546,1.654159 -4.46844,3.622935 -4.92382,4.653879 -0.16656,0.37709 -0.41377,0.684949 -0.55002,0.684949 -0.15493,0 -0.24747,0.147104 -0.24747,0.393397 0,0.216368 -0.0706,0.43702 -0.15685,0.490335 -0.0863,0.05333 -0.27905,0.354454 -0.4284,0.669195 -0.27546,0.580473 -0.22616,0.715959 0.33175,0.911711 0.33503,0.11755 -0.12249,0.457781 -0.49116,0.365252 -0.30197,-0.07579 -0.41978,-0.0166 -0.53534,0.268976 -0.42661,1.054253 -0.4591,2.048275 -0.0741,2.267835 0.33045,0.188464 0.27583,0.435193 -0.0964,0.435193 -0.17907,0 -0.32233,0.107441 -0.32233,0.241744 0,0.134302 0.14326,0.241743 0.32233,0.241743 0.17728,0 0.32232,0.07253 0.32232,0.161168 0,0.08864 -0.14504,0.161163 -0.32232,0.161163 -0.26571,0 -0.32166,0.106159 -0.31849,0.604363 0.0129,2.033419 1.23035,3.343203 3.40916,3.667826 0.78791,0.117393 2.87558,-0.155923 3.43646,-0.449902 0.65614,-0.343905 3.76369,-3.659198 4.13488,-4.411289 0.21227,-0.430104 1.36637,-1.827525 2.63501,-3.190549 2.35556,-2.530834 3.98995,-4.439386 5.32015,-6.2126 0.43221,-0.576161 1.84591,-2.135419 3.14154,-3.46502 1.29564,-1.3296 2.90971,-3.049103 3.58682,-3.821119 2.07473,-2.365509 3.93451,-3.834156 4.85529,-3.834156 0.72103,0 1.36902,0.248404 1.49338,0.572487 0.13598,0.354367 -0.11403,0.555488 -0.91392,0.735212 -0.37708,0.08473 -1.05669,0.407292 -1.51025,0.716817 -0.79565,0.542985 -1.21165,0.960156 -4.81283,4.826271 -0.90889,0.975769 -2.28763,2.446616 -3.06384,3.268544 -0.77622,0.821929 -1.60289,1.800401 -1.83705,2.174381 -0.23416,0.373982 -0.77759,1.103316 -1.20761,1.620748 -0.43002,0.517434 -0.78185,1.007188 -0.78185,1.088344 0,0.08116 -0.67365,0.926973 -1.497,1.879581 -0.82334,0.952613 -1.97912,2.353023 -2.56842,3.11202 -1.07668,1.386744 -1.73429,2.063071 -3.67046,3.77489 -0.57615,0.509404 -1.15634,1.047441 -1.28929,1.195647 -0.13296,0.148199 -0.58623,0.50588 -1.00727,0.794846 -0.42104,0.288959 -0.76554,0.586131 -0.76554,0.660381 0,0.07429 0.10834,0.34273 0.24076,0.596616 0.31213,0.59849 0.30675,1.31664 -0.0156,2.088296 -0.28195,0.6748 -0.33706,0.72852 -1.75613,1.711686 -1.15426,0.7997 -1.86384,1.38565 -4.6538,3.84293 -1.1633,1.02459 -2.26786,1.9674 -2.45457,2.09513 -0.38126,0.26082 -3.3212,2.9654 -5.29313,4.86939 -2.09274,2.02063 -2.27895,2.18471 -2.8493,2.51075 -0.29879,0.1708 -0.82874,0.36067 -1.17768,0.42191 -0.34893,0.0612 -0.95964,0.33511 -1.35712,0.60858 -0.66413,0.45693 -0.95748,0.55941 -2.35987,0.82446 -0.28875,0.0545 -0.82347,-0.0319 -1.32757,-0.21468 z m 4.71201,-2.6261 c 0.53184,-0.32307 1.29334,-0.76626 1.69222,-0.98486 0.39888,-0.21861 1.19664,-0.88264 1.7728,-1.47564 0.57617,-0.593 1.25269,-1.20696 1.50341,-1.36436 0.25071,-0.15739 1.08473,-0.90196 1.85338,-1.65458 0.76865,-0.75263 1.76016,-1.64156 2.20335,-1.97539 0.4432,-0.33384 1.20927,-0.9991 1.70236,-1.47834 0.4931,-0.47925 1.08435,-0.99461 1.31389,-1.14525 0.55856,-0.36658 2.60773,-2.1599 3.51883,-3.079496 0.40325,-0.40701 0.96531,-0.9456 1.24902,-1.19687 0.3922,-0.34736 0.51584,-0.590001 0.51584,-1.012329 0,-0.310181 -0.0935,-0.591363 -0.21179,-0.636754 -0.1165,-0.04463 -0.63299,0.02843 -1.14776,0.162519 -1.04726,0.272774 -1.90711,0.159958 -2.98953,-0.392255 -0.89569,-0.456948 -2.22344,-1.884406 -2.68117,-2.882535 -0.48035,-1.047411 -0.7859,-3.171862 -0.54671,-3.800998 0.0905,-0.237931 0.15946,-0.844272 0.15333,-1.347425 -0.007,-0.503152 0.0575,-1.137939 0.14138,-1.41064 l 0.15251,-0.495812 -0.83838,-0.02205 c -0.5187,-0.01363 -1.17195,-0.17734 -1.71323,-0.429302 -1.1275,-0.524844 -2.14399,-0.504784 -3.45349,0.06816 -0.17727,0.07756 -0.50552,0.180235 -0.72944,0.228159 -0.22391,0.04793 -0.84036,0.414251 -1.36989,0.814064 -0.52953,0.399808 -1.09126,0.728865 -1.24828,0.731221 -0.15702,0.0024 -0.36791,0.185202 -0.46866,0.406305 -0.17095,0.375223 -0.7072,0.792584 -1.76124,1.370794 -0.24238,0.132962 -1.18979,1.003241 -2.10534,1.933963 -0.91556,0.930719 -2.58932,2.479862 -3.71948,3.442538 -1.13016,0.962665 -2.05484,1.821387 -2.05484,1.908254 0,0.0869 -0.32405,0.537261 -0.72011,1.000853 -1.17625,1.37681 -2.14506,3.977166 -2.22219,5.964516 -0.0368,0.94947 -0.002,1.05803 0.56513,1.78733 0.3324,0.42705 0.60437,0.87163 0.60437,0.98796 0,0.11632 0.36708,0.59396 0.81573,1.0614 0.44864,0.46745 1.09608,1.28506 1.43876,1.81689 1.04674,1.6246 1.82469,2.51677 2.49984,2.86685 1.23309,0.6394 2.49122,0.91551 3.94851,0.86655 1.25141,-0.0421 1.45352,-0.0968 2.33687,-0.63343 z m 0.68992,-3.75778 c -0.15049,-0.33027 -0.13402,-0.70419 0.0798,-1.8131 0.29695,-1.53999 0.42184,-3.48244 0.23585,-3.66843 -0.0655,-0.0655 -0.11917,-0.25441 -0.11917,-0.4197 0,-0.66297 -0.49403,-0.47623 -1.76052,0.6655 -1.12901,1.01778 -1.33016,1.13882 -1.73265,1.04253 -0.62968,-0.15062 -0.75951,-0.2755 -1.59848,-1.53747 -0.40529,-0.60966 -1.03913,-1.32428 -1.40851,-1.58805 -1.18414,-0.84555 -1.7192,-1.38578 -1.7192,-1.7358 0,-0.18775 0.0807,-0.391206 0.17921,-0.452126 0.0986,-0.0609 0.95072,-0.13803 1.89368,-0.17139 2.73756,-0.0969 3.90968,-0.21583 4.85716,-0.49304 0.82076,-0.24014 1.07865,-0.42161 2.52199,-1.774841 0.59027,-0.553409 0.50664,-1.211686 -0.22542,-1.774357 -1.28583,-0.988301 -1.39856,-1.028641 -2.29579,-0.821539 -0.76631,0.176888 -0.84306,0.165683 -1.17583,-0.17159 -0.35445,-0.359229 -0.35459,-0.361892 -0.0337,-0.60344 0.2527,-0.190204 0.60085,-0.221817 1.61164,-0.146354 1.04779,0.07822 1.44026,0.18789 2.09514,0.585447 1.26582,0.768461 1.39029,0.89024 1.5263,1.49328 0.21834,0.968113 -0.33529,1.875946 -1.83041,3.001464 -1.58943,1.196496 -2.24549,1.411936 -4.81707,1.581846 -2.31158,0.15273 -2.78291,0.35297 -1.77764,0.7552 0.61816,0.24733 1.14617,0.8177 1.83353,1.98062 0.41135,0.69592 0.76614,0.82105 1.0971,0.38693 0.14377,-0.1886 0.48568,-0.50815 0.75977,-0.7101 0.27409,-0.20196 0.98739,-0.80233 1.58511,-1.33418 0.59772,-0.53184 1.31627,-1.1684 1.59678,-1.41459 0.28051,-0.246166 0.77891,-0.520106 1.10757,-0.608736 0.57022,-0.15377 0.84507,-0.38097 0.85045,-0.70302 0.006,-0.32458 0.43217,-0.26812 0.52029,0.0688 0.0836,0.31986 0.16703,0.34791 0.78315,0.26347 0.52317,-0.0717 0.77492,-0.0254 1.04333,0.19195 0.31934,0.25859 0.34291,0.37969 0.24214,1.244286 -0.15928,1.36649 -0.80209,2.47491 -1.70043,2.93208 -0.39191,0.19943 -0.91837,0.3626 -1.16992,0.3626 -0.25153,0 -0.66157,0.10562 -0.91118,0.23469 -0.41682,0.21555 -0.46223,0.33059 -0.55671,1.41018 -0.14177,1.61995 -0.47766,3.71266 -0.63488,3.95558 -0.22383,0.34582 -0.75131,0.22696 -0.9525,-0.21462 z m 3.45347,-6.65449 c 0.61897,-0.23932 1.30071,-1.31584 1.16805,-1.84443 -0.1248,-0.49724 -0.8357,-0.71206 -1.39376,-0.42118 -0.55693,0.2903 -1.90322,1.2899 -1.90253,1.41259 3.2e-4,0.0589 0.14966,0.35165 0.33185,0.65047 0.29106,0.47742 0.39362,0.5329 0.8455,0.45734 0.28285,-0.0473 0.71075,-0.16194 0.95089,-0.25479 z m -17.27823,-0.11073 c 0,-0.12773 -0.0725,-0.23223 -0.16116,-0.23223 -0.0886,0 -0.16116,0.14933 -0.16116,0.33184 0,0.1825 0.0725,0.28701 0.16116,0.23223 0.0886,-0.0548 0.16116,-0.20411 0.16116,-0.33184 z m 32.89671,-25.327897 c 0.54396,-0.424111 1.56741,-1.228943 2.27433,-1.788516 0.70691,-0.559575 1.71234,-1.308908 2.23429,-1.665187 0.88989,-0.607428 1.25872,-0.943591 1.03531,-0.943591 -0.28478,0 -1.46028,0.753159 -2.74287,1.757389 -0.79777,0.624618 -1.84937,1.420244 -2.33689,1.768055 -0.98991,0.706237 -2.17672,1.898731 -1.73387,1.742179 0.15437,-0.05457 0.72574,-0.446217 1.2697,-0.870329 z M 94.580305,107.7769 c -0.57929,-0.23783 -1.28325,-0.61373 -1.56435,-0.83533 -0.87013,-0.68594 -2.25865,-2.8123 -3.79993,-5.81913 -0.20932,-0.40837 -0.64597,-1.179356 -0.97033,-1.713296 -0.32436,-0.53395 -0.58974,-1.02343 -0.58974,-1.08772 0,-0.0643 -0.21757,-0.391595 -0.48349,-0.727348 -0.26592,-0.335743 -0.48349,-0.72265 -0.48349,-0.859786 0,-0.137135 -0.0646,-0.28926 -0.14356,-0.33806 -0.079,-0.04877 -0.34091,-0.470084 -0.58211,-0.936198 -0.241199,-0.466115 -0.528982,-0.956265 -0.639511,-1.089225 -0.110522,-0.132962 -0.508323,-0.749413 -0.883991,-1.369894 -0.375668,-0.620477 -0.933947,-1.490763 -1.240617,-1.933963 -0.681369,-0.984708 -1.989783,-3.616723 -1.989783,-4.002655 0,-0.901802 -1.28792,-2.183506 -3.144655,-3.129464 -0.355644,-0.181193 -1.044614,-0.787337 -1.531055,-1.346991 -0.486442,-0.559648 -1.417655,-1.564175 -2.069374,-2.232275 -0.651717,-0.6681 -1.352526,-1.475279 -1.557353,-1.793725 -0.204827,-0.318446 -0.747288,-1.007381 -1.205463,-1.530962 -0.458172,-0.523582 -1.199313,-1.495937 -1.646976,-2.160789 -0.447663,-0.664851 -0.977356,-1.390128 -1.177095,-1.611729 -0.199739,-0.2216 -0.481161,-0.62048 -0.625386,-0.886401 -0.144218,-0.265919 -0.558695,-0.954894 -0.921053,-1.531054 -0.362358,-0.576161 -0.89565,-1.518968 -1.185102,-2.095128 -0.289442,-0.576161 -0.79003,-1.508214 -1.112402,-2.071229 -0.565549,-0.987704 -0.578599,-1.045976 -0.371462,-1.658742 0.206911,-0.612093 0.523578,-0.877249 1.691749,-1.41655 0.218464,-0.100857 0.352685,-0.284508 0.322331,-0.441033 -0.07975,-0.411208 -0.359758,-0.418238 -0.537325,-0.01349 -0.239005,0.544788 -1.40913,0.760151 -1.881135,0.346224 -0.191493,-0.167929 -0.295156,-0.214673 -0.23037,-0.103873 0.06479,0.1108 0.04724,0.201456 -0.039,0.201456 -0.09053,0 -0.153793,-0.612973 -0.149685,-1.450475 0.0071,-1.426435 0.01358,-1.450473 0.398549,-1.450473 0.215284,0 0.349487,0.06787 0.298214,0.15082 -0.0802,0.129769 0.583184,0.273946 1.764648,0.383522 0.190095,0.01763 0.321281,-0.06866 0.322326,-0.212014 0.0011,-0.145617 0.184826,-0.262682 0.462116,-0.294397 0.298,-0.03408 0.422531,0.0086 0.353107,0.120873 -0.0637,0.10306 0.03139,0.173524 0.234109,0.173524 0.187738,0 0.300913,-0.06542 0.251498,-0.145382 -0.05025,-0.08131 0.442712,-0.147471 1.118633,-0.150122 0.664669,-0.0026 1.208487,0.06282 1.208487,0.145383 0,0.08256 0.06619,0.150121 0.147097,0.150121 0.2051,0 1.740908,1.016599 2.491904,1.649474 0.343452,0.28943 1.102281,0.681404 1.686287,0.871054 0.584008,0.189651 1.087462,0.421712 1.118784,0.515694 0.103183,0.309537 0.700293,0.992869 0.867601,0.992869 0.09023,0 1.048148,0.888416 2.128704,1.974257 2.415924,2.427736 5.580783,5.387551 6.532719,6.109475 1.12697,0.854671 3.84862,3.677398 4.48175,4.648201 0.31794,0.487521 0.93022,1.338714 1.36063,1.891539 1.30087,1.670905 2.09809,3.433868 2.28357,5.049851 0.15193,1.323767 0.14071,1.420579 -0.26387,2.27579 -0.64292,1.359013 -1.27952,1.833676 -2.63893,1.967629 -1.4575,0.143615 -2.23598,0.0069 -3.82282,-0.671267 -0.71754,-0.306663 -1.594713,-0.611163 -1.949278,-0.676669 -0.354559,-0.0655 -0.844401,-0.214193 -1.088535,-0.330414 -0.244135,-0.116228 -0.490723,-0.164482 -0.547973,-0.107227 -0.121478,0.121478 1.124598,2.617136 1.543306,3.090957 0.15666,0.177277 0.706652,0.975041 1.22221,1.772799 0.51556,0.797759 1.23657,1.849355 1.60226,2.336876 0.36568,0.48752 0.75953,1.116857 0.87521,1.398528 0.11568,0.281672 0.34875,0.637404 0.51792,0.790508 0.16919,0.153103 0.30761,0.416866 0.30761,0.586127 0,0.16927 0.2076,0.482436 0.46134,0.695949 0.46662,0.392641 0.95572,1.671354 0.76025,1.987634 -0.0563,0.0912 0.0446,0.244526 0.22437,0.340736 0.20929,0.112 0.32684,0.33777 0.32684,0.62776 0,0.24906 0.14505,0.5841 0.32232,0.74454 0.18002,0.16291 0.32233,0.49638 0.32233,0.75527 0,0.25499 0.10451,0.50368 0.23228,0.55271 0.12775,0.0491 0.52472,0.53628 0.88216,1.08279 1.32446,2.02508 1.43921,2.1574 2.10041,2.42196 0.36278,0.14516 0.9084,0.26392 1.21248,0.26392 0.76614,0 2.19279,-0.31135 2.59786,-0.56696 0.1853,-0.11692 0.62739,-0.2908 0.98244,-0.3864 0.35504,-0.0956 0.958885,-0.40975 1.341855,-0.69809 0.7007,-0.52757 1.87175,-1.2473 2.52685,-1.553 0.87035,-0.40615 2.58506,-1.67471 2.83451,-2.097 0.151,-0.25563 0.45518,-0.51012 0.67595,-0.56553 0.38836,-0.0975 0.89075,-0.813866 0.89075,-1.270176 0,-0.12273 -0.34826,-0.79718 -0.77391,-1.498773 -0.67859,-1.118512 -1.44782,-2.676427 -3.29562,-6.674615 -0.26628,-0.576162 -0.76499,-1.618021 -1.10826,-2.315243 -0.34326,-0.697228 -0.6241,-1.370137 -0.6241,-1.495364 0,-0.246561 -0.79046,-1.871258 -1.35796,-2.791147 -0.19342,-0.313515 -0.54836,-1.030792 -0.788775,-1.593944 -1.14085,-2.672373 -2.74132,-4.536235 -3.89521,-4.536235 -0.24888,0 -1.05603,0.328986 -1.79369,0.73108 -1.16382,0.634399 -1.41108,0.713094 -1.86972,0.595078 -0.44006,-0.11323 -0.53695,-0.221408 -0.57873,-0.646138 -0.04,-0.407242 0.0758,-0.645242 0.57459,-1.179927 0.60862,-0.652473 0.66616,-0.675553 2.22589,-0.892983 1.81263,-0.252684 2.82436,-0.164429 3.22799,0.281583 0.15206,0.16802 0.39214,0.305537 0.53352,0.305595 0.1512,6.3e-5 0.62209,0.602074 1.14347,1.461891 0.48751,0.80398 1.082855,1.764873 1.322955,2.135312 1.32667,2.046806 1.61948,2.531826 2.0607,3.413311 0.26621,0.531841 0.48407,1.120188 0.48414,1.307439 7e-5,0.187252 0.2177,0.614234 0.48362,0.948855 0.26592,0.334614 0.48349,0.711856 0.48349,0.838307 0,0.126451 0.18997,0.64227 0.42215,1.146277 0.23217,0.503995 0.81807,1.859172 1.302,3.011489 0.48393,1.152324 1.09172,2.548596 1.35066,3.102835 0.25894,0.554233 0.4708,1.034578 0.4708,1.067438 0,0.03286 0.32048,0.594733 0.71218,1.248595 0.75185,1.255074 1.00472,2.117384 0.82771,2.82264 -0.14321,0.57062 -1.86933,2.35379 -3.07095,3.17245 -0.53184,0.36233 -1.43839,1.0422 -2.01455,1.5108 -0.57615,0.4686 -1.44644,1.00212 -1.93396,1.1856 -0.48752,0.18348 -1.52616,0.62691 -2.30809,0.9854 -0.836865,0.38367 -1.831325,0.70597 -2.417465,0.78349 -0.54767,0.0724 -1.21333,0.16869 -1.47925,0.21392 -0.31314,0.0533 -0.8546,-0.0702 -1.53674,-0.3502 z m -3.33846,-20.947345 c 0.52205,-0.490104 0.57234,-0.839261 0.12088,-0.839261 -0.44518,0 -0.40375,-0.233491 0.0806,-0.454166 0.41851,-0.190693 0.56752,-0.87555 0.23518,-1.080939 -0.0922,-0.05704 -0.13434,-0.224469 -0.0935,-0.372136 0.0408,-0.147659 -0.1557,-0.79694 -0.43664,-1.442844 -0.37504,-0.86224 -0.85349,-1.552059 -1.80012,-2.59539 -1.09187,-1.203414 -2.33688,-2.168266 -2.33687,-1.811022 0,0.05567 0.52073,0.645147 1.15717,1.309948 0.63645,0.6648 1.14219,1.293887 1.12388,1.397969 -0.0183,0.104082 0.11368,0.235887 0.2933,0.292898 0.21011,0.06668 0.3266,0.243493 0.3266,0.495704 0,0.243873 0.0929,0.392048 0.24573,0.392048 0.13515,0 0.32018,0.19944 0.41118,0.4432 0.091,0.243757 0.32443,0.565619 0.51875,0.715234 0.34634,0.266689 0.34697,0.274111 0.032,0.377235 -0.1767,0.05785 -0.47969,0.180851 -0.67331,0.27331 -0.19361,0.09247 -0.50184,0.128941 -0.68494,0.08106 -0.4751,-0.12424 -0.4114,-0.0046 0.15328,0.287075 0.41088,0.212475 0.46024,0.299922 0.31864,0.564498 -0.12084,0.225793 -0.11036,0.406714 0.0376,0.648933 0.17639,0.28878 0.15996,0.370957 -0.11719,0.586281 -0.2368,0.183973 -0.26587,0.271459 -0.10956,0.329707 0.1542,0.05744 0.12254,0.142477 -0.11501,0.308862 -0.26886,0.18832 -0.38675,0.192741 -0.65596,0.0246 -0.36921,-0.230574 -0.42986,-0.546081 -0.12674,-0.659302 0.126,-0.04706 0.0807,-0.11682 -0.12087,-0.186225 -0.60892,-0.209643 -0.80623,-0.360024 -1.00617,-0.766883 -0.431,-0.87701 -1.21783,-0.981005 -1.13245,-0.149667 0.0317,0.308782 -0.0547,0.46695 -0.31913,0.583816 -0.71164,0.314566 -0.2535,1.179741 0.52169,0.985184 0.22701,-0.05698 0.405,-0.03198 0.405,0.05692 0,0.245713 0.54033,0.477882 1.47967,0.635784 1.12646,0.189363 1.72706,0.07482 2.26739,-0.432441 z m -4.0996,-0.949354 c 0.11634,-0.04654 0.25534,-0.04085 0.3089,0.01271 0.0536,0.05355 -0.0417,0.09164 -0.21153,0.08464 -0.18775,-0.0077 -0.22593,-0.0459 -0.0974,-0.09737 z m 4.00559,-0.964335 c -0.18545,-0.185441 -0.11737,-0.376045 0.1343,-0.376045 0.13296,0 0.24175,0.108781 0.24175,0.241743 0,0.251672 -0.19061,0.319743 -0.37605,0.134302 z m -1.39675,0.358702 c 0,-0.03911 -0.0725,-0.11589 -0.16117,-0.170673 -0.0886,-0.05478 -0.16116,-0.0228 -0.16116,0.07107 0,0.09387 0.0725,0.170679 0.16116,0.170679 0.0886,0 0.16117,-0.03198 0.16117,-0.07107 z m -6.285389,-0.251261 c 0,-0.08864 -0.0768,-0.161162 -0.170673,-0.161162 -0.09387,0 -0.125854,0.07253 -0.07107,0.161162 0.05478,0.08864 0.131587,0.161169 0.170674,0.161169 0.03911,0 0.07107,-0.07253 0.07107,-0.161169 z m 2.700459,-0.52378 c -0.0786,-0.239388 -1.249984,-0.372849 -1.249984,-0.142414 0,0.173759 0.353439,0.296009 0.940124,0.325173 0.2343,0.01167 0.3511,-0.05722 0.30986,-0.182759 z m 1.16747,-0.756241 c 0,-0.07307 -0.12691,-0.177625 -0.28204,-0.232339 -0.15512,-0.05472 -0.37269,-0.14174 -0.48349,-0.193389 -0.11079,-0.05164 -0.20145,-0.01532 -0.20145,0.08069 0,0.09603 0.10103,0.174595 0.2245,0.174595 0.12348,0 0.26801,0.113379 0.32119,0.251957 0.0944,0.245916 0.42129,0.182668 0.42129,-0.08151 z m -5.963059,-0.0093 c 0,-0.08865 -0.113065,-0.161162 -0.251255,-0.161162 -0.13819,0 -0.206435,0.07252 -0.151653,0.161162 0.05478,0.08864 0.167848,0.161164 0.251255,0.161164 0.08341,0 0.151653,-0.07252 0.151653,-0.161164 z m 4.351423,-0.122522 c 0,-0.234461 -0.826336,-1.011964 -0.976735,-0.919017 -0.251197,0.15525 -0.170348,0.692169 0.130624,0.867466 0.333791,0.194418 0.846111,0.22563 0.846111,0.05153 z m 4.230546,-0.313545 c -0.2267,-0.04364 -0.36262,-0.186456 -0.36262,-0.380961 0,-0.248122 -0.11421,-0.311115 -0.56407,-0.311115 -0.43954,0 -0.56407,0.06523 -0.56407,0.295465 0,0.44573 0.14102,0.512332 1.03413,0.488402 0.45059,-0.01207 0.65607,-0.05338 0.45663,-0.09179 z m -7.776151,-0.369751 c 0,-0.08865 -0.126916,-0.160054 -0.282032,-0.158696 -0.24103,0.0024 -0.246891,0.02519 -0.04027,0.158696 0.304152,0.196559 0.322326,0.196559 0.322326,0 z m 3.142693,-0.966981 c -0.05478,-0.08864 -0.204107,-0.161164 -0.331836,-0.161164 -0.127733,0 -0.232233,0.07253 -0.232233,0.161164 0,0.08864 0.149326,0.161163 0.331836,0.161163 0.182511,0 0.287015,-0.07253 0.232233,-0.161163 z m -3.223275,-0.322328 c -0.4402,-0.18916 -0.564068,-0.18916 -0.564068,0 0,0.08864 0.199436,0.156066 0.443199,0.149835 0.392729,-0.01004 0.406493,-0.0271 0.120869,-0.149835 z m 5.171783,-1.086745 c -0.0541,-0.05415 -0.20418,0.0413 -0.33341,0.212109 -0.35897,0.474484 -0.28943,0.660554 0.0933,0.249715 0.1862,-0.199855 0.29423,-0.407676 0.24008,-0.461824 z m -7.347489,0.200343 c 0,-0.13296 -0.07253,-0.241746 -0.161168,-0.241746 -0.08864,0 -0.161163,0.108786 -0.161163,0.241746 0,0.132961 0.07253,0.241745 0.161163,0.241745 0.08865,0 0.161168,-0.108784 0.161168,-0.241745 z m -2.09513,-0.383177 c 0,-0.166425 -0.108788,-0.392877 -0.241744,-0.503224 -0.203725,-0.169075 -0.24175,-0.138381 -0.24175,0.195152 0,0.217681 0.04834,0.444132 0.107447,0.503224 0.200134,0.200136 0.376047,0.108845 0.376047,-0.195152 z m 7.67007,-0.945063 c -0.134331,-0.13433 -0.746637,0.300759 -0.647963,0.460425 0.06233,0.100849 0.218939,0.05692 0.408413,-0.114542 0.169024,-0.152964 0.27682,-0.308611 0.23955,-0.345883 z m -2.190503,0.280676 c 0,-0.08864 -0.108788,-0.161163 -0.24175,-0.161163 -0.132955,0 -0.241743,0.07253 -0.241743,0.161163 0,0.08864 0.108788,0.161163 0.241743,0.161163 0.132962,0 0.24175,-0.07253 0.24175,-0.161163 z m -6.735694,-0.689916 c -0.230121,-0.244955 -0.313099,-0.485023 -0.250447,-0.724602 0.09965,-0.381057 -0.03713,-0.447289 -0.421546,-0.204142 -0.33411,0.211322 -0.03726,0.989228 0.474923,1.244583 0.531824,0.265142 0.616055,0.130148 0.19707,-0.315839 z m 6.091039,0.39445 c 0,-0.209849 -0.191587,-0.34941 -0.347434,-0.25309 -0.166681,0.103014 -0.02298,0.387393 0.195782,0.387393 0.08341,0 0.151652,-0.06044 0.151652,-0.134303 z m -4.834912,-0.259095 c 0,-0.03908 -0.07252,-0.115893 -0.161163,-0.170676 -0.08864,-0.05478 -0.161162,-0.02279 -0.161162,0.07107 0,0.09387 0.07252,0.170676 0.161162,0.170676 0.08864,0 0.161163,-0.03198 0.161163,-0.07107 z m 1.531056,-0.251258 c 0.118913,-0.192403 -0.196906,-0.192403 -0.644657,0 -0.287811,0.123677 -0.275886,0.139722 0.111365,0.149836 0.238524,0.0062 0.478508,-0.0612 0.533292,-0.149836 z m 6.390141,-0.564073 c 0,-0.08421 -0.07797,-0.179093 -0.17325,-0.210855 -0.09529,-0.03177 -0.173255,0.06312 -0.173255,0.210855 0,0.147734 0.07797,0.242619 0.173255,0.210855 0.09529,-0.03177 0.17325,-0.126646 0.17325,-0.210855 z M 79.27544,77.932092 c 0,-0.08864 -0.104504,-0.161164 -0.232233,-0.161164 -0.127727,0 -0.277058,0.07253 -0.331842,0.161164 -0.05478,0.08864 0.04973,0.161163 0.232234,0.161163 0.182511,0 0.331841,-0.07253 0.331841,-0.161163 z m 2.253822,-0.542571 c -0.0035,-0.267888 -0.202878,-0.515109 -0.504708,-0.626192 -0.195265,-0.07187 -0.287208,0.01622 -0.347799,0.333164 -0.04532,0.236969 -0.05449,0.475933 -0.02042,0.53103 0.10371,0.167805 0.875595,-0.04264 0.872955,-0.238002 z m 0.969453,-0.424411 c 0,-0.08864 -0.07253,-0.161164 -0.161163,-0.161164 -0.08865,0 -0.161168,0.07253 -0.161168,0.161164 0,0.08864 0.07253,0.161163 0.161168,0.161163 0.08864,0 0.161163,-0.07253 0.161163,-0.161163 z m 1.369887,0 c 0.05478,-0.08864 -0.01776,-0.161164 -0.161162,-0.161164 -0.143424,0 -0.215945,0.07253 -0.161163,0.161164 0.05478,0.08864 0.127304,0.161163 0.161163,0.161163 0.03389,0 0.10638,-0.07253 0.161162,-0.161163 z m -9.887393,-0.402873 c 0,-0.08421 -0.07796,-0.179093 -0.173249,-0.210856 -0.09529,-0.03177 -0.17325,0.06312 -0.17325,0.210856 0,0.147734 0.07797,0.242619 0.17325,0.210856 0.09529,-0.03177 0.173249,-0.126647 0.173249,-0.210856 z m 6.817227,-0.743349 c 0.09189,-0.08585 -0.01561,-0.14305 -0.268854,-0.14305 -0.232082,0 -0.545116,-0.04726 -0.695638,-0.10502 -0.237728,-0.09123 -0.248753,-0.05845 -0.08395,0.249491 0.142025,0.265382 0.278428,0.327748 0.54253,0.248068 0.194039,-0.05854 0.4217,-0.170812 0.505909,-0.249489 z m -3.383259,-0.315351 c -0.051,-0.08252 -0.251625,-0.147721 -0.445834,-0.144902 -0.341496,0.005 -0.343052,0.01273 -0.04735,0.236583 0.315043,0.238468 0.657817,0.174743 0.493161,-0.09168 z m 4.885441,0.142082 c -0.09961,-0.298834 -0.44656,-0.348397 -0.44656,-0.0638 0,0.140347 0.114829,0.255176 0.255178,0.255176 0.140348,0 0.226465,-0.08612 0.191382,-0.191382 z m -8.907652,-0.130946 c 0.05478,-0.08864 0.258502,-0.169576 0.452711,-0.179858 0.291467,-0.01544 0.301645,-0.03199 0.05832,-0.09485 -0.411297,-0.10626 -1.108542,0.09023 -0.991607,0.279439 0.125024,0.202289 0.354024,0.200037 0.480574,-0.0047 z m 5.877472,-1.182497 c -0.355858,-0.80447 -0.924871,-1.113989 -1.4477,-0.787479 -0.209621,0.130912 -0.339281,0.108922 -0.539745,-0.09155 -0.160878,-0.160878 -0.263846,-0.189685 -0.263846,-0.07382 0,0.233398 0.515495,0.523696 0.929949,0.523696 0.168566,0 0.575134,0.299261 0.903489,0.665024 0.328353,0.365762 0.631222,0.630801 0.673048,0.588978 0.04183,-0.04182 -0.07302,-0.413012 -0.255195,-0.824861 z m -7.016908,0.07261 c 0.104547,-0.169161 -0.297565,-0.542086 -0.435639,-0.404017 -0.124442,0.124447 0.04003,0.546919 0.21291,0.546919 0.07393,0 0.174155,-0.06431 0.222729,-0.142902 z m 1.058855,-0.179426 c 0,-0.08864 -0.07253,-0.161163 -0.161169,-0.161163 -0.08864,0 -0.161161,0.07253 -0.161161,0.161163 0,0.08864 0.07253,0.161165 0.161161,0.161165 0.08865,0 0.161169,-0.07253 0.161169,-0.161165 z m 5.963055,-1.611637 c 0,-0.08864 -0.07253,-0.161164 -0.161162,-0.161164 -0.08865,0 -0.161169,0.07253 -0.161169,0.161164 0,0.08864 0.07253,0.161164 0.161169,0.161164 0.08864,0 0.161162,-0.07253 0.161162,-0.161164 z m 0.835366,-0.518409 c -0.115646,-0.115646 -0.19071,-0.12516 -0.19071,-0.02418 0,0.215117 0.190594,0.405711 0.298152,0.298152 0.04579,-0.0458 -0.0024,-0.169086 -0.107442,-0.273978 z m -1.480021,-0.287429 c 0,-0.08864 -0.03197,-0.161165 -0.07107,-0.161165 -0.03911,0 -0.11589,0.07253 -0.170673,0.161165 -0.05478,0.08864 -0.0228,0.161163 0.07107,0.161163 0.09387,0 0.170673,-0.07253 0.170673,-0.161163 z m -0.644657,-0.966982 c -0.166907,-0.311872 -0.644656,-0.455196 -0.644656,-0.193397 0,0.202944 0.365097,0.515724 0.601978,0.515724 0.165241,0 0.175146,-0.0748 0.04265,-0.322327 z m -8.702836,-0.805819 c 0,-0.08864 -0.03197,-0.161163 -0.07107,-0.161163 -0.03911,0 -0.115896,0.07253 -0.170679,0.161163 -0.05478,0.08864 -0.0228,0.161164 0.07107,0.161164 0.09387,0 0.170679,-0.07253 0.170679,-0.161164 z m 7.252362,-0.559934 c 0,-0.241893 -0.929584,-0.820492 -1.078676,-0.671401 -0.130148,0.130151 0.10982,0.425517 0.345709,0.425517 0.118246,0 0.256738,0.108785 0.307761,0.241746 0.119407,0.311171 0.425206,0.314147 0.425206,0.0041 z m -8.058181,-0.890539 c 0,-0.17728 -0.06659,-0.322327 -0.147985,-0.322327 -0.08139,0 -0.262696,-0.04402 -0.402905,-0.09783 -0.304773,-0.11695 -0.347376,0.263241 -0.06153,0.549083 0.296566,0.296573 0.612422,0.230078 0.612422,-0.12893 z m 4.190256,-0.170676 c 0,-0.08341 -0.108788,-0.151651 -0.24175,-0.151651 -0.249224,0 -0.320184,0.190166 -0.138683,0.371668 0.128761,0.128757 0.380433,-0.0168 0.380433,-0.220017 z m -6.48176,-2.894648 c -0.04526,-0.806971 -0.0466,-0.808776 -0.528864,-0.708259 -0.778285,0.16222 -0.8145,0.332115 -0.201455,0.94516 0.314676,0.314672 0.617934,0.57213 0.673912,0.57213 0.05599,0 0.08137,-0.364062 0.0564,-0.809031 z m 1.566267,0.486704 c 0.05478,-0.08864 0.0228,-0.161163 -0.07107,-0.161163 -0.09387,0 -0.170679,0.07253 -0.170679,0.161163 0,0.08864 0.03197,0.161165 0.07107,0.161165 0.03911,0 0.115896,-0.07253 0.170679,-0.161165 z m 0.886399,-4.173013 c 0,-0.178743 -0.495806,-0.380977 -0.622761,-0.25402 -0.05124,0.05123 0.01352,0.160609 0.143939,0.243072 0.301349,0.190583 0.478822,0.194639 0.478822,0.01094 z m 81.508545,43.537362 c -0.43937,-0.0998 -0.34151,-0.5239 0.12088,-0.5239 0.24337,0 0.40291,0.092 0.40291,0.23223 0,0.28737 -0.1572,0.37492 -0.52379,0.29167 z m 1.8131,-0.15636 c -0.31762,-0.11468 -0.80582,-0.54399 -0.80582,-0.70864 0,-0.0715 0.30822,-0.21081 0.68494,-0.30961 1.06707,-0.27988 1.89496,-0.57664 2.89394,-1.03742 0.85672,-0.39516 1.75415,-0.62786 3.23385,-0.83848 0.38138,-0.0543 0.6722,-0.20662 0.78039,-0.40878 0.13136,-0.24544 0.27983,-0.30075 0.62302,-0.23212 0.49105,0.0982 0.89212,-0.21431 0.99495,-0.77529 0.0488,-0.26633 0.20269,-0.32106 0.96891,-0.34464 0.63435,-0.0195 1.42536,-0.22919 2.60566,-0.690656 0.93213,-0.36445 1.8489,-0.66262 2.03726,-0.66262 0.18836,0 0.5508,-0.10774 0.80543,-0.23941 0.68553,-0.35451 1.89274,-0.748929 2.98606,-0.975595 0.53183,-0.110273 1.36586,-0.306001 1.85338,-0.434963 1.15707,-0.306067 3.61573,-0.855399 5.23782,-1.170288 0.70912,-0.137643 1.62323,-0.324897 2.03135,-0.416105 1.01235,-0.226239 2.86115,-0.315657 2.96753,-0.143522 0.12786,0.206869 -0.35467,0.405686 -1.53385,0.631985 -0.57617,0.110565 -1.48272,0.333512 -2.01456,0.495438 -0.53183,0.161917 -1.54716,0.420087 -2.25629,0.573709 -0.70911,0.153631 -2.04525,0.485411 -2.96919,0.737291 -0.92393,0.25187 -1.83048,0.45841 -2.01454,0.45895 -0.18408,4.9e-4 -0.54241,0.10934 -0.79629,0.24175 -0.2539,0.13241 -0.58947,0.24076 -0.74572,0.24076 -0.44262,0 -5.31921,1.565696 -6.89114,2.212496 -1.02644,0.42236 -1.32924,0.70529 -0.60705,0.56723 0.22012,-0.0421 0.52309,-0.0294 0.67327,0.0282 0.70592,0.27089 -0.98284,0.89133 -3.32447,1.22137 -0.66186,0.0933 -1.35084,0.26518 -1.53105,0.38196 -0.18021,0.11677 -0.73471,0.25357 -1.23221,0.30401 -0.49752,0.0505 -1.26021,0.27192 -1.69491,0.4922 -0.6762,0.34266 -1.33417,0.56347 -2.47718,0.83133 -0.13296,0.0312 -0.35053,0.0174 -0.48349,-0.0306 z M 93.785985,97.606731 c -0.81671,-0.331102 -1.07614,-0.639024 -0.90786,-1.077555 0.10859,-0.282961 0.13577,-0.276973 0.41336,0.09105 0.25031,0.331845 0.33663,0.361127 0.54783,0.185841 0.1985,-0.164732 0.37075,-0.168451 0.82715,-0.01779 0.48194,0.159054 0.64148,0.147624 0.97322,-0.06977 0.21823,-0.142992 0.39678,-0.397801 0.39678,-0.566233 0,-0.493021 -0.77698,-1.276384 -1.47272,-1.484832 -0.54681,-0.163826 -0.71173,-0.152192 -1.10085,0.07767 -0.25173,0.148704 -0.60571,0.270368 -0.78662,0.270368 -0.30098,0 -0.32802,-0.09637 -0.31826,-1.134207 0.0115,-1.226829 -0.31304,-1.885968 -0.82397,-1.673203 -0.13855,0.05768 -0.542,0.173464 -0.89656,0.257254 -0.35456,0.0838 -0.80414,0.302155 -0.99908,0.485246 -0.41089,0.385928 -0.85431,0.290347 -0.85431,-0.184164 0,-0.219363 0.18365,-0.401955 0.5642,-0.560959 0.31031,-0.129648 0.72731,-0.40774 0.92669,-0.617969 0.19937,-0.21023 0.67039,-0.503281 1.04669,-0.651225 0.68401,-0.268906 0.68435,-0.26886 1.17814,0.172611 0.29756,0.266017 0.60876,0.793981 0.78273,1.327888 l 0.28879,0.886301 0.91024,0.04085 c 0.96297,0.04323 0.99872,0.02292 0.75675,-0.429203 -0.0844,-0.157733 -0.18119,-0.751292 -0.21504,-1.319004 -0.0814,-1.364143 0.35373,-2.625162 1.02562,-2.972607 0.30455,-0.15749 0.47192,-0.370306 0.47352,-0.60207 0.004,-0.479246 0.14746,-0.670437 0.72277,-0.958532 0.49816,-0.249467 0.8864,-0.221341 0.8864,0.06421 0,0.0894 -0.29685,0.500367 -0.65968,0.913266 -0.77302,0.879698 -1.43417,2.415285 -1.43346,3.329341 5.9e-4,0.762013 0.91373,2.709979 1.30574,2.785471 0.1429,0.0275 0.51837,-0.102516 0.83438,-0.288966 0.53715,-0.316923 0.56375,-0.370018 0.40849,-0.815405 -0.0913,-0.262024 -0.12469,-0.584285 -0.0741,-0.716139 0.18849,-0.49121 0.71002,-0.236469 1.40639,0.686964 0.384365,0.50968 0.828335,1.056434 0.986595,1.215009 0.15826,0.158569 0.28774,0.357379 0.28774,0.441795 0,0.08442 0.20433,0.353555 0.45407,0.598084 0.96515,0.945016 1.28658,1.829829 0.74081,2.039255 -0.38336,0.147107 -0.57802,-0.02053 -1.75858,-1.514069 -0.59554,-0.753439 -1.153305,-1.396005 -1.239475,-1.427931 -0.0862,-0.03192 -0.3503,0.125551 -0.58694,0.349933 -0.23664,0.224383 -0.68408,0.472463 -0.99432,0.551293 -0.5179,0.131592 -0.57128,0.201891 -0.65206,0.858793 -0.11857,0.964288 -0.37108,1.372568 -0.98023,1.584923 -0.72421,0.252464 -1.55676,0.206658 -2.391,-0.131562 z m 67.360625,-1.312564 c 0,-0.304448 0.32782,-0.795293 0.52945,-0.792752 0.10768,0.0011 0.30458,0.07442 0.43753,0.162352 0.20484,0.13548 0.18025,0.208355 -0.16116,0.477438 -0.4443,0.350177 -0.80582,0.418806 -0.80582,0.152962 z m 1.18642,-0.875799 c -0.051,-0.132962 -0.0558,-0.338086 -0.0106,-0.455827 0.11654,-0.303699 2.60587,-1.483271 4.26835,-2.022568 0.77291,-0.250721 1.72714,-0.611547 2.1205,-0.801827 0.39338,-0.19028 0.87864,-0.345959 1.07835,-0.345959 0.19973,0 0.40795,-0.07253 0.46274,-0.161168 0.0548,-0.08864 0.26212,-0.161163 0.46077,-0.161163 0.19863,0 0.43125,-0.07009 0.51691,-0.155749 0.16481,-0.164807 1.18933,-0.417332 4.34073,-1.069914 4.18664,-0.866961 6.0965,-1.032615 7.53379,-0.653447 0.6351,0.167545 1.34277,0.561063 1.0804,0.600782 -0.0399,0.006 -0.72524,0.04016 -1.523,0.07584 -1.6977,0.07593 -3.26157,0.275034 -4.83491,0.615573 -0.62047,0.134303 -1.74167,0.362271 -2.49156,0.506601 -0.74988,0.144334 -1.7627,0.402756 -2.25071,0.574276 -0.48801,0.171519 -1.00563,0.311856 -1.15027,0.311856 -0.64422,0 -7.26308,2.408438 -8.49622,3.091561 -0.64292,0.356165 -0.98219,0.371856 -1.10525,0.05112 z m -13.9677,-1.472954 c -0.16402,-0.164018 0.0416,-0.380427 0.36145,-0.380427 0.1612,0 0.38337,0.108782 0.49371,0.241743 0.17065,0.205612 0.12943,0.241744 -0.27573,0.241744 -0.262,0 -0.52274,-0.04636 -0.57943,-0.10306 z m 3.66685,-1.361451 c -0.0596,-0.09636 -0.0276,-0.25592 0.0711,-0.354565 0.13169,-0.131697 0.17935,-0.08513 0.17935,0.175211 0,0.389131 -0.0837,0.44909 -0.25042,0.179354 z m -2.3282,-0.630613 c 0,-0.08864 0.0725,-0.161163 0.16116,-0.161163 0.0886,0 0.16117,0.07253 0.16117,0.161163 0,0.08864 -0.0725,0.161162 -0.16117,0.161162 -0.0886,0 -0.16116,-0.07252 -0.16116,-0.161162 z m 1.12814,-0.322331 c 0,-0.08864 0.0768,-0.161163 0.17069,-0.161163 0.0939,0 0.12585,0.07253 0.0711,0.161163 -0.0548,0.08864 -0.13158,0.161168 -0.17067,0.161168 -0.0391,0 -0.0711,-0.07253 -0.0711,-0.161168 z m -2.57861,-1.289307 c 0,-0.08865 0.0725,-0.161162 0.16116,-0.161162 0.0886,0 0.16117,0.07252 0.16117,0.161162 0,0.08864 -0.0725,0.161163 -0.16117,0.161163 -0.0886,0 -0.16116,-0.07252 -0.16116,-0.161163 z m 0.63889,-0.395961 c 0.26422,-0.318374 0.77581,-0.405413 0.97465,-0.165822 0.21853,0.263307 0.0652,0.354907 -0.61732,0.368799 -0.42677,0.0087 -0.49896,-0.03232 -0.35733,-0.202977 z m 1.72936,0.121984 c -0.52523,-0.136148 -0.18687,-0.43116 0.53721,-0.468372 l 0.70933,-0.03644 -0.39721,0.305237 c -0.21846,0.167882 -0.43347,0.298436 -0.47779,0.290126 -0.0444,-0.0083 -0.21151,-0.04904 -0.37154,-0.09053 z m -1.00336,-1.184591 c -0.15314,-0.247784 0.0567,-0.40766 0.26348,-0.200806 0.11574,0.115745 0.11852,0.205889 0.008,0.273919 -0.0903,0.05577 -0.21261,0.02286 -0.27193,-0.07311 z m 1.29432,-0.314231 c -0.0548,-0.08864 -0.0228,-0.161169 0.0711,-0.161169 0.0939,0 0.17068,0.07253 0.17068,0.161169 0,0.08864 -0.032,0.161163 -0.0711,0.161163 -0.0391,0 -0.11589,-0.07253 -0.17067,-0.161163 z m -2.07266,-0.111828 c -0.1815,-0.181501 -0.11054,-0.371665 0.13869,-0.371665 0.13295,0 0.24174,0.06824 0.24174,0.151652 0,0.203225 -0.25166,0.348773 -0.38043,0.220013 z m 2.23381,-1.338647 c 0.0548,-0.08864 0.13159,-0.161162 0.17068,-0.161162 0.0391,0 0.0711,0.07252 0.0711,0.161162 0,0.08864 -0.0768,0.161162 -0.17067,0.161162 -0.0939,0 -0.12586,-0.07252 -0.0711,-0.161162 z m 0.97632,0.01508 c -0.13768,-0.222774 0.15902,-0.325504 0.82802,-0.286708 0.60455,0.03505 0.49199,0.223315 -0.21847,0.365404 -0.29699,0.0594 -0.5439,0.0275 -0.60955,-0.07869 z m 14.77408,-0.528805 c 0.0996,-0.298836 0.44657,-0.348403 0.44657,-0.0638 0,0.140349 -0.11484,0.255177 -0.25518,0.255177 -0.14035,0 -0.22648,-0.08612 -0.19139,-0.191383 z m 0.84469,-0.461026 c -0.12743,-0.206163 0.0536,-0.475741 0.31938,-0.475741 0.11825,0 0.25478,-0.103705 0.30342,-0.230458 0.0758,-0.197609 3.32459,-1.869542 5.34504,-2.75076 0.35456,-0.154641 1.00726,-0.446532 1.45047,-0.648649 0.4432,-0.202118 1.02338,-0.441648 1.28931,-0.532289 0.26592,-0.09064 0.99115,-0.362313 1.61164,-0.603713 0.62048,-0.241401 1.34571,-0.494881 1.61164,-0.563292 0.26592,-0.06841 0.88235,-0.266787 1.36987,-0.440839 0.48752,-0.174052 1.32155,-0.440356 1.8534,-0.591786 0.53183,-0.151432 1.61969,-0.492461 2.41745,-0.757848 2.21469,-0.736741 5.72778,-1.60452 6.27777,-1.550691 0.40145,0.03929 0.50042,0.128982 0.5421,0.491264 0.047,0.4083 0.007,0.443201 -0.50942,0.443201 -0.30823,0 -1.02015,0.144111 -1.58205,0.320249 -0.56189,0.176135 -1.12787,0.321182 -1.25772,0.322326 -0.79482,0.007 -13.42592,4.284023 -15.23563,5.158944 -0.8864,0.428538 -2.22809,1.04747 -2.98152,1.375407 -0.75345,0.327936 -1.676,0.72941 -2.05013,0.892167 -0.40052,0.174242 -0.7192,0.232837 -0.77502,0.142508 z M 151.31562,85.92312 c 0,-0.140341 0.11483,-0.255171 0.25518,-0.255171 0.2846,0 0.23504,0.346946 -0.0638,0.446554 -0.10525,0.03511 -0.19137,-0.05106 -0.19137,-0.191383 z m 2.50933,-0.398072 c -0.1465,-0.237044 0.37669,-0.581152 0.5778,-0.380038 0.0949,0.09489 0.1238,0.251364 0.0642,0.347729 -0.13054,0.211221 -0.51938,0.230788 -0.64205,0.03232 z m -2.90347,-0.783792 c 0.014,-0.321083 0.10372,-0.4432 0.32543,-0.4432 0.36529,0 0.51631,0.546742 0.20544,0.743748 -0.38665,0.245034 -0.5507,0.152156 -0.53087,-0.300548 z m 4.85301,0.01341 c -0.18544,-0.185434 -0.11737,-0.376045 0.1343,-0.376045 0.13295,0 0.24174,0.108788 0.24174,0.241749 0,0.251667 -0.19061,0.319743 -0.37604,0.134302 z m -3.81421,-0.859533 c 0,-0.08864 0.0683,-0.161163 0.15165,-0.161163 0.0834,0 0.19647,0.07253 0.25125,0.161163 0.0548,0.08864 -0.0135,0.161163 -0.15164,0.161163 -0.13819,0 -0.25126,-0.07252 -0.25126,-0.161163 z m 2.31805,-1.150919 c 0.0141,-0.742504 0.0874,-1.032967 0.29313,-1.162736 0.38612,-0.243486 0.49693,-0.05876 0.26722,0.445399 -0.16253,0.35672 -0.15303,0.472442 0.056,0.681465 0.22825,0.228253 0.27905,0.205588 0.54383,-0.242646 0.28438,-0.481402 0.71201,-0.793214 0.71201,-0.519152 0,0.441213 -0.52151,1.303933 -0.78823,1.303933 -0.16523,0 -0.39071,0.108788 -0.50106,0.241743 -0.42056,0.506751 -0.60233,0.273497 -0.5829,-0.748006 z m -1.8041,0.231218 c 0.0276,-0.139966 0.15891,-0.30537 0.29186,-0.367575 0.13297,-0.06221 0.40314,-0.196398 0.60042,-0.298205 0.33601,-0.173418 0.34798,-0.161685 0.18965,0.185814 -0.20928,0.459308 -1.16103,0.881521 -1.08193,0.479966 z m 2.60378,-2.229942 c -0.0525,-0.136783 -0.0551,-0.289093 -0.006,-0.338465 0.14114,-0.141134 0.43355,0.09825 0.43355,0.354927 0,0.309249 -0.30743,0.297421 -0.42787,-0.01646 z m 3.00649,-0.234795 c 0,-0.08864 0.0768,-0.161164 0.17067,-0.161164 0.0939,0 0.12585,0.07253 0.0711,0.161164 -0.0548,0.08864 -0.13158,0.161164 -0.17068,0.161164 -0.0391,0 -0.0711,-0.07253 -0.0711,-0.161164 z m -0.39816,-0.959286 c -0.18071,-0.292398 0.0356,-0.406201 0.73728,-0.387804 1.08308,0.0284 1.09438,0.348205 0.0174,0.492658 -0.4013,0.05383 -0.6806,0.01503 -0.75469,-0.104854 z m 7.65053,-0.167495 c 0,-0.08789 0.14504,-0.250381 0.32232,-0.361093 0.17729,-0.110714 0.32233,-0.29692 0.32233,-0.413788 0,-0.116868 0.0711,-0.168584 0.15786,-0.114926 0.25507,0.157641 -0.31914,1.039736 -0.68164,1.047139 -0.0665,0.0013 -0.12087,-0.06944 -0.12087,-0.157332 z m -8.54168,-0.233602 c 0,-0.138192 0.0725,-0.251258 0.16116,-0.251258 0.0886,0 0.16116,0.06824 0.16116,0.151652 0,0.08341 -0.0725,0.196475 -0.16116,0.251258 -0.0887,0.05478 -0.16116,-0.01346 -0.16116,-0.151652 z m 2.90094,0.0077 c 0,-0.234199 0.38919,-0.460741 0.53721,-0.312709 0.0469,0.04688 0.0462,0.186929 -9.4e-4,0.311223 -0.11236,0.292808 -0.53572,0.293983 -0.53572,0.0014 z m -0.87608,-0.693133 c -0.11158,-0.290757 0.26724,-0.694006 0.65196,-0.694006 0.70246,0 0.96316,0.549482 0.34499,0.727164 -0.19943,0.05732 -0.48094,0.136899 -0.62556,0.176828 -0.15074,0.04162 -0.30923,-0.04801 -0.37139,-0.209992 z m 1.76248,-0.210514 c 0.0548,-0.08864 0.16785,-0.161164 0.25126,-0.161164 0.0834,0 0.15166,0.07253 0.15166,0.161164 0,0.08864 -0.11307,0.161164 -0.25126,0.161164 -0.13819,0 -0.20645,-0.07253 -0.15166,-0.161164 z m 1.20873,-0.142142 c 0,-0.08864 0.0725,-0.205985 0.16117,-0.260768 0.0886,-0.05478 0.16116,-0.02708 0.16116,0.06156 0,0.08864 -0.0725,0.205985 -0.16116,0.260768 -0.0886,0.05478 -0.16117,0.02708 -0.16117,-0.06156 z m 1.37368,-0.471865 c -0.18345,-0.183454 -0.0577,-0.316048 0.56682,-0.597669 0.71199,-0.32106 0.81264,-0.766005 0.19328,-0.854371 -0.19854,-0.02832 -0.36098,-0.123391 -0.36098,-0.211254 0,-0.09764 0.4543,-0.131143 1.16844,-0.08616 1.00592,0.06336 1.21713,0.02883 1.5185,-0.248236 l 0.35005,-0.321827 0.26802,0.518299 c 0.31006,0.599576 0.11349,1.005074 -0.31488,0.649562 -0.46793,-0.388348 -2.03204,0.09454 -2.31454,0.71457 -0.15315,0.336133 -0.88004,0.631761 -1.07471,0.43709 z m -3.26735,-0.505043 c -0.45377,-0.378545 -0.45854,-0.499464 -0.0178,-0.450397 0.18966,0.02112 0.37702,-0.05227 0.41633,-0.163063 0.0393,-0.110801 -0.0433,-0.201455 -0.18369,-0.201455 -0.14035,0 -0.25518,-0.06676 -0.25518,-0.148358 0,-0.198592 0.88328,-0.383423 1.26037,-0.263738 0.17906,0.05683 0.46923,-0.03721 0.71759,-0.232572 0.22933,-0.180394 0.4568,-0.263555 0.50546,-0.184803 0.0487,0.07875 0.30758,0.187 0.57534,0.240553 0.26777,0.05356 0.48685,0.162908 0.48685,0.24301 0,0.229102 -0.84174,0.519156 -1.5936,0.549137 -0.56416,0.02249 -0.73238,0.10676 -0.95057,0.476126 -0.30976,0.524367 -0.46827,0.546725 -0.96115,0.13556 z m 8.35217,-1.129857 c -0.2544,-0.157227 -0.0917,-0.490877 0.2393,-0.490877 0.24497,0 0.32282,0.408484 0.10367,0.543928 -0.0707,0.04371 -0.22506,0.01983 -0.34297,-0.05306 z m -3.53384,-0.750273 c -0.26378,-0.184756 -0.32292,-0.311678 -0.20171,-0.432886 0.20446,-0.204458 1.02337,0.170748 0.93716,0.429384 -0.0917,0.275185 -0.34584,0.276396 -0.73545,0.0035 z m -2.35627,-0.05594 c -0.0527,-0.08528 -0.01,-0.321171 0.0959,-0.524216 0.10541,-0.203046 0.24219,-0.477961 0.30396,-0.61092 0.0618,-0.132961 0.25805,-0.263612 0.43624,-0.290337 0.17817,-0.02672 0.52882,-0.262425 0.77922,-0.523782 0.25039,-0.261354 0.58419,-0.475191 0.74176,-0.475191 0.15758,0 0.36413,-0.145048 0.45901,-0.322328 0.20081,-0.375195 0.80582,-0.435696 0.80582,-0.08059 0,0.13296 -0.0725,0.241746 -0.16116,0.241746 -0.0886,0 -0.16117,0.108785 -0.16117,0.241746 0,0.175736 0.18117,0.241746 0.66346,0.241746 0.56719,0 0.65209,0.04344 0.58514,0.299437 -0.043,0.16469 -0.006,0.429535 0.0835,0.588545 0.13664,0.244158 0.11029,0.275639 -0.16947,0.202478 -0.18221,-0.04764 -0.66408,-0.02446 -1.07083,0.05153 -0.44788,0.08367 -0.90199,0.0764 -1.15145,-0.01844 -0.46318,-0.176101 -0.97846,0.02306 -1.32577,0.512423 -0.28691,0.404273 -0.79289,0.662295 -0.91411,0.466152 z m 3.28321,-1.718894 c -0.23926,-0.288277 -0.57015,-0.283782 -0.6826,0.0092 -0.10154,0.264596 0.16337,0.395269 0.58146,0.286823 0.22243,-0.0577 0.24474,-0.123056 0.10114,-0.296096 z m 1.78914,-0.454295 c 0,-0.127728 0.0757,-0.27902 0.16822,-0.336202 0.20809,-0.128606 0.66702,0.229258 0.54573,0.425534 -0.14434,0.233538 -0.71395,0.162266 -0.71395,-0.08933 z m 2.65919,-0.0901 c 0.0548,-0.08864 0.16785,-0.161163 0.25126,-0.161163 0.0834,0 0.15166,0.07253 0.15166,0.161163 0,0.08864 -0.11307,0.161165 -0.25126,0.161165 -0.13819,0 -0.20645,-0.07253 -0.15166,-0.161165 z m 8.8185,-0.765526 c 0.0368,-0.176569 0.18594,-0.26873 0.3989,-0.24645 0.18711,0.01957 0.42872,-0.07109 0.53692,-0.201456 0.10819,-0.130373 0.29495,-0.237041 0.41502,-0.237041 0.12006,0 0.33845,-0.183393 0.48532,-0.407541 0.40522,-0.61844 6.59996,-3.617347 8.68099,-4.202513 0.441,-0.124005 1.42007,-0.43294 2.17571,-0.68652 0.75565,-0.25358 1.77276,-0.550345 2.26028,-0.659477 0.48752,-0.109134 1.23922,-0.300403 1.67045,-0.425042 1.33314,-0.385335 2.03632,-0.269602 2.03632,0.335144 0,0.431776 -0.76188,0.818773 -1.32304,0.67203 -0.79188,-0.207082 -7.43222,1.842378 -10.61983,3.277679 -0.78878,0.355172 -1.47985,0.645767 -1.53571,0.645767 -0.0558,0 -0.74287,0.326356 -1.52671,0.725237 -0.78383,0.398879 -1.52288,0.725236 -1.64232,0.725236 -0.11943,0 -0.50203,0.215553 -0.85023,0.479008 -0.72274,0.546851 -1.25258,0.640747 -1.16207,0.205939 z m -9.7049,-0.210967 c 0,-0.09387 0.0725,-0.125853 0.16116,-0.07107 0.0887,0.05478 0.16117,0.131587 0.16117,0.170676 0,0.03908 -0.0725,0.07107 -0.16117,0.07107 -0.0886,0 -0.16116,-0.0768 -0.16116,-0.170676 z m 0.64465,0 c 0,-0.09387 0.0725,-0.125853 0.16117,-0.07107 0.0886,0.05478 0.16116,0.131587 0.16116,0.170676 0,0.03908 -0.0725,0.07107 -0.16116,0.07107 -0.0886,0 -0.16117,-0.0768 -0.16117,-0.170676 z m 0.0571,-0.873724 c 0.0573,-0.1492 0.1041,-0.517793 0.1041,-0.819094 0,-0.449803 0.072,-0.565898 0.40254,-0.648854 0.22141,-0.05557 0.52964,-0.05136 0.68495,0.0093 0.24728,0.09665 0.22405,0.157256 -0.18674,0.487314 -0.25802,0.207317 -0.48157,0.546219 -0.49678,0.753117 -0.0163,0.220848 -0.14833,0.399559 -0.3199,0.432811 -0.21734,0.04211 -0.26558,-0.01291 -0.18817,-0.214636 z m 3.36858,-0.895663 c 0.10862,-0.173926 0.29488,-0.316229 0.4139,-0.316229 0.32504,0 0.14234,0.353639 -0.25951,0.502293 -0.31875,0.117913 -0.33329,0.100394 -0.15439,-0.186064 z m 5.9364,-1.185099 c -0.1493,-0.179906 -0.0338,-0.335029 0.58463,-0.784966 0.4239,-0.308412 1.01758,-0.686564 1.31933,-0.840334 0.30175,-0.153773 0.83842,-0.489513 1.19262,-0.746092 0.3542,-0.256578 0.70858,-0.466504 0.78752,-0.466504 0.17168,0 3.82604,-1.75731 6.41583,-3.085246 3.48139,-1.785123 3.73622,-1.861892 3.83721,-1.156064 0.038,0.265745 -0.1185,0.44724 -0.6588,0.763881 -0.38978,0.228425 -0.8111,0.416211 -0.93628,0.417304 -0.12517,0.0011 -2.09847,0.940088 -4.38509,2.086659 -2.28662,1.14657 -4.31634,2.135088 -4.51047,2.196702 -0.19413,0.06161 -0.60775,0.27058 -0.91916,0.464369 -1.33276,0.829386 -2.28877,1.374506 -2.41054,1.374506 -0.0719,0 -0.21445,-0.100898 -0.3168,-0.224215 z m -3.30284,-1.201081 c -0.0557,-0.09024 -0.0229,-0.212605 0.0732,-0.271926 0.24778,-0.153141 0.40765,0.05662 0.20081,0.263477 -0.11576,0.115744 -0.2059,0.118524 -0.27393,0.0085 z"
       id="path36624"
       inkscape:connector-curvature="0" /></g></svg>